Sam/sd_parser/sim/HT_sim.vcd
$date
	Mon Dec 05 19:37:56 2022
$end
$version
	Icarus Verilog
$end
$timescale
	1ps
$end
$scope module HT_tb $end
$var wire 16 ! y_val [15:0] $end
$var wire 16 " x_val [15:0] $end
$var wire 1 # axiov $end
$var reg 1 $ axiid $end
$var reg 1 % axiiv $end
$var reg 1 & clk $end
$var reg 23 ' code [22:0] $end
$var reg 1 ( rst $end
$scope module UUT $end
$var wire 1 $ axiid $end
$var wire 1 % axiiv $end
$var wire 1 & clk $end
$var wire 1 ( rst $end
$var wire 4 ) y_abs [3:0] $end
$var wire 4 * x_abs [3:0] $end
$var wire 1 + found $end
$var parameter 32 , LINBITS $end
$var parameter 32 - MAX_BITS $end
$var reg 1 # axiov $end
$var reg 5 . bit_counter [4:0] $end
$var reg 17 / buffer [16:0] $end
$var reg 9 0 word [8:0] $end
$var reg 4 1 x_linbit_counter [3:0] $end
$var reg 2 2 x_linval [1:0] $end
$var reg 1 3 x_sign $end
$var reg 1 4 x_signbit_counter $end
$var reg 16 5 x_val [15:0] $end
$var reg 4 6 y_linbit_counter [3:0] $end
$var reg 2 7 y_linval [1:0] $end
$var reg 1 8 y_sign $end
$var reg 1 9 y_signbit_counter $end
$var reg 16 : y_val [15:0] $end
$upscope $end
$scope begin $ivl_for_loop0 $end
$var integer 32 ; i [31:0] $end
$upscope $end
$upscope $end
$enddefinitions $end
$comment Show the parameter values. $end
$dumpall
b10001 -
b10 ,
$end
#0
$dumpvars
b0 ;
bx :
x9
x8
bx 7
bx 6
bx 5
x4
x3
bx 2
bx 1
b0 0
bx /
bx .
0+
b0 *
b0 )
0(
b11000100000100101011 '
0&
0%
0$
0#
bx "
bx !
$end
#10000
1&
#20000
0&
1(
#30000
b0 !
b0 :
b0 "
b0 5
09
04
b0 6
b0 1
b0 7
b0 2
08
03
b0 /
b0 .
1&
#40000
0&
1%
0(
#50000
b1 .
1&
#60000
0&
b1 ;
1%
#70000
b10 .
1&
#80000
0&
b10 ;
1%
#90000
b11 .
1&
#100000
0&
1$
b11 ;
1%
#110000
b10000000000000 /
b100 .
1&
#120000
0&
b100 ;
1%
#130000
b11000000000000 /
b101 .
1&
#140000
0&
0$
b101 ;
1%
#150000
b110 .
1&
#160000
0&
b110 ;
1%
#170000
b111 .
1&
#180000
0&
b111 ;
1%
#190000
b1000 .
1&
#200000
0&
1$
b1000 ;
1%
#210000
b11000100000000 /
b1001 .
1&
#220000
0&
0$
b1001 ;
1%
#230000
b111 "
b111 5
1+
b111 *
b101110000 0
b1010 .
1&
#240000
0&
b1010 ;
1%
#250000
1#
14
1&
#260000
0&
b1011 ;
1%
#270000
0#
b0 "
b0 5
0+
b0 *
b0 0
b0 /
b1 .
1&
#280000
0&
b1100 ;
1%
#290000
b10 .
1&
#300000
0&
b1101 ;
1%
#310000
b11 .
1&
#320000
0&
1$
b1110 ;
1%
#330000
b10000000000000 /
b100 .
1&
#340000
0&
0$
b1111 ;
1%
#350000
b101 .
1&
#360000
0&
b10000 ;
1%
#370000
b110 .
1&
#380000
0&
1$
b10001 ;
1%
#390000
b10010000000000 /
b111 .
1&
#400000
0&
0$
b10010 ;
1%
#410000
b1000 .
1&
#420000
0&
1$
b10011 ;
1%
#430000
b10010100000000 /
b1001 .
1&
#440000
0&
0$
b10100 ;
1%
#450000
b1010 .
1&
#460000
0&
1$
b10101 ;
1%
#470000
b1001 !
b1001 :
1+
b1001 )
b100001001 0
b10010101000000 /
b1011 .
1&
#480000
0&
b10110 ;
1%
#490000
1#
b1111111111110111 !
b1111111111110111 :
19
18
1&
#500000
0&
b10111 ;
0%
#510000
0+
b0 )
0#
b0 !
b0 :
b0 0
09
08
b0 /
b0 .
1&
