Sam/sd_parser/sim/sf_parser_sim.vcd
$date
	Sun Dec 04 23:19:15 2022
$end
$version
	Icarus Verilog
$end
$timescale
	1ps
$end
$scope module sf_parser_tb $end
$var wire 144 ! scalefac_s [143:0] $end
$var wire 84 " scalefac_l [83:0] $end
$var wire 1 # axiov $end
$var reg 1 $ axiid $end
$var reg 1 % axiiv $end
$var reg 3203 & bit_code_3 [3202:0] $end
$var reg 8 ' block_type [7:0] $end
$var reg 1 ( clk $end
$var reg 4 ) mixed_block_flag [3:0] $end
$var reg 1 * rst $end
$var reg 16 + scalefac_compress [15:0] $end
$var reg 8 , scfsi [7:0] $end
$var reg 1 - si_valid $end
$var reg 4 . window_switching_flag [3:0] $end
$scope module UUT $end
$var wire 1 $ axiid $end
$var wire 1 % axiiv $end
$var wire 8 / block_type_in [7:0] $end
$var wire 1 ( clk $end
$var wire 4 0 mixed_block_flag_in [3:0] $end
$var wire 1 * rst $end
$var wire 16 1 scalefac_compress_in [15:0] $end
$var wire 8 2 scfsi_in [7:0] $end
$var wire 1 - si_valid $end
$var wire 4 3 window_switching_flag_in [3:0] $end
$var wire 3 4 shift_2 [2:0] $end
$var wire 3 5 shift_1 [2:0] $end
$var parameter 32 6 CH $end
$var parameter 32 7 GR $end
$var reg 1 # axiov $end
$var reg 32 8 bit_counter [31:0] $end
$var reg 3 9 bitlen_1 [2:0] $end
$var reg 3 : bitlen_2 [2:0] $end
$var reg 2 ; block_type [1:0] $end
$var reg 4 < buffer [3:0] $end
$var reg 1 = mixed_block_flag $end
$var reg 4 > scalefac_compress [3:0] $end
$var reg 84 ? scalefac_l [83:0] $end
$var reg 144 @ scalefac_s [143:0] $end
$var reg 4 A scfsi [3:0] $end
$var reg 1 B window_switching_flag $end
$upscope $end
$scope begin $ivl_for_loop0 $end
$var integer 32 C i [31:0] $end
$upscope $end
$upscope $end
$enddefinitions $end
$comment Show the parameter values. $end
$dumpall
b0 7
b0 6
$end
#0
$dumpvars
b0 C
xB
bx A
bx @
bx ?
bx >
x=
bx <
bx ;
bx :
bx 9
bx 8
bx 5
bx 4
b1111 3
b0 2
b1111111111011101 1
b0 0
b10101010 /
b1111 .
0-
b0 ,
b1111111111011101 +
0*
b0 )
0(
b10101010 '
b1001100000000011001001010000000100100000000000000000000100001001001010000000010000000010000000000110111100101011110011000110111110100010001011000111100011000001111100000110010011000010111111100011111000100000000110110001000001100110000011010001010111000010110000000000000110010110101000001110000110000100000000000110100110011010001000010110100110001001110001001110000011110001011110101100001001000001110001100100001110011110000011100010100001011111010100100101001111000110000011100100101110101110000110001101010000001100001100000110100001101001000010010100001100100100000010001100101001011001010111110010101010101110010110000100111010101110110100011001110010110001011001000110010100000001111000000011100001100001000000111001001100000001010001100011001101010100000111010110000111000010000100001000101010110001010011000000010000011000001001100010110000001010001100100110001000100000100110100100000010100100010000010100101111111100100110000000011000100100011100001010001001100110000010100101101011100000001010000011000110100101001010101010001010010110100010100111010011010101001000001101011001110000110010010101011000101011001001100110111011101011101100010001100101010010011011011100101101100110111010110000100000000100000000010111010101001011110100111110010000001010000001011001000100010110000001101010001111110011111111101111111000111101010101010101010111110010111111010010011001000000110100010101100011101011101101101110011110000000100011011000000010001011101001000001110000110010101100100101100010010010000001001001111110110101011101101100100111100000001010010000110010110110011001100111101010101101000001000011001011110001010110101000100101011111100000001110000111101000110110101100000001000000011010011010111011000101110111000110100011010100101101101000110110111110101001100101110110001011111100100010101011000100111001110001100101011110010100011011011010011001001101101111001000111000010100000000101111110110111101000101000010111000001100010111100101011011111110110010100010001101001001100101101000000011110010100000000100110101011001010111011010100101111011001010100110011100001000111000001010000001110001101010100110100101101100001100010001000110000111101001011001011010100101100101110110000011001000110111000000101011001000001001110001111001111001111010011001100000011101101110000101011010010001111000101101011111011101110001110100010111010111011100101110001110101111110000110101111101100111011010100000100011010011000100101011001000110111000011101000110100010011000001100000000001011110100010001011000011101001001101100110011000101100100011111001110110010111010100100100111001011111101101110100101110101100001010010110000110111011011110000100111111000011111101101110110001011000110001111111111111111111111111111111111111100011110100111101001000101011110100111101000100001010111011111100101100110111100100000011101101010000000010110111111011011111110000001000111011010100001110110101101100111111111111111111111111111111111111110100111110000010111000011001000100000011010111101000001010000011000000111000111000111000011000010101000001100000101000010110101110110001000011111001001000000001001110011100101100000000010000011100011011100010010000100100001011001100000100001010010100000100 &
0%
0$
x#
bx "
bx !
$end
#10000
1(
#20000
0(
1*
#30000
b0 8
b0 <
b0 !
b0 @
b0 "
b0 ?
1(
#40000
0(
0*
#50000
1(
#60000
0(
1-
#70000
0#
b1 4
b11 :
b1 5
b11 9
b0 A
0=
b10 ;
1B
b1101 >
1(
#80000
0(
1%
b110010000010 C
0-
#90000
b1 8
1(
#100000
0(
0%
#110000
1(
#120000
0(
#130000
1(
#140000
0(
#150000
1(
#160000
0(
#170000
1(
#180000
0(
1%
b110010000001 C
#190000
b10 8
1(
#200000
0(
0%
#210000
1(
#220000
0(
#230000
1(
#240000
0(
#250000
1(
#260000
0(
#270000
1(
#280000
0(
1%
b110010000000 C
#290000
b11 8
1(
#300000
0(
0%
#310000
1(
#320000
0(
#330000
1(
#340000
0(
#350000
1(
#360000
0(
#370000
1(
#380000
0(
1%
b110001111111 C
#390000
b100 8
1(
#400000
0(
0%
#410000
1(
#420000
0(
#430000
1(
#440000
0(
#450000
1(
#460000
0(
#470000
1(
#480000
0(
1%
b110001111110 C
#490000
b101 8
1(
#500000
0(
0%
#510000
1(
#520000
0(
#530000
1(
#540000
0(
#550000
1(
#560000
0(
#570000
1(
#580000
0(
1%
b110001111101 C
#590000
b110 8
1(
#600000
0(
0%
#610000
1(
#620000
0(
#630000
1(
#640000
0(
#650000
1(
#660000
0(
#670000
1(
#680000
0(
1%
b110001111100 C
#690000
b111 8
1(
#700000
0(
0%
#710000
1(
#720000
0(
#730000
1(
#740000
0(
#750000
1(
#760000
0(
#770000
1(
#780000
0(
1%
b110001111011 C
#790000
b1000 8
1(
#800000
0(
0%
#810000
1(
#820000
0(
#830000
1(
#840000
0(
#850000
1(
#860000
0(
#870000
1(
#880000
0(
1%
b110001111010 C
#890000
b1001 8
1(
#900000
0(
0%
#910000
1(
#920000
0(
#930000
1(
#940000
0(
#950000
1(
#960000
0(
#970000
1(
#980000
0(
1%
b110001111001 C
#990000
b1010 8
1(
#1000000
0(
0%
#1010000
1(
#1020000
0(
#1030000
1(
#1040000
0(
#1050000
1(
#1060000
0(
#1070000
1(
#1080000
0(
1%
b110001111000 C
#1090000
b1011 8
1(
#1100000
0(
0%
#1110000
1(
#1120000
0(
#1130000
1(
#1140000
0(
#1150000
1(
#1160000
0(
#1170000
1(
#1180000
0(
1%
b110001110111 C
#1190000
b1100 8
1(
#1200000
0(
0%
#1210000
1(
#1220000
0(
#1230000
1(
#1240000
0(
#1250000
1(
#1260000
0(
#1270000
1(
#1280000
0(
1%
b110001110110 C
#1290000
b1101 8
1(
#1300000
0(
0%
#1310000
1(
#1320000
0(
#1330000
1(
#1340000
0(
#1350000
1(
#1360000
0(
#1370000
1(
#1380000
0(
1%
1$
b110001110101 C
#1390000
b1110 8
b1 <
1(
#1400000
0(
0%
#1410000
1(
#1420000
0(
#1430000
1(
#1440000
0(
#1450000
1(
#1460000
0(
#1470000
1(
#1480000
0(
1%
0$
b110001110100 C
#1490000
b1111 8
b10 <
1(
#1500000
0(
0%
#1510000
b100000000000000000 !
b100000000000000000 @
1(
#1520000
0(
#1530000
1(
#1540000
0(
#1550000
1(
#1560000
0(
#1570000
1(
#1580000
0(
1%
b110001110011 C
#1590000
b10000 8
b100 <
1(
#1600000
0(
0%
#1610000
1(
#1620000
0(
#1630000
1(
#1640000
0(
#1650000
1(
#1660000
0(
#1670000
1(
#1680000
0(
1%
1$
b110001110010 C
#1690000
b10001 8
b1001 <
1(
#1700000
0(
0%
#1710000
1(
#1720000
0(
#1730000
1(
#1740000
0(
#1750000
1(
#1760000
0(
#1770000
1(
#1780000
0(
1%
b110001110001 C
#1790000
b10010 8
b11 <
1(
#1800000
0(
0%
#1810000
b1100100000000000000000 !
b1100100000000000000000 @
1(
#1820000
0(
#1830000
1(
#1840000
0(
#1850000
1(
#1860000
0(
#1870000
1(
#1880000
0(
1%
0$
b110001110000 C
#1890000
b10011 8
b110 <
1(
#1900000
0(
0%
#1910000
1(
#1920000
0(
#1930000
1(
#1940000
0(
#1950000
1(
#1960000
0(
#1970000
1(
#1980000
0(
1%
b110001101111 C
#1990000
b10100 8
b1100 <
1(
#2000000
0(
0%
#2010000
1(
#2020000
0(
#2030000
1(
#2040000
0(
#2050000
1(
#2060000
0(
#2070000
1(
#2080000
0(
1%
b110001101110 C
#2090000
b10101 8
b1000 <
1(
#2100000
0(
0%
#2110000
1(
#2120000
0(
#2130000
1(
#2140000
0(
#2150000
1(
#2160000
0(
#2170000
1(
#2180000
0(
1%
b110001101101 C
#2190000
b10110 8
b0 <
1(
#2200000
0(
0%
#2210000
1(
#2220000
0(
#2230000
1(
#2240000
0(
#2250000
1(
#2260000
0(
#2270000
1(
#2280000
0(
1%
b110001101100 C
#2290000
b10111 8
1(
#2300000
0(
0%
#2310000
1(
#2320000
0(
#2330000
1(
#2340000
0(
#2350000
1(
#2360000
0(
#2370000
1(
#2380000
0(
1%
b110001101011 C
#2390000
b11000 8
1(
#2400000
0(
0%
#2410000
1(
#2420000
0(
#2430000
1(
#2440000
0(
#2450000
1(
#2460000
0(
#2470000
1(
#2480000
0(
1%
b110001101010 C
#2490000
b11001 8
1(
#2500000
0(
0%
#2510000
1(
#2520000
0(
#2530000
1(
#2540000
0(
#2550000
1(
#2560000
0(
#2570000
1(
#2580000
0(
1%
b110001101001 C
#2590000
b11010 8
1(
#2600000
0(
0%
#2610000
1(
#2620000
0(
#2630000
1(
#2640000
0(
#2650000
1(
#2660000
0(
#2670000
1(
#2680000
0(
1%
b110001101000 C
#2690000
b11011 8
1(
#2700000
0(
0%
#2710000
1(
#2720000
0(
#2730000
1(
#2740000
0(
#2750000
1(
#2760000
0(
#2770000
1(
#2780000
0(
1%
1$
b110001100111 C
#2790000
b11100 8
b1 <
1(
#2800000
0(
0%
#2810000
1(
#2820000
0(
#2830000
1(
#2840000
0(
#2850000
1(
#2860000
0(
#2870000
1(
#2880000
0(
1%
b110001100110 C
#2890000
b11101 8
b11 <
1(
#2900000
0(
0%
#2910000
1(
#2920000
0(
#2930000
1(
#2940000
0(
#2950000
1(
#2960000
0(
#2970000
1(
#2980000
0(
1%
0$
b110001100101 C
#2990000
b11110 8
b110 <
1(
#3000000
0(
0%
#3010000
b110000000000000001100100000000000000000 !
b110000000000000001100100000000000000000 @
1(
#3020000
0(
#3030000
1(
#3040000
0(
#3050000
1(
#3060000
0(
#3070000
1(
#3080000
0(
1%
b110001100100 C
#3090000
b11111 8
b1100 <
1(
#3100000
0(
0%
#3110000
1(
#3120000
0(
#3130000
1(
#3140000
0(
#3150000
1(
#3160000
0(
#3170000
1(
#3180000
0(
1%
1$
b110001100011 C
#3190000
b100000 8
b1001 <
1(
#3200000
0(
0%
#3210000
1(
#3220000
0(
#3230000
1(
#3240000
0(
#3250000
1(
#3260000
0(
#3270000
1(
#3280000
0(
1%
0$
b110001100010 C
#3290000
b100001 8
b10 <
1(
#3300000
0(
0%
#3310000
b100110000000000000001100100000000000000000 !
b100110000000000000001100100000000000000000 @
1(
#3320000
0(
#3330000
1(
#3340000
0(
#3350000
1(
#3360000
0(
#3370000
1(
#3380000
0(
1%
b110001100001 C
#3390000
b100010 8
b100 <
1(
#3400000
0(
0%
#3410000
1(
#3420000
0(
#3430000
1(
#3440000
0(
#3450000
1(
#3460000
0(
#3470000
1(
#3480000
0(
1%
1$
b110001100000 C
#3490000
b100011 8
b1001 <
1(
#3500000
0(
0%
#3510000
1(
#3520000
0(
#3530000
1(
#3540000
0(
#3550000
1(
#3560000
0(
#3570000
1(
#3580000
0(
1%
0$
b110001011111 C
#3590000
b100100 8
b10 <
1(
#3600000
0(
0%
#3610000
b1000100110000000000000001100100000000000000000 !
b1000100110000000000000001100100000000000000000 @
1(
#3620000
0(
#3630000
1(
#3640000
0(
#3650000
1(
#3660000
0(
#3670000
1(
#3680000
0(
1%
1$
b110001011110 C
#3690000
b100101 8
b101 <
1(
#3700000
0(
0%
#3710000
1(
#3720000
0(
#3730000
1(
#3740000
0(
#3750000
1(
#3760000
0(
#3770000
1(
#3780000
0(
1%
0$
b110001011101 C
#3790000
b100110 8
b1010 <
1(
#3800000
0(
0%
#3810000
1(
#3820000
0(
#3830000
1(
#3840000
0(
#3850000
1(
#3860000
0(
#3870000
1(
#3880000
0(
1%
b110001011100 C
#3890000
b100111 8
b100 <
1(
#3900000
0(
0%
#3910000
b100001000100110000000000000001100100000000000000000 !
b100001000100110000000000000001100100000000000000000 @
1(
#3920000
0(
#3930000
1(
#3940000
0(
#3950000
1(
#3960000
0(
#3970000
1(
#3980000
0(
1%
b110001011011 C
#3990000
b101000 8
b1000 <
1(
#4000000
0(
0%
#4010000
1(
#4020000
0(
#4030000
1(
#4040000
0(
#4050000
1(
#4060000
0(
#4070000
1(
#4080000
0(
1%
b110001011010 C
#4090000
b101001 8
b0 <
1(
#4100000
0(
0%
#4110000
1(
#4120000
0(
#4130000
1(
#4140000
0(
#4150000
1(
#4160000
0(
#4170000
1(
#4180000
0(
1%
b110001011001 C
#4190000
b101010 8
1(
#4200000
0(
0%
#4210000
1(
#4220000
0(
#4230000
1(
#4240000
0(
#4250000
1(
#4260000
0(
#4270000
1(
#4280000
0(
1%
b110001011000 C
#4290000
b101011 8
1(
#4300000
0(
0%
#4310000
1(
#4320000
0(
#4330000
1(
#4340000
0(
#4350000
1(
#4360000
0(
#4370000
1(
#4380000
0(
1%
b110001010111 C
#4390000
b101100 8
1(
#4400000
0(
0%
#4410000
1(
#4420000
0(
#4430000
1(
#4440000
0(
#4450000
1(
#4460000
0(
#4470000
1(
#4480000
0(
1%
1$
b110001010110 C
#4490000
b101101 8
b1 <
1(
#4500000
0(
0%
#4510000
b100000100001000100110000000000000001100100000000000000000 !
b100000100001000100110000000000000001100100000000000000000 @
1(
#4520000
0(
#4530000
1(
#4540000
0(
#4550000
1(
#4560000
0(
#4570000
1(
#4580000
0(
1%
0$
b110001010101 C
#4590000
b101110 8
b10 <
1(
#4600000
0(
0%
#4610000
1(
#4620000
0(
#4630000
1(
#4640000
0(
#4650000
1(
#4660000
0(
#4670000
1(
#4680000
0(
1%
b110001010100 C
#4690000
b101111 8
b100 <
1(
#4700000
0(
0%
#4710000
1(
#4720000
0(
#4730000
1(
#4740000
0(
#4750000
1(
#4760000
0(
#4770000
1(
#4780000
0(
1%
1$
b110001010011 C
#4790000
b110000 8
b1001 <
1(
#4800000
0(
0%
#4810000
b1000100000100001000100110000000000000001100100000000000000000 !
b1000100000100001000100110000000000000001100100000000000000000 @
1(
#4820000
0(
#4830000
1(
#4840000
0(
#4850000
1(
#4860000
0(
#4870000
1(
#4880000
0(
1%
0$
b110001010010 C
#4890000
b110001 8
b10 <
1(
#4900000
0(
0%
#4910000
1(
#4920000
0(
#4930000
1(
#4940000
0(
#4950000
1(
#4960000
0(
#4970000
1(
#4980000
0(
1%
b110001010001 C
#4990000
b110010 8
b100 <
1(
#5000000
0(
0%
#5010000
1(
#5020000
0(
#5030000
1(
#5040000
0(
#5050000
1(
#5060000
0(
#5070000
1(
#5080000
0(
1%
b110001010000 C
#5090000
b110011 8
b1000 <
1(
#5100000
0(
0%
#5110000
1(
#5120000
0(
#5130000
1(
#5140000
0(
#5150000
1(
#5160000
0(
#5170000
1(
#5180000
0(
1%
b110001001111 C
#5190000
b110100 8
b0 <
1(
#5200000
0(
0%
#5210000
1(
#5220000
0(
#5230000
1(
#5240000
0(
#5250000
1(
#5260000
0(
#5270000
1(
#5280000
0(
1%
b110001001110 C
#5290000
b110101 8
1(
#5300000
0(
0%
#5310000
1(
#5320000
0(
#5330000
1(
#5340000
0(
#5350000
1(
#5360000
0(
#5370000
1(
#5380000
0(
1%
b110001001101 C
#5390000
b110110 8
1(
#5400000
0(
0%
#5410000
1(
#5420000
0(
#5430000
1(
#5440000
0(
#5450000
1(
#5460000
0(
#5470000
1(
#5480000
0(
1%
b110001001100 C
#5490000
b110111 8
1(
#5500000
0(
0%
#5510000
1(
#5520000
0(
#5530000
1(
#5540000
0(
#5550000
1(
#5560000
0(
#5570000
1(
#5580000
0(
1%
b110001001011 C
#5590000
b111000 8
1(
#5600000
0(
0%
#5610000
1(
#5620000
0(
#5630000
1(
#5640000
0(
#5650000
1(
#5660000
0(
#5670000
1(
#5680000
0(
1%
b110001001010 C
#5690000
b111001 8
1(
#5700000
0(
0%
#5710000
1(
#5720000
0(
#5730000
1(
#5740000
0(
#5750000
1(
#5760000
0(
#5770000
1(
#5780000
0(
1%
b110001001001 C
#5790000
b111010 8
1(
#5800000
0(
0%
#5810000
1(
#5820000
0(
#5830000
1(
#5840000
0(
#5850000
1(
#5860000
0(
#5870000
1(
#5880000
0(
1%
b110001001000 C
#5890000
b111011 8
1(
#5900000
0(
0%
#5910000
1(
#5920000
0(
#5930000
1(
#5940000
0(
#5950000
1(
#5960000
0(
#5970000
1(
#5980000
0(
1%
b110001000111 C
#5990000
b111100 8
1(
#6000000
0(
0%
#6010000
1(
#6020000
0(
#6030000
1(
#6040000
0(
#6050000
1(
#6060000
0(
#6070000
1(
#6080000
0(
1%
b110001000110 C
#6090000
b111101 8
1(
#6100000
0(
0%
#6110000
1(
#6120000
0(
#6130000
1(
#6140000
0(
#6150000
1(
#6160000
0(
#6170000
1(
#6180000
0(
1%
b110001000101 C
#6190000
b111110 8
1(
#6200000
0(
0%
#6210000
1(
#6220000
0(
#6230000
1(
#6240000
0(
#6250000
1(
#6260000
0(
#6270000
1(
#6280000
0(
1%
b110001000100 C
#6290000
b111111 8
1(
#6300000
0(
0%
#6310000
1(
#6320000
0(
#6330000
1(
#6340000
0(
#6350000
1(
#6360000
0(
#6370000
1(
#6380000
0(
1%
b110001000011 C
#6390000
b1000000 8
1(
#6400000
0(
0%
#6410000
1(
#6420000
0(
#6430000
1(
#6440000
0(
#6450000
1(
#6460000
0(
#6470000
1(
#6480000
0(
1%
b110001000010 C
#6490000
b1000001 8
1(
#6500000
0(
0%
#6510000
1(
#6520000
0(
#6530000
1(
#6540000
0(
#6550000
1(
#6560000
0(
#6570000
1(
#6580000
0(
1%
b110001000001 C
#6590000
b1000010 8
1(
#6600000
0(
0%
#6610000
1(
#6620000
0(
#6630000
1(
#6640000
0(
#6650000
1(
#6660000
0(
#6670000
1(
#6680000
0(
1%
b110001000000 C
#6690000
b1000011 8
1(
#6700000
0(
0%
#6710000
1(
#6720000
0(
#6730000
1(
#6740000
0(
#6750000
1(
#6760000
0(
#6770000
1(
#6780000
0(
1%
b110000111111 C
#6790000
b1000100 8
1(
#6800000
0(
0%
#6810000
1(
#6820000
0(
#6830000
1(
#6840000
0(
#6850000
1(
#6860000
0(
#6870000
1(
#6880000
0(
1%
1$
b110000111110 C
#6890000
b1000101 8
b1 <
1(
#6900000
0(
0%
#6910000
b10000000000000000000000000001000100000100001000100110000000000000001100100000000000000000 !
b10000000000000000000000000001000100000100001000100110000000000000001100100000000000000000 @
1(
#6920000
0(
#6930000
1(
#6940000
0(
#6950000
1(
#6960000
0(
#6970000
1(
#6980000
0(
1%
0$
b110000111101 C
#6990000
b1000110 8
b10 <
1(
#7000000
0(
0%
#7010000
1(
#7020000
0(
#7030000
1(
#7040000
0(
#7050000
1(
#7060000
0(
#7070000
1(
#7080000
0(
1%
b110000111100 C
#7090000
b1000111 8
b100 <
1(
#7100000
0(
0%
#7110000
1(
#7120000
0(
#7130000
1(
#7140000
0(
#7150000
1(
#7160000
0(
#7170000
1(
#7180000
0(
1%
b110000111011 C
#7190000
b1001000 8
b1000 <
1(
#7200000
0(
0%
#7210000
1(
#7220000
0(
#7230000
1(
#7240000
0(
#7250000
1(
#7260000
0(
#7270000
1(
#7280000
0(
1%
b110000111010 C
#7290000
b1001001 8
b0 <
1(
#7300000
0(
0%
#7310000
1(
#7320000
0(
#7330000
1(
#7340000
0(
#7350000
1(
#7360000
0(
#7370000
1(
#7380000
0(
1%
1$
b110000111001 C
#7390000
b1001010 8
b1 <
1(
#7400000
0(
0%
#7410000
1(
#7420000
0(
#7430000
1(
#7440000
0(
#7450000
1(
#7460000
0(
#7470000
1(
#7480000
0(
1%
0$
b110000111000 C
#7490000
b1001011 8
b10 <
1(
#7500000
0(
0%
#7510000
b10000000010000000000000000000000000001000100000100001000100110000000000000001100100000000000000000 !
b10000000010000000000000000000000000001000100000100001000100110000000000000001100100000000000000000 @
1(
#7520000
0(
#7530000
1(
#7540000
0(
#7550000
1(
#7560000
0(
#7570000
1(
#7580000
0(
1%
b110000110111 C
#7590000
b1001100 8
b100 <
1(
#7600000
0(
0%
#7610000
1(
#7620000
0(
#7630000
1(
#7640000
0(
#7650000
1(
#7660000
0(
#7670000
1(
#7680000
0(
1%
1$
b110000110110 C
#7690000
b1001101 8
b1001 <
1(
#7700000
0(
0%
#7710000
1(
#7720000
0(
#7730000
1(
#7740000
0(
#7750000
1(
#7760000
0(
#7770000
1(
#7780000
0(
1%
0$
b110000110101 C
#7790000
b1001110 8
b10 <
1(
#7800000
0(
0%
#7810000
b100010000000010000000000000000000000000001000100000100001000100110000000000000001100100000000000000000 !
b100010000000010000000000000000000000000001000100000100001000100110000000000000001100100000000000000000 @
1(
#7820000
0(
#7830000
1(
#7840000
0(
#7850000
1(
#7860000
0(
#7870000
1(
#7880000
0(
1%
b110000110100 C
#7890000
b1001111 8
b100 <
1(
#7900000
0(
0%
#7910000
1(
#7920000
0(
#7930000
1(
#7940000
0(
#7950000
1(
#7960000
0(
#7970000
1(
#7980000
0(
1%
1$
b110000110011 C
#7990000
b1010000 8
b1001 <
1(
#8000000
0(
0%
#8010000
1(
#8020000
0(
#8030000
1(
#8040000
0(
#8050000
1(
#8060000
0(
#8070000
1(
#8080000
0(
1%
0$
b110000110010 C
#8090000
b1010001 8
b10 <
1(
#8100000
0(
0%
#8110000
b1000100010000000010000000000000000000000000001000100000100001000100110000000000000001100100000000000000000 !
b1000100010000000010000000000000000000000000001000100000100001000100110000000000000001100100000000000000000 @
1(
#8120000
0(
#8130000
1(
#8140000
0(
#8150000
1(
#8160000
0(
#8170000
1(
#8180000
0(
1%
1$
b110000110001 C
#8190000
b1010010 8
b101 <
1(
#8200000
0(
0%
#8210000
1(
#8220000
0(
#8230000
1(
#8240000
0(
#8250000
1(
#8260000
0(
#8270000
1(
#8280000
0(
1%
0$
b110000110000 C
#8290000
b1010011 8
b1010 <
1(
#8300000
0(
0%
#8310000
1(
#8320000
0(
#8330000
1(
#8340000
0(
#8350000
1(
#8360000
0(
#8370000
1(
#8380000
0(
1%
b110000101111 C
#8390000
b1010100 8
b100 <
1(
#8400000
0(
0%
#8410000
b100001000100010000000010000000000000000000000000001000100000100001000100110000000000000001100100000000000000000 !
b100001000100010000000010000000000000000000000000001000100000100001000100110000000000000001100100000000000000000 @
1(
#8420000
0(
#8430000
1(
#8440000
0(
#8450000
1(
#8460000
0(
#8470000
1(
#8480000
0(
1%
b110000101110 C
#8490000
b1010101 8
b1000 <
1(
#8500000
0(
0%
#8510000
1(
#8520000
0(
#8530000
1(
#8540000
0(
#8550000
1(
#8560000
0(
#8570000
1(
#8580000
0(
1%
b110000101101 C
#8590000
b1010110 8
b0 <
1(
#8600000
0(
0%
#8610000
1(
#8620000
0(
#8630000
1(
#8640000
0(
#8650000
1(
#8660000
0(
#8670000
1(
#8680000
0(
1%
b110000101100 C
#8690000
b1010111 8
1(
#8700000
0(
0%
#8710000
1(
#8720000
0(
#8730000
1(
#8740000
0(
#8750000
1(
#8760000
0(
#8770000
1(
#8780000
0(
1%
b110000101011 C
#8790000
b1011000 8
1(
#8800000
0(
0%
#8810000
1(
#8820000
0(
#8830000
1(
#8840000
0(
#8850000
1(
#8860000
0(
#8870000
1(
#8880000
0(
1%
b110000101010 C
#8890000
b1011001 8
1(
#8900000
0(
0%
#8910000
1(
#8920000
0(
#8930000
1(
#8940000
0(
#8950000
1(
#8960000
0(
#8970000
1(
#8980000
0(
1%
b110000101001 C
#8990000
b1011010 8
1(
#9000000
0(
0%
#9010000
1(
#9020000
0(
#9030000
1(
#9040000
0(
#9050000
1(
#9060000
0(
#9070000
1(
#9080000
0(
1%
1$
b110000101000 C
#9090000
b1011011 8
b1 <
1(
#9100000
0(
0%
#9110000
1(
#9120000
0(
#9130000
1(
#9140000
0(
#9150000
1(
#9160000
0(
#9170000
1(
#9180000
0(
1%
0$
b110000100111 C
#9190000
b1011100 8
b10 <
1(
#9200000
0(
0%
#9210000
1(
#9220000
0(
#9230000
1(
#9240000
0(
#9250000
1(
#9260000
0(
#9270000
1(
#9280000
0(
1%
b110000100110 C
#9290000
b1011101 8
b100 <
1(
#9300000
0(
0%
#9310000
b100000000000100001000100010000000010000000000000000000000000001000100000100001000100110000000000000001100100000000000000000 !
b100000000000100001000100010000000010000000000000000000000000001000100000100001000100110000000000000001100100000000000000000 @
1(
#9320000
0(
#9330000
1(
#9340000
0(
#9350000
1(
#9360000
0(
#9370000
1(
#9380000
0(
1%
b110000100101 C
#9390000
b1011110 8
b1000 <
1(
#9400000
0(
0%
#9410000
1(
#9420000
0(
#9430000
1(
#9440000
0(
#9450000
1(
#9460000
0(
#9470000
1(
#9480000
0(
1%
b110000100100 C
#9490000
b1011111 8
b0 <
1(
#9500000
0(
0%
#9510000
1(
#9520000
0(
#9530000
1(
#9540000
0(
#9550000
1(
#9560000
0(
#9570000
1(
#9580000
0(
1%
b110000100011 C
#9590000
b1100000 8
1(
#9600000
0(
0%
#9610000
1(
#9620000
0(
#9630000
1(
#9640000
0(
#9650000
1(
#9660000
0(
#9670000
1(
#9680000
0(
1%
b110000100010 C
#9690000
b1100001 8
1(
#9700000
0(
0%
#9710000
1(
#9720000
0(
#9730000
1(
#9740000
0(
#9750000
1(
#9760000
0(
#9770000
1(
#9780000
0(
1%
b110000100001 C
#9790000
b1100010 8
1(
#9800000
0(
0%
#9810000
1(
#9820000
0(
#9830000
1(
#9840000
0(
#9850000
1(
#9860000
0(
#9870000
1(
#9880000
0(
1%
b110000100000 C
#9890000
b1100011 8
1(
#9900000
0(
0%
#9910000
1(
#9920000
0(
#9930000
1(
#9940000
0(
#9950000
1(
#9960000
0(
#9970000
1(
#9980000
0(
1%
1$
b110000011111 C
#9990000
b1100100 8
b1 <
1(
#10000000
0(
0%
#10010000
1(
#10020000
0(
#10030000
1(
#10040000
0(
#10050000
1(
#10060000
0(
#10070000
1(
#10080000
0(
1%
0$
b110000011110 C
#10090000
b1100101 8
b10 <
1(
#10100000
0(
0%
#10110000
1(
#10120000
0(
#10130000
1(
#10140000
0(
#10150000
1(
#10160000
0(
#10170000
1(
#10180000
0(
1%
b110000011101 C
#10190000
b1100110 8
b100 <
1(
#10200000
0(
0%
#10210000
b100000000000100000000000100001000100010000000010000000000000000000000000001000100000100001000100110000000000000001100100000000000000000 !
b100000000000100000000000100001000100010000000010000000000000000000000000001000100000100001000100110000000000000001100100000000000000000 @
1(
#10220000
0(
#10230000
1(
#10240000
0(
#10250000
1(
#10260000
0(
#10270000
1(
#10280000
0(
1%
b110000011100 C
#10290000
b1100111 8
b1000 <
1(
#10300000
0(
0%
#10310000
1(
#10320000
0(
#10330000
1(
#10340000
0(
#10350000
1(
#10360000
0(
#10370000
1(
#10380000
0(
1%
b110000011011 C
#10390000
b1101000 8
b0 <
1(
#10400000
0(
0%
#10410000
1(
#10420000
0(
#10430000
1(
#10440000
0(
#10450000
1(
#10460000
0(
#10470000
1(
#10480000
0(
1%
b110000011010 C
#10490000
b1101001 8
1(
#10500000
0(
0%
#10510000
1(
#10520000
0(
#10530000
1(
#10540000
0(
#10550000
1(
#10560000
0(
#10570000
1(
#10580000
0(
1%
b110000011001 C
#10590000
b1101010 8
1(
#10600000
0(
0%
#10610000
1(
#10620000
0(
#10630000
1(
#10640000
0(
#10650000
1(
#10660000
0(
#10670000
1(
#10680000
0(
1%
b110000011000 C
#10690000
b1101011 8
1(
#10700000
0(
0%
#10710000
1(
#10720000
0(
#10730000
1(
#10740000
0(
#10750000
1(
#10760000
0(
#10770000
1(
#10780000
0(
1%
b110000010111 C
#10790000
1#
b1101100 8
1(
#10800000
0(
0%
#10810000
0#
b0 !
b0 @
b0 8
1(
#10820000
0(
#10830000
1(
#10840000
0(
#10850000
1(
#10860000
0(
#10870000
1(
#10880000
0(
1%
b110000010110 C
#10890000
b1 8
1(
#10900000
0(
0%
#10910000
1(
#10920000
0(
#10930000
1(
#10940000
0(
#10950000
1(
#10960000
0(
#10970000
1(
#10980000
0(
1%
b110000010101 C
#10990000
b10 8
1(
#11000000
0(
0%
#11010000
1(
#11020000
0(
#11030000
1(
#11040000
0(
#11050000
1(
#11060000
0(
#11070000
1(
#11080000
0(
1%
1$
b110000010100 C
#11090000
b11 8
b1 <
1(
#11100000
0(
0%
#11110000
b1 !
b1 @
1(
#11120000
0(
#11130000
1(
#11140000
0(
#11150000
1(
#11160000
0(
#11170000
1(
#11180000
0(
1%
b110000010011 C
#11190000
b100 8
b11 <
1(
#11200000
0(
0%
#11210000
1(
#11220000
0(
#11230000
1(
#11240000
0(
#11250000
1(
#11260000
0(
#11270000
1(
#11280000
0(
1%
0$
b110000010010 C
#11290000
b101 8
b110 <
1(
#11300000
0(
0%
#11310000
1(
#11320000
0(
#11330000
1(
#11340000
0(
#11350000
1(
#11360000
0(
#11370000
1(
#11380000
0(
1%
1$
b110000010001 C
#11390000
b110 8
b1101 <
1(
#11400000
0(
0%
#11410000
b1010001 !
b1010001 @
1(
#11420000
0(
