Alex/test_builds/parser_v2/sim/fifo_muxer_sim.vcd
$date
	Sun Dec 11 17:54:39 2022
$end
$version
	Icarus Verilog
$end
$timescale
	1ps
$end
$scope module sf_parser_tb $end
$var wire 1 ! sf_parser_flag $end
$var wire 576 " scalefac_s [575:0] $end
$var wire 336 # scalefac_l [335:0] $end
$var wire 4 $ parser_out_valid [3:0] $end
$var wire 1 % hf_decoder_flag $end
$var wire 1 & gr $end
$var wire 1 ' fifo_dout_v $end
$var wire 1 ( fifo_dout $end
$var wire 16 ) fifo_data_count [15:0] $end
$var wire 1 * ch $end
$var reg 8 + block_type [7:0] $end
$var reg 1 , clk $end
$var reg 9 - main_data_begin [8:0] $end
$var reg 4 . mixed_block_flag [3:0] $end
$var reg 48 / part2_3_length [47:0] $end
$var reg 1 0 rst $end
$var reg 16 1 scalefac_compress [15:0] $end
$var reg 8 2 scfsi [7:0] $end
$var reg 1 3 si_data_valid $end
$var reg 4 4 window_switching_flag [3:0] $end
$scope module UUT_muxer $end
$var wire 1 , clk $end
$var wire 9 5 main_data_begin [8:0] $end
$var wire 48 6 part2_3_length [47:0] $end
$var wire 1 0 rst $end
$var wire 4 7 sf_parser_axiov [3:0] $end
$var wire 1 3 si_valid_in $end
$var wire 1 & gr $end
$var wire 16 8 fifo_sample_count [15:0] $end
$var wire 1 ' fifo_dout_v $end
$var wire 1 * ch $end
$var reg 16 9 bit_counter [15:0] $end
$var reg 16 : discard_bit_counter [15:0] $end
$var reg 2 ; grch [1:0] $end
$var reg 1 % hf_decoder_flag $end
$var reg 9 < main_data_begin_save [8:0] $end
$var reg 16 = num_discard_bits [15:0] $end
$var reg 48 > part2_3_length_save [47:0] $end
$var reg 1 ? res_discard_flag $end
$var reg 1 ! sf_parser_flag $end
$var reg 3 @ stage [2:0] $end
$var reg 12 A target_p23_length [11:0] $end
$var reg 1 B target_sf_axiov $end
$upscope $end
$scope module parser_1 $end
$var wire 1 C axiiv $end
$var wire 2 D block_type_in [1:0] $end
$var wire 1 , clk $end
$var wire 1 E mixed_block_flag_in $end
$var wire 1 0 rst $end
$var wire 4 F scalefac_compress_in [3:0] $end
$var wire 4 G scfsi_in [3:0] $end
$var wire 1 3 si_valid $end
$var wire 1 H window_switching_flag_in $end
$var wire 3 I shift_2 [2:0] $end
$var wire 3 J shift_1 [2:0] $end
$var wire 1 ( axiid $end
$var parameter 32 K CH $end
$var parameter 32 L GR $end
$var reg 1 M axiov $end
$var reg 32 N bit_counter [31:0] $end
$var reg 3 O bitlen_1 [2:0] $end
$var reg 3 P bitlen_2 [2:0] $end
$var reg 2 Q block_type [1:0] $end
$var reg 4 R buffer [3:0] $end
$var reg 1 S mixed_block_flag $end
$var reg 4 T scalefac_compress [3:0] $end
$var reg 84 U scalefac_l [83:0] $end
$var reg 144 V scalefac_s [143:0] $end
$var reg 4 W scfsi [3:0] $end
$var reg 1 X window_switching_flag $end
$upscope $end
$scope module parser_2 $end
$var wire 1 Y axiiv $end
$var wire 2 Z block_type_in [1:0] $end
$var wire 1 , clk $end
$var wire 1 [ mixed_block_flag_in $end
$var wire 1 0 rst $end
$var wire 4 \ scalefac_compress_in [3:0] $end
$var wire 4 ] scfsi_in [3:0] $end
$var wire 1 3 si_valid $end
$var wire 1 ^ window_switching_flag_in $end
$var wire 3 _ shift_2 [2:0] $end
$var wire 3 ` shift_1 [2:0] $end
$var wire 1 ( axiid $end
$var parameter 32 a CH $end
$var parameter 32 b GR $end
$var reg 1 c axiov $end
$var reg 32 d bit_counter [31:0] $end
$var reg 3 e bitlen_1 [2:0] $end
$var reg 3 f bitlen_2 [2:0] $end
$var reg 2 g block_type [1:0] $end
$var reg 4 h buffer [3:0] $end
$var reg 1 i mixed_block_flag $end
$var reg 4 j scalefac_compress [3:0] $end
$var reg 84 k scalefac_l [83:0] $end
$var reg 144 l scalefac_s [143:0] $end
$var reg 4 m scfsi [3:0] $end
$var reg 1 n window_switching_flag $end
$upscope $end
$scope module parser_3 $end
$var wire 1 o axiiv $end
$var wire 2 p block_type_in [1:0] $end
$var wire 1 , clk $end
$var wire 1 q mixed_block_flag_in $end
$var wire 1 0 rst $end
$var wire 4 r scalefac_compress_in [3:0] $end
$var wire 4 s scfsi_in [3:0] $end
$var wire 1 3 si_valid $end
$var wire 1 t window_switching_flag_in $end
$var wire 3 u shift_2 [2:0] $end
$var wire 3 v shift_1 [2:0] $end
$var wire 1 ( axiid $end
$var parameter 32 w CH $end
$var parameter 32 x GR $end
$var reg 1 y axiov $end
$var reg 32 z bit_counter [31:0] $end
$var reg 3 { bitlen_1 [2:0] $end
$var reg 3 | bitlen_2 [2:0] $end
$var reg 2 } block_type [1:0] $end
$var reg 4 ~ buffer [3:0] $end
$var reg 1 !" mixed_block_flag $end
$var reg 4 "" scalefac_compress [3:0] $end
$var reg 84 #" scalefac_l [83:0] $end
$var reg 144 $" scalefac_s [143:0] $end
$var reg 4 %" scfsi [3:0] $end
$var reg 1 &" window_switching_flag $end
$upscope $end
$scope module parser_4 $end
$var wire 1 '" axiiv $end
$var wire 2 (" block_type_in [1:0] $end
$var wire 1 , clk $end
$var wire 1 )" mixed_block_flag_in $end
$var wire 1 0 rst $end
$var wire 4 *" scalefac_compress_in [3:0] $end
$var wire 4 +" scfsi_in [3:0] $end
$var wire 1 3 si_valid $end
$var wire 1 ," window_switching_flag_in $end
$var wire 3 -" shift_2 [2:0] $end
$var wire 3 ." shift_1 [2:0] $end
$var wire 1 ( axiid $end
$var parameter 32 /" CH $end
$var parameter 32 0" GR $end
$var reg 1 1" axiov $end
$var reg 32 2" bit_counter [31:0] $end
$var reg 3 3" bitlen_1 [2:0] $end
$var reg 3 4" bitlen_2 [2:0] $end
$var reg 2 5" block_type [1:0] $end
$var reg 4 6" buffer [3:0] $end
$var reg 1 7" mixed_block_flag $end
$var reg 4 8" scalefac_compress [3:0] $end
$var reg 84 9" scalefac_l [83:0] $end
$var reg 144 :" scalefac_s [143:0] $end
$var reg 4 ;" scfsi [3:0] $end
$var reg 1 <" window_switching_flag $end
$upscope $end
$scope module sim_unit $end
$var wire 1 , clk $end
$var wire 11527 =" ds_store [11526:0] $end
$var wire 1 >" rea $end
$var wire 1 0 rst $end
$var reg 16 ?" data_count [15:0] $end
$var reg 1 ( data_out $end
$var reg 1 ' data_valid $end
$var reg 16 @" index [15:0] $end
$upscope $end
$upscope $end
$enddefinitions $end
$comment Show the parameter values. $end
$dumpall
b1 0"
b1 /"
b1 x
b0 w
b0 b
b1 a
b0 L
b0 K
$end
#0
$dumpvars
bx @"
bx ?"
x>"
b100110000000001100100101000000010010000000000000000000010000100100101000000001000000001000000000011011110010101111001100011011111010001000101100011110001100000111110000011001001100001011111110001111100010000000011011000100000110011000001101000101011100001011000000000000011001011010100000111000011000010000000000011010011001101000100001011010011000100111000100111000001111000101111010110000100100000111000110010000111001111000001110001010000101111101010010010100111100011000001110010010111010111000011000110101000000110000110000011010000110100100001001010000110010010000001000110010100101100101011111001010101010111001011000010011101010111011010001100111001011000101100100011001010000000111100000001110000110000100000011100100110000000101000110001100110101010000011101011000011100001000010000100010101011000101001100000001000001100000100110001011000000101000110010011000100010000010011010010000001010010001000001010010111111110010011000000001100010010001110000101000100110011000001010010110101110000000101000001100011010010100101010101000101001011010001010011101001101010100100000110101100111000011001001010101100010101100100110011011101110101110110001000110010101001001101101110010110110011011101011000010000000010000000001011101010100101111010011111001000000101000000101100100010001011000000110101000111111001111111110111111100011110101010101010101011111001011111101001001100100000011010001010110001110101110110110111001111000000010001101100000001000101110100100000111000011001010110010010110001001001000000100100111111011010101110110110010011110000000101001000011001011011001100110011110101010110100000100001100101111000101011010100010010101111110000000111000011110100011011010110000000100000001101001101011101100010111011100011010001101010010110110100011011011111010100110010111011000101111110010001010101100010011100111000110010101111001010001101101101001100100110110111100100011100001010000000010111111011011110100010100001011100000110001011110010101101111111011001010001000110100100110010110100000001111001010000000010011010101100101011101101010010111101100101010011001110000100011100000101000000111000110101010011010010110110000110001000100011000011110100101100101101010010110010111011000001100100011011100000010101100100000100111000111100111100111101001100110000001110110111000010101101001000111100010110101111101110111000111010001011101011101110010111000111010111111000011010111110110011101101010000010001101001100010010101100100011011100001110100011010001001100000110000000000101111010001000101100001110100100110110011001100010110010001111100111011001011101010010010011100101111110110111010010111010110000101001011000011011101101111000010011111100001111110110111011000101100011000111111111111111111111111111111111111110001111010011110100100010101111010011110100010000101011101111110010110011011110010000001110110101000000001011011111101101111111000000100011101101010000111011010110110011111111111111111111111111111111111111010011111000001011100001100100010000001101011110100000101000001100000011100011100011100001100001010100000110000010100001011010111011000100001111100100100000000100111001110010110000000001000001110001101110001001000010010000101100110000010000101001010000010000000000001001010001000101001001110001001101000000000000000000001000100010001000001100100010100100001000000000110100000011000000010111110011000100100000000011100000001100100011110000010011100100110000010000010000010100010011001111111101000101110001001100010011000000010000000000110000000010110000000101010011000000100100000001100101001001100000110000010011000000100001000000010110001100000110100000000101111101001000001100101000000010101100010101011110011000001011100000000000100100001001001100000110001000000000010000101111110010000101000001010011000011010001100101100000010000101000001010100001100110110110000110111000011000100011010011001100001010100110010010100000111010000100110010000100110101101001100100001001100000011100101010011011111010110000011100111100110100101001110111000011101001011000011011101010101011100000011111000011001110101100101000010010001011010000011111011100001001001111100100110001100001010011100110000000000111101000010100101011010010101010010000000100001000001101000101010011101001011001100010000101010000000011010010011110000001001001010011001110001001001100100111010001000100110001010100001101111001110100101101100110011101001111001010100110010010101111101101000100110001100100001100101011011100010000011110001100010000110111010100110000000011000010000100000111111001010100000001010000010011011010000011011001010011000000111010000010110101001000101111011001101110101011101001001001000000001010010000100001011100110110101110101100010010011010001100001000001001100001111011010110110110010100101101101001011110101001101011100100101001100100000110001010010001000011010111001001011010111110000100111011000101000111011010011101011010000010010110100010110000000111000100000001000000001000110100110001110010110111000111010100011110011110110010000001000110011100101101001110100010000011110010110001010111000001000101011110000001110111010011100100000100111110111000100100111000111001001011010110101000101011010010001111101001001010001011010100110111010011110000111010101100000110001111010011101011111100011011000110000010100000110100110100100100011010000000110000100001010101011101000110101101110000110010111101011100010110011100100010000111001001011001001001101001110010011101100100001011101101110001101110101100111111111100001111101100010000011111110010000110111000100101000110010110100111110001110001100100101100011001011001010011000111001001011101000010011010110011111100010011001011100010001111111111000010100100010000010100100110110011011101000111010100101000010000100000000011101000000000101010000010100011111110000111000001101011000000010000010110110100111110100010100110001100101001101110011111110111001011111010111101001001111110000101010111001110101001010001110111111100101010000110101111001011111111111111111111111111111111111111111001011010101101110110010100110001110010000010000111011000100101111011100111101100001100100100000011111010110010110101110010000111100010100011001101001101000100100101101010110000001101111111111111111111111111111111111111000011011001100011000000001010100001011010001110111011000011111000101101000011010111011100110001100101110001110000010100001110110100100001011110100011110101010110110110100111110000100001100001101011101110101000000000010101001101001111001010110000111010010000111010001010100010111011010111010010010111001111010001101100100101000000000110101100110000000011000101010000000110000110001101000000000000000101101010000011010000111110011100110110100100000000100011001000110011101010000100110111110011100111001010010101001000000010100101000000010011110100011100111010111010010000011001010000101100110000011100011110010010100010101000000011100100101101000100000101101000100001100101110010110101000000001000001010111101110001100011011011000011110011000000110101000011010111100110011011011101010110001101111110100010111111100011010011010111100111011110010101011111001100101110011101011001111001011001000100010000000000010101011001000000001011010000100110001110101001100101010100110100010000011001100011001111101010001001011001101110101000110100000001110110010100011110110110011010001100100001011100011101010110000101100010000011010010001000011110111011011000100111000111000111100000011010101010111011111011111001001101111000101111001101111111101000110111000010100101001101110101001101001000010000111001011100010110011010110010101011000000110010101000100100001010001110000100010100010100101000101000111011000101100111011001100101100101110110001010110010111110111100101001100001001010110111001110100011011011100011110000111001000010111001111110100000101011110001001010101010111010110011101101101100011110011101011111001001111111011010110101011110010010010000110101001100010010101010100000101000111010000110000010000110100101010000110011010011010101101010110011101101101111000111111110101010101101100110101111101010000101110111111010001111000111001111000010111101000000000101001011100111011000101110011000110011100101001011011101101111110001011110111101001011101010001010000110001000010001001000111100000110010111110001010001111101011000000110111001000100001101111100100101101101000111010100101100010010101110101001110110100000101011010000111101100101001110110100100100010101101001111011000101101010011111100110101010011111010101100110010111010101101011110110010110001100110001001001111001011001001110110011111101001111010011010011001110101110010101001000110111001011101010101101001001000101011001101011000010100000100101011101111011111111111111111111111111111111111110100100101000011001000011010011110101001000011111101011010100011101011110010110110101011110110111011011100111011010110101011010100011111011111111111111111111111111111111111111001101110100000101000001010100101001001001110111011101010110100101110001101010011001011111110110110011011101101001101011100111000011001000101000100110000111011101001001100000100110011100110101010101001101010101100100011100100101000010011000000000110000000011010011010011000000000100001101000010110101001100110010110000001000001010110010100001101000000000110100100000110001100000110000000001001011110011000101001000000001101001110010011000110100001100100011011100011010101000100000000001010100000001101000010010111010101000110010110110110000101100110110000110011000100000101100100000110100000110011001010100100111100010000000100111110100110010000100101110010011001011000110000101001011110010100001011101010011101101100101101011110011001010010111001011101011010100110111011001110000110110100100101111010010101001011101100101101111010110010010101110111000110000110100101101010100101001000001010000111100101110011110101111100001001101001001100110101100010000100001111101101110011100011110100011010011101110010100110011111010101010101100001011100010101001111110001000100111101010100111001011110100001111010101011110111110001011010000101010001000110011111100110010111101011101001101010111101001000001101000001100010001101000000001010000000101010000010001010100000010100001110010001101000011110111110100110011111101010011011100100111100101111100010001100000011010011110011111111010000110111010011110010101110010100110110101010001001110010001011101011101111101100111011100110001000001110100000000010110001010110111110100111100100101011111111011011011111110110110001010011110100111101001111010010010001000011000001111110101001100110000110100110011110001100101011100000000001101110000100001101101110000111000011011011101110010101111000100111000011011101001001011110101111011100101101110101101001111011001010110111001100110100011110000101110010101011100011001111010111111001011011001011011001010011001011101001011001001001111000100101000011001100000100010001110010010011110001010101111011011001010011000101101000011010100010011011100100001101001100100000110010101011000010001011010101100010111101100001010000010100001110010110000101100110100010110111110111101110111001010001101010001001111001110100101100101001101001001001001111001011011011101101011111001110110001001010111011001101111010101111111110000101111010110111010011010100101100111111011111101100010101111011100101001001111111111010110011111111111111111111111111111111111111101010011001110011001101001110111001010110101010001111001110110111001011011001111010011000101011111001011011110010110111100101100101111111111111111111111111111111111111100101100101101010011011110011101000011001100111101110010101001001011011110111011010101001011010100101011011010111011011110 ="
x<"
bx ;"
bx :"
bx 9"
bx 8"
x7"
bx 6"
bx 5"
bx 4"
bx 3"
bx 2"
x1"
bx ."
bx -"
1,"
b0 +"
b1111 *"
0)"
b10 ("
x'"
x&"
bx %"
bx $"
bx #"
bx ""
x!"
bx ~
bx }
bx |
bx {
bx z
xy
bx v
bx u
1t
b0 s
b1111 r
0q
b10 p
xo
xn
bx m
bx l
bx k
bx j
xi
bx h
bx g
bx f
bx e
bx d
xc
bx `
bx _
1^
b0 ]
b1101 \
0[
b10 Z
xY
xX
bx W
bx V
bx U
bx T
xS
bx R
bx Q
bx P
bx O
bx N
xM
bx J
bx I
1H
b0 G
b1101 F
0E
b10 D
xC
xB
bx A
bx @
x?
bx >
bx =
bx <
bx ;
bx :
bx 9
bx 8
bx 7
b101000011000100111110111110001110101110010000011 6
b111101011 5
b1111 4
03
b0 2
b1111111111011101 1
00
b101000011000100111110111110001110101110010000011 /
b0 .
b111101011 -
0,
b10101010 +
x*
bx )
x(
x'
x&
x%
bx $
bx #
bx "
x!
$end
#10000
1,
#20000
0,
10
#30000
0>"
0'"
0o
0Y
0C
0&
0*
0?
0%
0!
0'
0(
b10110100000110 @"
b10110100000111 )
b10110100000111 8
b10110100000111 ?"
b0 2"
b0 6"
b0 :"
b0 9"
b0 z
b0 ~
b0 $"
b0 #"
b0 d
b0 h
b0 l
b0 k
b0 N
b0 R
b0 "
b0 V
b0 #
b0 U
b0 :
b0 9
b0 ;
b0 @
1,
#40000
0,
00
#50000
1,
#60000
0,
#70000
1,
#80000
0,
13
#90000
1?
b110010000011 A
0B
0M
b1 I
b11 P
b1 J
b11 O
0c
b1 _
b11 f
b1 `
b11 e
0y
b1 u
b11 |
b0 v
b100 {
b0 $
b0 7
01"
b1 -"
b11 4"
b0 ."
b100 3"
b1 @
b10101100011100 =
b101000011000100111110111110001110101110010000011 >
b111101011 <
b0 W
0S
b10 Q
1X
b1101 T
b0 m
0i
b10 g
1n
b1101 j
b0 %"
0!"
b10 }
1&"
b1111 ""
b0 ;"
07"
b10 5"
1<"
b1111 8"
1,
#100000
0,
03
#110000
b1 :
1,
#120000
0,
#130000
b10 :
1,
#140000
0,
#150000
b11 :
1,
#160000
0,
#170000
b100 :
1,
#180000
0,
#190000
b101 :
1,
#200000
0,
#210000
b110 :
1,
#220000
0,
#230000
b111 :
1,
#240000
0,
#250000
b1000 :
1,
#260000
0,
#270000
b1001 :
1,
#280000
0,
#290000
b1010 :
1,
#300000
0,
#310000
b1011 :
1,
#320000
0,
#330000
b1100 :
1,
#340000
0,
#350000
b1101 :
1,
#360000
0,
#370000
b1110 :
1,
#380000
0,
#390000
b1111 :
1,
#400000
0,
#410000
b10000 :
1,
#420000
0,
#430000
b10001 :
1,
#440000
0,
#450000
b10010 :
1,
#460000
0,
#470000
b10011 :
1,
#480000
0,
#490000
b10100 :
1,
#500000
0,
#510000
b10101 :
1,
#520000
0,
#530000
b10110 :
1,
#540000
0,
#550000
b10111 :
1,
#560000
0,
#570000
b11000 :
1,
#580000
0,
#590000
b11001 :
1,
#600000
0,
#610000
b11010 :
1,
#620000
0,
#630000
b11011 :
1,
#640000
0,
#650000
b11100 :
1,
#660000
0,
#670000
b11101 :
1,
#680000
0,
#690000
b11110 :
1,
#700000
0,
#710000
b11111 :
1,
#720000
0,
#730000
b100000 :
1,
#740000
0,
#750000
b100001 :
1,
#760000
0,
#770000
b100010 :
1,
#780000
0,
#790000
b100011 :
1,
#800000
0,
#810000
b100100 :
1,
#820000
0,
#830000
b100101 :
1,
#840000
0,
#850000
b100110 :
1,
#860000
0,
#870000
b100111 :
1,
#880000
0,
#890000
b101000 :
1,
#900000
0,
#910000
b101001 :
1,
#920000
0,
#930000
b101010 :
1,
#940000
0,
#950000
b101011 :
1,
#960000
0,
#970000
b101100 :
1,
#980000
0,
#990000
b101101 :
1,
#1000000
0,
#1010000
b101110 :
1,
#1020000
0,
#1030000
b101111 :
1,
#1040000
0,
#1050000
b110000 :
1,
#1060000
0,
#1070000
b110001 :
1,
#1080000
0,
#1090000
b110010 :
1,
#1100000
0,
#1110000
b110011 :
1,
#1120000
0,
#1130000
b110100 :
1,
#1140000
0,
#1150000
b110101 :
1,
#1160000
0,
#1170000
b110110 :
1,
#1180000
0,
#1190000
b110111 :
1,
#1200000
0,
#1210000
b111000 :
1,
#1220000
0,
#1230000
b111001 :
1,
#1240000
0,
#1250000
b111010 :
1,
#1260000
0,
#1270000
b111011 :
1,
#1280000
0,
#1290000
b111100 :
1,
#1300000
0,
#1310000
b111101 :
1,
#1320000
0,
#1330000
b111110 :
1,
#1340000
0,
#1350000
b111111 :
1,
#1360000
0,
#1370000
b1000000 :
1,
#1380000
0,
#1390000
b1000001 :
1,
#1400000
0,
#1410000
b1000010 :
1,
#1420000
0,
#1430000
b1000011 :
1,
#1440000
0,
#1450000
b1000100 :
1,
#1460000
0,
#1470000
b1000101 :
1,
#1480000
0,
#1490000
b1000110 :
1,
#1500000
0,
#1510000
b1000111 :
1,
#1520000
0,
#1530000
b1001000 :
1,
#1540000
0,
#1550000
b1001001 :
1,
#1560000
0,
#1570000
b1001010 :
1,
#1580000
0,
#1590000
b1001011 :
1,
#1600000
0,
#1610000
b1001100 :
1,
#1620000
0,
#1630000
b1001101 :
1,
#1640000
0,
#1650000
b1001110 :
1,
#1660000
0,
#1670000
b1001111 :
1,
#1680000
0,
#1690000
b1010000 :
1,
#1700000
0,
#1710000
b1010001 :
1,
#1720000
0,
#1730000
b1010010 :
1,
#1740000
0,
#1750000
b1010011 :
1,
#1760000
0,
#1770000
b1010100 :
1,
#1780000
0,
#1790000
b1010101 :
1,
#1800000
0,
#1810000
b1010110 :
1,
#1820000
0,
#1830000
b1010111 :
1,
#1840000
0,
#1850000
b1011000 :
1,
#1860000
0,
#1870000
b1011001 :
1,
#1880000
0,
#1890000
b1011010 :
1,
#1900000
0,
#1910000
b1011011 :
1,
#1920000
0,
#1930000
b1011100 :
1,
#1940000
0,
#1950000
b1011101 :
1,
#1960000
0,
#1970000
b1011110 :
1,
#1980000
0,
#1990000
b1011111 :
1,
#2000000
0,
#2010000
b1100000 :
1,
#2020000
0,
#2030000
b1100001 :
1,
#2040000
0,
#2050000
b1100010 :
1,
#2060000
0,
#2070000
b1100011 :
1,
#2080000
0,
#2090000
b1100100 :
1,
#2100000
0,
#2110000
b1100101 :
1,
#2120000
0,
#2130000
b1100110 :
1,
#2140000
0,
#2150000
b1100111 :
1,
#2160000
0,
#2170000
b1101000 :
1,
#2180000
0,
#2190000
b1101001 :
1,
#2200000
0,
#2210000
b1101010 :
1,
#2220000
0,
#2230000
b1101011 :
1,
#2240000
0,
#2250000
b1101100 :
1,
#2260000
0,
#2270000
b1101101 :
1,
#2280000
0,
#2290000
b1101110 :
1,
#2300000
0,
#2310000
b1101111 :
1,
#2320000
0,
#2330000
b1110000 :
1,
#2340000
0,
#2350000
b1110001 :
1,
#2360000
0,
#2370000
b1110010 :
1,
#2380000
0,
#2390000
b1110011 :
1,
#2400000
0,
#2410000
b1110100 :
1,
#2420000
0,
#2430000
b1110101 :
1,
#2440000
0,
#2450000
b1110110 :
1,
#2460000
0,
#2470000
b1110111 :
1,
#2480000
0,
#2490000
b1111000 :
1,
#2500000
0,
#2510000
b1111001 :
1,
#2520000
0,
#2530000
b1111010 :
1,
#2540000
0,
#2550000
b1111011 :
1,
#2560000
0,
#2570000
b1111100 :
1,
#2580000
0,
#2590000
b1111101 :
1,
#2600000
0,
#2610000
b1111110 :
1,
#2620000
0,
#2630000
b1111111 :
1,
#2640000
0,
#2650000
b10000000 :
1,
#2660000
0,
#2670000
b10000001 :
1,
#2680000
0,
#2690000
b10000010 :
1,
#2700000
0,
#2710000
b10000011 :
1,
#2720000
0,
#2730000
b10000100 :
1,
#2740000
0,
#2750000
b10000101 :
1,
#2760000
0,
#2770000
b10000110 :
1,
#2780000
0,
#2790000
b10000111 :
1,
#2800000
0,
#2810000
b10001000 :
1,
#2820000
0,
#2830000
b10001001 :
1,
#2840000
0,
#2850000
b10001010 :
1,
#2860000
0,
#2870000
b10001011 :
1,
#2880000
0,
#2890000
b10001100 :
1,
#2900000
0,
#2910000
b10001101 :
1,
#2920000
0,
#2930000
b10001110 :
1,
#2940000
0,
#2950000
b10001111 :
1,
#2960000
0,
#2970000
b10010000 :
1,
#2980000
0,
#2990000
b10010001 :
1,
#3000000
0,
#3010000
b10010010 :
1,
#3020000
0,
#3030000
b10010011 :
1,
#3040000
0,
#3050000
b10010100 :
1,
#3060000
0,
#3070000
b10010101 :
1,
#3080000
0,
#3090000
b10010110 :
1,
#3100000
0,
#3110000
b10010111 :
1,
#3120000
0,
#3130000
b10011000 :
1,
#3140000
0,
#3150000
b10011001 :
1,
#3160000
0,
#3170000
b10011010 :
1,
#3180000
0,
#3190000
b10011011 :
1,
#3200000
0,
#3210000
b10011100 :
1,
#3220000
0,
#3230000
b10011101 :
1,
#3240000
0,
#3250000
b10011110 :
1,
#3260000
0,
#3270000
b10011111 :
1,
#3280000
0,
#3290000
b10100000 :
1,
#3300000
0,
#3310000
b10100001 :
1,
#3320000
0,
#3330000
b10100010 :
1,
#3340000
0,
#3350000
b10100011 :
1,
#3360000
0,
#3370000
b10100100 :
1,
#3380000
0,
#3390000
b10100101 :
1,
#3400000
0,
#3410000
b10100110 :
1,
#3420000
0,
#3430000
b10100111 :
1,
#3440000
0,
#3450000
b10101000 :
1,
#3460000
0,
#3470000
b10101001 :
1,
#3480000
0,
#3490000
b10101010 :
1,
#3500000
0,
#3510000
b10101011 :
1,
#3520000
0,
#3530000
b10101100 :
1,
#3540000
0,
#3550000
b10101101 :
1,
#3560000
0,
#3570000
b10101110 :
1,
#3580000
0,
#3590000
b10101111 :
1,
#3600000
0,
#3610000
b10110000 :
1,
#3620000
0,
#3630000
b10110001 :
1,
#3640000
0,
#3650000
b10110010 :
1,
#3660000
0,
#3670000
b10110011 :
1,
#3680000
0,
#3690000
b10110100 :
1,
#3700000
0,
#3710000
b10110101 :
1,
#3720000
0,
#3730000
b10110110 :
1,
#3740000
0,
#3750000
b10110111 :
1,
#3760000
0,
#3770000
b10111000 :
1,
#3780000
0,
#3790000
b10111001 :
1,
#3800000
0,
#3810000
b10111010 :
1,
#3820000
0,
#3830000
b10111011 :
1,
#3840000
0,
#3850000
b10111100 :
1,
#3860000
0,
#3870000
b10111101 :
1,
#3880000
0,
#3890000
b10111110 :
1,
#3900000
0,
#3910000
b10111111 :
1,
#3920000
0,
#3930000
b11000000 :
1,
#3940000
0,
#3950000
b11000001 :
1,
#3960000
0,
#3970000
b11000010 :
1,
#3980000
0,
#3990000
b11000011 :
1,
#4000000
0,
#4010000
b11000100 :
1,
#4020000
0,
#4030000
b11000101 :
1,
#4040000
0,
#4050000
b11000110 :
1,
#4060000
0,
#4070000
b11000111 :
1,
#4080000
0,
#4090000
b11001000 :
1,
#4100000
0,
#4110000
b11001001 :
1,
#4120000
0,
#4130000
b11001010 :
1,
#4140000
0,
#4150000
b11001011 :
1,
#4160000
0,
#4170000
b11001100 :
1,
#4180000
0,
#4190000
b11001101 :
1,
#4200000
0,
#4210000
b11001110 :
1,
#4220000
0,
#4230000
b11001111 :
1,
#4240000
0,
#4250000
b11010000 :
1,
#4260000
0,
#4270000
b11010001 :
1,
#4280000
0,
#4290000
b11010010 :
1,
#4300000
0,
#4310000
b11010011 :
1,
#4320000
0,
#4330000
b11010100 :
1,
#4340000
0,
#4350000
b11010101 :
1,
#4360000
0,
#4370000
b11010110 :
1,
#4380000
0,
#4390000
b11010111 :
1,
#4400000
0,
#4410000
b11011000 :
1,
#4420000
0,
#4430000
b11011001 :
1,
#4440000
0,
#4450000
b11011010 :
1,
#4460000
0,
#4470000
b11011011 :
1,
#4480000
0,
#4490000
b11011100 :
1,
#4500000
0,
#4510000
b11011101 :
1,
#4520000
0,
#4530000
b11011110 :
1,
#4540000
0,
#4550000
b11011111 :
1,
#4560000
0,
#4570000
b11100000 :
1,
#4580000
0,
#4590000
b11100001 :
1,
#4600000
0,
#4610000
b11100010 :
1,
#4620000
0,
#4630000
b11100011 :
1,
#4640000
0,
#4650000
b11100100 :
1,
#4660000
0,
#4670000
b11100101 :
1,
#4680000
0,
#4690000
b11100110 :
1,
#4700000
0,
#4710000
b11100111 :
1,
#4720000
0,
#4730000
b11101000 :
1,
#4740000
0,
#4750000
b11101001 :
1,
#4760000
0,
#4770000
b11101010 :
1,
#4780000
0,
#4790000
b11101011 :
1,
#4800000
0,
#4810000
b11101100 :
1,
#4820000
0,
#4830000
b11101101 :
1,
#4840000
0,
#4850000
b11101110 :
1,
#4860000
0,
#4870000
b11101111 :
1,
#4880000
0,
#4890000
b11110000 :
1,
#4900000
0,
#4910000
b11110001 :
1,
#4920000
0,
#4930000
b11110010 :
1,
#4940000
0,
#4950000
b11110011 :
1,
#4960000
0,
#4970000
b11110100 :
1,
#4980000
0,
#4990000
b11110101 :
1,
#5000000
0,
#5010000
b11110110 :
1,
#5020000
0,
#5030000
b11110111 :
1,
#5040000
0,
#5050000
b11111000 :
1,
#5060000
0,
#5070000
b11111001 :
1,
#5080000
0,
#5090000
b11111010 :
1,
#5100000
0,
#5110000
b11111011 :
1,
#5120000
0,
#5130000
b11111100 :
1,
#5140000
0,
#5150000
b11111101 :
1,
#5160000
0,
#5170000
b11111110 :
1,
#5180000
0,
#5190000
b11111111 :
1,
#5200000
0,
#5210000
b100000000 :
1,
#5220000
0,
#5230000
b100000001 :
1,
#5240000
0,
#5250000
b100000010 :
1,
#5260000
0,
#5270000
b100000011 :
1,
#5280000
0,
#5290000
b100000100 :
1,
#5300000
0,
#5310000
b100000101 :
1,
#5320000
0,
#5330000
b100000110 :
1,
#5340000
0,
#5350000
b100000111 :
1,
#5360000
0,
#5370000
b100001000 :
1,
#5380000
0,
#5390000
b100001001 :
1,
#5400000
0,
#5410000
b100001010 :
1,
#5420000
0,
#5430000
b100001011 :
1,
#5440000
0,
#5450000
b100001100 :
1,
#5460000
0,
#5470000
b100001101 :
1,
#5480000
0,
#5490000
b100001110 :
1,
#5500000
0,
#5510000
b100001111 :
1,
#5520000
0,
#5530000
b100010000 :
1,
#5540000
0,
#5550000
b100010001 :
1,
#5560000
0,
#5570000
b100010010 :
1,
#5580000
0,
#5590000
b100010011 :
1,
#5600000
0,
#5610000
b100010100 :
1,
#5620000
0,
#5630000
b100010101 :
1,
#5640000
0,
#5650000
b100010110 :
1,
#5660000
0,
#5670000
b100010111 :
1,
#5680000
0,
#5690000
b100011000 :
1,
#5700000
0,
#5710000
b100011001 :
1,
#5720000
0,
#5730000
b100011010 :
1,
#5740000
0,
#5750000
b100011011 :
1,
#5760000
0,
#5770000
b100011100 :
1,
#5780000
0,
#5790000
b100011101 :
1,
#5800000
0,
#5810000
b100011110 :
1,
#5820000
0,
#5830000
b100011111 :
1,
#5840000
0,
#5850000
b100100000 :
1,
#5860000
0,
#5870000
b100100001 :
1,
#5880000
0,
#5890000
b100100010 :
1,
#5900000
0,
#5910000
b100100011 :
1,
#5920000
0,
#5930000
b100100100 :
1,
#5940000
0,
#5950000
b100100101 :
1,
#5960000
0,
#5970000
b100100110 :
1,
#5980000
0,
#5990000
b100100111 :
1,
#6000000
0,
#6010000
b100101000 :
1,
#6020000
0,
#6030000
b100101001 :
1,
#6040000
0,
#6050000
b100101010 :
1,
#6060000
0,
#6070000
b100101011 :
1,
#6080000
0,
#6090000
b100101100 :
1,
#6100000
0,
#6110000
b100101101 :
1,
#6120000
0,
