Alex/test_builds/parser_v2/sim/integration_sim.vcd
$date
	Sun Dec 04 01:39:37 2022
$end
$version
	Icarus Verilog
$end
$timescale
	1ps
$end
$scope module integration_tb $end
$var wire 1 ! clk_100mhz $end
$var wire 1 " sys_rst $end
$var wire 4 # window_switching_flag [3:0] $end
$var wire 1 $ valid_header $end
$var wire 60 % table_select [59:0] $end
$var wire 36 & subblock_gain [35:0] $end
$var wire 1 ' side_info_flag $end
$var wire 1 ( side_info_axiov $end
$var wire 8 ) scfsi [7:0] $end
$var wire 4 * scalefac_scale [3:0] $end
$var wire 16 + scalefac_compress [15:0] $end
$var wire 16 , region1_count [15:0] $end
$var wire 16 - region0_count [15:0] $end
$var wire 1 . prot $end
$var wire 3 / private_bits [2:0] $end
$var wire 4 0 preflag [3:0] $end
$var wire 48 1 part2_3_length [47:0] $end
$var wire 1 2 mux_data_out_valid $end
$var wire 8 3 mux_data_out [7:0] $end
$var wire 2 4 mode_ext [1:0] $end
$var wire 2 5 mode [1:0] $end
$var wire 4 6 mixed_block_flag [3:0] $end
$var wire 9 7 main_data_begin [8:0] $end
$var wire 32 8 global_gain [31:0] $end
$var wire 11 9 frame_size [10:0] $end
$var wire 1 : fifo_buffer_flag $end
$var wire 2 ; emphasis [1:0] $end
$var wire 1 < crc_16_flag $end
$var wire 4 = count1table_select [3:0] $end
$var wire 1 > bram_axiov $end
$var wire 8 ? bram_axiod [7:0] $end
$var wire 8 @ block_type [7:0] $end
$var wire 36 A big_values [35:0] $end
$var reg 1 B btnu $end
$var reg 1 C clk $end
$var reg 1 D rst $end
$var reg 7 E sw [6:0] $end
$scope module data_out $end
$var wire 1 ! clk $end
$var wire 7 F frame_num_id [6:0] $end
$var wire 1 B frame_num_iv $end
$var wire 1 " rst $end
$var wire 8 G axiod [7:0] $end
$var parameter 32 H delay $end
$var reg 1 > axiov $end
$var reg 9 I byte_counter [8:0] $end
$var reg 5 J delay_counter [4:0] $end
$var reg 16 K frame_addr [15:0] $end
$var reg 16 L frame_num_saved [15:0] $end
$var reg 1 M reading_status $end
$scope module image_BROM $end
$var wire 16 N addra [15:0] $end
$var wire 1 ! clka $end
$var wire 8 O dina [7:0] $end
$var wire 1 P ena $end
$var wire 1 Q regcea $end
$var wire 1 " rsta $end
$var wire 1 R wea $end
$var wire 8 S douta [7:0] $end
$var parameter 136 T INIT_FILE $end
$var parameter 32 U RAM_DEPTH $end
$var parameter 128 V RAM_PERFORMANCE $end
$var parameter 32 W RAM_WIDTH $end
$var reg 8 X ram_data [7:0] $end
$scope function clogb2 $end
$var integer 32 Y depth [31:0] $end
$upscope $end
$scope begin output_register $end
$var reg 8 Z douta_reg [7:0] $end
$upscope $end
$scope begin use_init_file $end
$upscope $end
$upscope $end
$upscope $end
$scope module light $end
$var wire 8 [ axiid [7:0] $end
$var wire 1 > axiiv $end
$var wire 1 ! clk $end
$var wire 1 " rst $end
$var wire 1 \ version $end
$var wire 12 ] sync [11:0] $end
$var wire 16 ^ samp_rate [15:0] $end
$var wire 1 . prot $end
$var wire 1 _ padding $end
$var wire 2 ` mode_ext [1:0] $end
$var wire 2 a mode [1:0] $end
$var wire 2 b layer [1:0] $end
$var wire 2 c emphasis [1:0] $end
$var reg 9 d bitrate [8:0] $end
$var reg 11 e frame_size [10:0] $end
$var reg 32 f header [31:0] $end
$var reg 1 $ valid_header $end
$upscope $end
$scope module mux $end
$var wire 8 g axiid [7:0] $end
$var wire 1 > axiiv $end
$var wire 1 ! clk $end
$var wire 11 h frame_size [10:0] $end
$var wire 2 i mode [1:0] $end
$var wire 1 . prot $end
$var wire 1 " rst $end
$var wire 1 $ valid_header $end
$var wire 1 ' side_info_ov $end
$var wire 1 : fifo_buffer_ov $end
$var wire 1 < crc_16_ov $end
$var reg 12 j byte_counter [11:0] $end
$var reg 2 k crc_length [1:0] $end
$var reg 8 l data_out [7:0] $end
$var reg 1 2 data_out_valid $end
$var reg 11 m frame_size_saved [10:0] $end
$var reg 3 n output_codeword [2:0] $end
$var reg 6 o side_info_length [5:0] $end
$var reg 1 p status $end
$upscope $end
$scope module si_parser $end
$var wire 8 q axiid [7:0] $end
$var wire 1 r axiiv $end
$var wire 1 ! clk $end
$var wire 1 " rst $end
$var reg 1 ( axiov $end
$var reg 36 s big_values [35:0] $end
$var reg 8 t block_type [7:0] $end
$var reg 4 u count1table_select [3:0] $end
$var reg 32 v global_gain [31:0] $end
$var reg 9 w main_data_begin [8:0] $end
$var reg 4 x mixed_block_flag [3:0] $end
$var reg 48 y part2_3_length [47:0] $end
$var reg 4 z preflag [3:0] $end
$var reg 3 { private_bits [2:0] $end
$var reg 16 | region0_count [15:0] $end
$var reg 16 } region1_count [15:0] $end
$var reg 16 ~ scalefac_compress [15:0] $end
$var reg 4 !" scalefac_scale [3:0] $end
$var reg 8 "" scfsi [7:0] $end
$var reg 24 #" side_info_buffer [23:0] $end
$var reg 6 $" side_info_byte_counter [5:0] $end
$var reg 36 %" subblock_gain [35:0] $end
$var reg 60 &" table_select [59:0] $end
$var reg 4 '" window_switching_flag [3:0] $end
$upscope $end
$upscope $end
$enddefinitions $end
$comment Show the parameter values. $end
$dumpall
b1000 W
b1001000010010010100011101001000010111110101000001000101010100100100011001001111010100100100110101000001010011100100001101000101 V
b1111101000000000 U
b110010001100001011101000110000100101111011011010111000000110011010111110111001101101111011011100110011100101110011011010110010101101101 T
b1000 H
$end
#0
$dumpvars
bx '"
bx &"
bx %"
bx $"
bx #"
bx ""
bx !"
bx ~
bx }
bx |
bx {
bx z
bx y
bx x
bx w
bx v
bx u
bx t
bx s
xr
bx q
xp
bx o
bx n
bx m
bx l
bx k
bx j
bx i
b0 h
b0 g
bx f
b0 e
b0 d
bx c
bx b
bx a
bx `
x_
b0xx ^
bx ]
x\
b0 [
b0 Z
bx Y
b0 X
b0 S
0R
1Q
1P
b0 O
bx N
xM
bx L
bx K
bx J
bx I
b0 G
b0 F
b0 E
0D
0C
0B
bx A
bx @
b0 ?
x>
bx =
x<
bx ;
x:
b0 9
bx 8
bx 7
bx 6
bx 5
bx 4
bx 3
x2
bx 1
bx 0
bx /
x.
bx -
bx ,
bx +
bx *
bx )
x(
x'
bx &
bx %
0$
bx #
0"
0!
$end
#10000
0r
0<
0'
0:
bx X
0>
b0 n
0(
1!
1C
#20000
0!
0C
#30000
bx ?
bx G
bx S
bx [
bx g
bx Z
1!
1C
#40000
0!
0C
1"
1D
#50000
0\
b0 b
b0 ^
b0 ]
0.
0_
b0 5
b0 a
b0 i
b0 4
b0 `
b0 ;
b0 c
b0 ?
b0 G
b0 S
b0 [
b0 g
b0 Z
b0 J
0M
b0 I
b0 f
02
b0 3
b0 l
b0 q
0p
b0 j
b0 $"
b0 #"
b0 =
b0 u
b0 *
b0 !"
b0 0
b0 z
b0 ,
b0 }
b0 -
b0 |
b0 &
b0 %"
b0 %
b0 &"
b0 6
b0 x
b0 @
b0 t
b0 #
b0 '"
b0 +
b0 ~
b0 8
b0 v
b0 A
b0 s
b0 1
b0 y
b0 )
b0 ""
b0 /
b0 {
b0 7
b0 w
1!
1C
#60000
0!
0C
0"
0D
#70000
bx ?
bx G
bx S
bx [
bx g
bx Z
1!
1C
#80000
0!
0C
1B
b101 E
b101 F
#90000
b101000000000 K
b101000000000 N
b101 L
1M
1!
1C
#100000
0!
0C
0B
#110000
b1 J
b11111111 X
1!
1C
#120000
0!
0C
#130000
b11111111 ?
b11111111 G
b11111111 S
b11111111 [
b11111111 g
b11111111 Z
b10 J
1!
1C
#140000
0!
0C
#150000
b11 J
1!
1C
#160000
0!
0C
#170000
b100 J
1!
1C
#180000
0!
0C
#190000
b101 J
1!
1C
#200000
0!
0C
#210000
b110 J
1!
1C
#220000
0!
0C
#230000
b111 J
1!
1C
#240000
0!
0C
#250000
b1000 J
1!
1C
#260000
0!
0C
#270000
b101000000001 K
b101000000001 N
b1 I
1>
b0 J
1!
1C
#280000
0!
0C
#290000
b11 5
b11 a
b11 i
b11 4
b11 `
b11 ;
b11 c
b11111011 X
0>
b1 J
b11111111 f
1!
1C
#300000
0!
0C
#310000
b10 J
b11111011 ?
b11111011 G
b11111011 S
b11111011 [
b11111011 g
b11111011 Z
1!
1C
#320000
0!
0C
#330000
b11 J
1!
1C
#340000
0!
0C
#350000
b100 J
1!
1C
#360000
0!
0C
#370000
b101 J
1!
1C
#380000
0!
0C
#390000
b110 J
1!
1C
#400000
0!
0C
#410000
b111 J
1!
1C
#420000
0!
0C
#430000
b1000 J
1!
1C
#440000
0!
0C
#450000
b101000000010 K
b101000000010 N
b10 I
1>
b0 J
1!
1C
#460000
0!
0C
#470000
b11 ^
1_
b1111111111111011 f
0>
b1 J
b10010010 X
1!
1C
#480000
0!
0C
#490000
b10010010 ?
b10010010 G
b10010010 S
b10010010 [
b10010010 g
b10010010 Z
b10 J
1!
1C
#500000
0!
0C
#510000
b11 J
1!
1C
#520000
0!
0C
#530000
b100 J
1!
1C
#540000
0!
0C
#550000
b101 J
1!
1C
#560000
0!
0C
#570000
b110 J
1!
1C
#580000
0!
0C
#590000
b111 J
1!
1C
#600000
0!
0C
#610000
b1000 J
1!
1C
#620000
0!
0C
#630000
b101000000011 K
b101000000011 N
b11 I
1>
b0 J
1!
1C
#640000
0!
0C
#650000
1\
b11 b
b10 ^
b1111 ]
1.
b10 5
b10 a
b10 i
b1 4
b1 `
b10 ;
b10 c
b1100100 X
0>
b1 J
b111111111111101110010010 f
1!
1C
#660000
0!
0C
#670000
b10 J
b1100100 ?
b1100100 G
b1100100 S
b1100100 [
b1100100 g
b1100100 Z
1!
1C
#680000
0!
0C
#690000
b11 J
1!
1C
#700000
0!
0C
#710000
b100 J
1!
1C
#720000
0!
0C
#730000
b101 J
1!
1C
#740000
0!
0C
#750000
b110 J
1!
1C
#760000
0!
0C
#770000
b111 J
1!
1C
#780000
0!
0C
#790000
b1000 J
1!
1C
#800000
0!
0C
#810000
b101000000100 K
b101000000100 N
b100 I
1>
b0 J
1!
1C
#820000
0!
0C
#830000
b110100010 9
b110100010 e
b110100010 h
1$
b10000000 d
b1 b
b0 ^
b111111111111 ]
b1 5
b1 a
b1 i
b10 4
b10 `
b0 ;
b0 c
b11111111111110111001001001100100 f
0>
b1 J
b11011110 X
1!
1C
#840000
0!
0C
#850000
b11011110 ?
b11011110 G
b11011110 S
b11011110 [
b11011110 g
b11011110 Z
b10 J
1p
b110100010 m
b100000 o
b0 k
1!
1C
#860000
0!
0C
#870000
b11 J
1!
1C
#880000
0!
0C
#890000
b100 J
1!
1C
#900000
0!
0C
#910000
b101 J
1!
1C
#920000
0!
0C
#930000
b110 J
1!
1C
#940000
0!
0C
#950000
b111 J
1!
1C
#960000
0!
0C
#970000
b1000 J
1!
1C
#980000
0!
0C
#990000
b101000000101 K
b101000000101 N
b101 I
1>
b0 J
1!
1C
#1000000
0!
0C
#1010000
0$
b100000101 9
b100000101 e
b100000101 h
1r
b1010000 d
0\
b1 ^
b111110111001 ]
0.
0_
b11 5
b11 a
b11 i
b1 4
b1 `
b10 ;
b10 c
1'
b10 X
0>
b1 J
b11111011100100100110010011011110 f
b10 n
b1 j
b11011110 3
b11011110 l
b11011110 q
12
1!
1C
#1020000
0!
0C
#1030000
0r
b1 $"
b11011110 #"
02
b10 J
b10 ?
b10 G
b10 S
b10 [
b10 g
b10 Z
1!
1C
#1040000
0!
0C
#1050000
b11 J
1!
1C
#1060000
0!
0C
#1070000
b100 J
1!
1C
#1080000
0!
0C
#1090000
b101 J
1!
1C
#1100000
0!
0C
#1110000
b110 J
1!
1C
#1120000
0!
0C
#1130000
b111 J
1!
1C
#1140000
0!
0C
#1150000
b1000 J
1!
1C
#1160000
0!
0C
#1170000
b101000000110 K
b101000000110 N
b110 I
1>
b0 J
1!
1C
#1180000
0!
0C
#1190000
b1101000100 9
b1101000100 e
b1101000100 h
1r
b100000000 d
b10 b
b11 ^
b100100100110 ]
1_
b0 5
b0 a
b0 i
b0 4
b0 `
b10 j
b10 3
b10 l
b10 q
12
b10010010011001001101111000000010 f
0>
b1 J
b11110100 X
1!
1C
#1200000
0!
0C
#1210000
0r
b11110100 ?
b11110100 G
b11110100 S
b11110100 [
b11110100 g
b11110100 Z
b10 J
02
b10 $"
b1101111000000010 #"
1!
1C
#1220000
0!
0C
#1230000
b100 )
b100 ""
b110111100 7
b110111100 w
b11 J
1!
1C
#1240000
0!
0C
#1250000
b100 J
1!
1C
#1260000
0!
0C
#1270000
b101 J
1!
1C
#1280000
0!
0C
#1290000
b110 J
1!
1C
#1300000
0!
0C
#1310000
b111 J
1!
1C
#1320000
0!
0C
#1330000
b1000 J
1!
1C
#1340000
0!
0C
#1350000
b101000000111 K
b101000000111 N
b111 I
1>
b0 J
1!
1C
#1360000
0!
0C
#1370000
b0 9
b0 e
b0 h
b0 d
1\
b11 b
b0 ^
b11001001101 ]
b11 5
b11 a
b11 i
b11 4
b11 `
b0 ;
b0 c
1r
b1110110 X
0>
b1 J
b1100100110111100000001011110100 f
b11 j
b11110100 3
b11110100 l
b11110100 q
12
1!
1C
#1380000
0!
0C
#1390000
0r
b11 $"
b110111100000001011110100 #"
02
b10 J
b1110110 ?
b1110110 G
b1110110 S
b1110110 [
b1110110 g
b1110110 Z
1!
1C
#1400000
0!
0C
#1410000
b11 J
b11110100 )
b11110100 ""
1!
1C
#1420000
0!
0C
#1430000
b100 J
1!
1C
#1440000
0!
0C
#1450000
b101 J
1!
1C
#1460000
0!
0C
#1470000
b110 J
1!
1C
#1480000
0!
0C
#1490000
b111 J
1!
1C
#1500000
0!
0C
#1510000
b1000 J
1!
1C
#1520000
0!
0C
#1530000
b101000001000 K
b101000001000 N
b1000 I
1>
b0 J
1!
1C
#1540000
0!
0C
#1550000
1r
0\
b1 b
b1 ^
b110111100000 ]
0_
b1 5
b1 a
b1 i
b10 ;
b10 c
b100 j
b1110110 3
b1110110 l
b1110110 q
12
b11011110000000101111010001110110 f
0>
b1 J
b1000101 X
1!
1C
#1560000
0!
0C
#1570000
0r
b1000101 ?
b1000101 G
b1000101 S
b1000101 [
b1000101 g
b1000101 Z
b10 J
02
b100 $"
b101111010001110110 #"
1!
1C
#1580000
0!
0C
#1590000
b10001110110 1
b10001110110 y
b11 J
1!
1C
#1600000
0!
0C
#1610000
b100 J
1!
1C
#1620000
0!
0C
#1630000
b101 J
1!
1C
#1640000
0!
0C
#1650000
b110 J
1!
1C
#1660000
0!
0C
#1670000
b111 J
1!
1C
#1680000
0!
0C
#1690000
b1000 J
1!
1C
#1700000
0!
0C
#1710000
b101000001001 K
b101000001001 N
b1001 I
1>
b0 J
1!
1C
#1720000
0!
0C
#1730000
b100111010 9
b100111010 e
b100111010 h
b1100000 d
b10 b
b101111 ]
1_
b0 4
b0 `
b1 ;
b1 c
1r
b1010010 X
0>
b1 J
b10111101000111011001000101 f
b101 j
b1000101 3
b1000101 l
b1000101 q
12
1!
1C
#1740000
0!
0C
#1750000
0r
b101 $"
b111101000111011001000101 #"
02
b10 J
b1010010 ?
b1010010 G
b1010010 S
b1010010 [
b1010010 g
b1010010 Z
1!
1C
#1760000
0!
0C
#1770000
b11 J
1!
1C
#1780000
0!
0C
#1790000
b100 J
1!
1C
#1800000
0!
0C
#1810000
b101 J
1!
1C
#1820000
0!
0C
#1830000
b110 J
1!
1C
#1840000
0!
0C
#1850000
b111 J
1!
1C
#1860000
0!
0C
#1870000
b1000 J
1!
1C
#1880000
0!
0C
#1890000
b101000001010 K
b101000001010 N
b1010 I
1>
b0 J
1!
1C
#1900000
0!
0C
#1910000
b10110110 9
b10110110 e
b10110110 h
1r
b111000 d
b11 b
b111101000111 ]
0_
b1 4
b1 `
b10 ;
b10 c
b110 j
b1010010 3
b1010010 l
b1010010 q
12
b11110100011101100100010101010010 f
0>
b1 J
b10001011 X
1!
1C
#1920000
0!
0C
#1930000
0r
b10001011 ?
b10001011 G
b10001011 S
b10001011 [
b10001011 g
b10001011 Z
b10 J
02
b110 $"
b11101100100010101010010 #"
1!
1C
#1940000
0!
0C
#1950000
b10001010 A
b10001010 s
b11 J
1!
1C
#1960000
0!
0C
#1970000
b100 J
1!
1C
#1980000
0!
0C
#1990000
b101 J
1!
1C
#2000000
0!
0C
#2010000
b110 J
1!
1C
#2020000
0!
0C
#2030000
b111 J
1!
1C
#2040000
0!
0C
#2050000
b1000 J
1!
1C
#2060000
0!
0C
#2070000
b101000001011 K
b101000001011 N
b1011 I
1>
b0 J
1!
1C
#2080000
0!
0C
#2090000
b11010001 9
b11010001 e
b11010001 h
b1000000 d
b10 b
b0 ^
b11101100100 ]
1.
1_
b10 5
b10 a
b10 i
b0 4
b0 `
b11 ;
b11 c
1r
b1101100 X
0>
b1 J
b1110110010001010101001010001011 f
b111 j
b10001011 3
b10001011 l
b10001011 q
12
1!
1C
#2100000
0!
0C
#2110000
0r
b111 $"
b10001010101001010001011 #"
02
b10 J
b1101100 ?
b1101100 G
b1101100 S
b1101100 [
b1101100 g
b1101100 Z
1!
1C
#2120000
0!
0C
#2130000
b11 J
b1 +
b1 ~
b10100101 8
b10100101 v
1!
1C
#2140000
0!
0C
#2150000
b100 J
1!
1C
#2160000
0!
0C
#2170000
b101 J
1!
1C
#2180000
0!
0C
#2190000
b110 J
1!
1C
#2200000
0!
0C
#2210000
b111 J
1!
1C
#2220000
0!
0C
#2230000
b1000 J
1!
1C
#2240000
0!
0C
#2250000
b101000001100 K
b101000001100 N
b1100 I
1>
b0 J
1!
1C
#2260000
0!
0C
#2270000
b101101110 9
b101101110 e
b101101110 h
1r
b1110000 d
b1 b
b10 ^
b10001010101 ]
0.
b1 5
b1 a
b1 i
b10 4
b10 `
b0 ;
b0 c
b1000 j
b1101100 3
b1101100 l
b1101100 q
12
b1000101010100101000101101101100 f
0>
b1 J
b110101 X
1!
1C
#2280000
0!
0C
#2290000
0r
b110101 ?
b110101 G
b110101 S
b110101 [
b110101 g
b110101 Z
b10 J
02
b1000 $"
b10100101000101101101100 #"
1!
1C
#2300000
0!
0C
#2310000
b110011011 %
b110011011 &"
b11 J
1!
1C
#2320000
0!
0C
#2330000
b100 J
1!
1C
#2340000
0!
0C
#2350000
b101 J
1!
1C
#2360000
0!
0C
#2370000
b110 J
1!
1C
#2380000
0!
0C
#2390000
b111 J
1!
1C
#2400000
0!
0C
#2410000
b1000 J
1!
1C
#2420000
0!
0C
#2430000
b101000001101 K
b101000001101 N
b1101 I
1>
b0 J
1!
1C
#2440000
0!
0C
#2450000
b100000101 9
b100000101 e
b100000101 h
b1010000 d
1\
b11 ^
b10100101000 ]
1.
0_
b0 5
b0 a
b0 i
b11 4
b11 `
b1 ;
b1 c
1r
b10110010 X
0>
b1 J
b1010010100010110110110000110101 f
b1001 j
b110101 3
b110101 l
b110101 q
12
1!
1C
#2460000
0!
0C
#2470000
0r
b1001 $"
b100010110110110000110101 #"
02
b10 J
b10110010 ?
b10110010 G
b10110010 S
b10110010 [
b10110010 g
b10110010 Z
1!
1C
#2480000
0!
0C
#2490000
b11 J
b1100110011011 %
b1100110011011 &"
1!
1C
#2500000
0!
0C
#2510000
b100 J
1!
1C
#2520000
0!
0C
#2530000
b101 J
1!
1C
#2540000
0!
0C
#2550000
b110 J
1!
1C
#2560000
0!
0C
#2570000
b111 J
1!
1C
#2580000
0!
0C
#2590000
b1000 J
1!
1C
#2600000
0!
0C
#2610000
b101000001110 K
b101000001110 N
b1110 I
1>
b0 J
1!
1C
#2620000
0!
0C
#2630000
b10011100 9
b10011100 e
b10011100 h
1r
b110000 d
b10 b
b1 ^
b100010110110 ]
0.
b10 5
b10 a
b10 i
b10 ;
b10 c
b1010 j
b10110010 3
b10110010 l
b10110010 q
12
b10001011011011000011010110110010 f
0>
b1 J
b0 X
1!
1C
#2640000
0!
0C
#2650000
0r
b0 ?
b0 G
b0 S
b0 [
b0 g
b0 Z
b10 J
02
b1010 $"
b11011000011010110110010 #"
1!
1C
#2660000
0!
0C
#2670000
b1 =
b1 u
b11 ,
b11 }
b1011 -
b1011 |
b11 J
1!
1C
#2680000
0!
0C
#2690000
b100 J
1!
1C
#2700000
0!
0C
#2710000
b101 J
1!
1C
#2720000
0!
0C
#2730000
b110 J
1!
1C
#2740000
0!
0C
#2750000
b111 J
1!
1C
#2760000
0!
0C
#2770000
b1000 J
1!
1C
#2780000
0!
0C
#2790000
b101000001111 K
b101000001111 N
b1111 I
1>
b0 J
1!
1C
#2800000
0!
0C
#2810000
b1001110011 9
b1001110011 e
b1001110011 h
b11000000 d
0\
b0 ^
b11011000011 ]
1.
1_
b0 5
b0 a
b0 i
b0 4
b0 `
b0 ;
b0 c
1r
0>
b1 J
b1101100001101011011001000000000 f
b1011 j
b0 3
b0 l
b0 q
12
1!
1C
#2820000
0!
0C
#2830000
0r
b1011 $"
b1101011011001000000000 #"
02
b10 J
1!
1C
#2840000
0!
0C
#2850000
b11 J
1!
1C
#2860000
0!
0C
#2870000
b100 J
1!
1C
#2880000
0!
0C
#2890000
b101 J
1!
1C
#2900000
0!
0C
#2910000
b110 J
1!
1C
#2920000
0!
0C
#2930000
b111 J
1!
1C
#2940000
0!
0C
#2950000
b1000 J
1!
1C
#2960000
0!
0C
#2970000
b101000010000 K
b101000010000 N
b10000 I
1>
b0 J
1!
1C
#2980000
0!
0C
#2990000
b0 9
b0 e
b0 h
1r
b0 d
b1 b
b1101011011 ]
0.
0_
b1100 j
12
b110101101100100000000000000000 f
0>
b1 J
b1101 X
1!
1C
#3000000
0!
0C
#3010000
0r
b1101 ?
b1101 G
b1101 S
b1101 [
b1101 g
b1101 Z
b10 J
02
b1100 $"
b101100100000000000000000 #"
1!
1C
#3020000
0!
0C
#3030000
b11 J
1!
1C
#3040000
0!
0C
#3050000
b100 J
1!
1C
#3060000
0!
0C
#3070000
b101 J
1!
1C
#3080000
0!
0C
#3090000
b110 J
1!
1C
#3100000
0!
0C
#3110000
b111 J
1!
1C
#3120000
0!
0C
#3130000
b1000 J
1!
1C
#3140000
0!
0C
#3150000
b101000010001 K
b101000010001 N
b10001 I
1>
b0 J
1!
1C
#3160000
0!
0C
#3170000
b0 b
b101100100000 ]
b1 ;
b1 c
1r
b100000 X
0>
b1 J
b10110010000000000000000000001101 f
b1101 j
b1101 3
b1101 l
b1101 q
12
1!
1C
#3180000
0!
0C
#3190000
0r
b1101 $"
b1101 #"
02
b10 J
b100000 ?
b100000 G
b100000 S
b100000 [
b100000 g
b100000 Z
1!
1C
#3200000
0!
0C
#3210000
b11 J
1!
1C
#3220000
0!
0C
#3230000
b100 J
1!
1C
#3240000
0!
0C
#3250000
b101 J
1!
1C
#3260000
0!
0C
#3270000
b110 J
1!
1C
#3280000
0!
0C
#3290000
b111 J
1!
1C
#3300000
0!
0C
#3310000
b1000 J
1!
1C
#3320000
0!
0C
#3330000
b101000010010 K
b101000010010 N
b10010 I
1>
b0 J
1!
1C
#3340000
0!
0C
#3350000
1r
b11 ^
b0 ]
b10 4
b10 `
b0 ;
b0 c
b1110 j
b100000 3
b100000 l
b100000 q
12
b110100100000 f
0>
b1 J
b0 X
1!
1C
#3360000
0!
0C
#3370000
0r
b0 ?
b0 G
b0 S
b0 [
b0 g
b0 Z
b10 J
02
b1110 $"
b110100100000 #"
1!
1C
#3380000
0!
0C
#3390000
b1101001010100101 8
b1101001010100101 v
b11 J
1!
1C
#3400000
0!
0C
#3410000
b100 J
1!
1C
#3420000
0!
0C
#3430000
b101 J
1!
1C
#3440000
0!
0C
#3450000
b110 J
1!
1C
#3460000
0!
0C
#3470000
b111 J
1!
1C
#3480000
0!
0C
#3490000
b1000 J
1!
1C
#3500000
0!
0C
#3510000
b101000010011 K
b101000010011 N
b10011 I
1>
b0 J
1!
1C
#3520000
0!
0C
#3530000
b10000010 9
b10000010 e
b10000010 h
b101000 d
1\
b10 b
b0 ^
1.
b0 4
b0 `
1r
0>
b1 J
b11010010000000000000 f
b1111 j
b0 3
b0 l
b0 q
12
1!
1C
#3540000
0!
0C
#3550000
0r
b1111 $"
b11010010000000000000 #"
02
b10 J
1!
1C
#3560000
0!
0C
#3570000
b11 J
1!
1C
#3580000
0!
0C
#3590000
b100 J
1!
1C
#3600000
0!
0C
#3610000
b101 J
1!
1C
#3620000
0!
0C
#3630000
b110 J
1!
1C
#3640000
0!
0C
#3650000
b111 J
1!
1C
#3660000
0!
0C
#3670000
b1000 J
1!
1C
#3680000
0!
0C
#3690000
b101000010100 K
b101000010100 N
b10100 I
1>
b0 J
1!
1C
#3700000
0!
0C
#3710000
b0 9
b0 e
b0 h
1r
b0 d
0\
b0 b
b11010010 ]
0.
b10000 j
12
b1101001000000000000000000000 f
0>
b1 J
b1 X
1!
1C
#3720000
0!
0C
#3730000
0r
b1 ?
b1 G
b1 S
b1 [
b1 g
b1 Z
b10 J
02
b10000 $"
b1000000000000000000000 #"
1!
1C
#3740000
0!
0C
#3750000
b11 J
1!
1C
#3760000
0!
0C
#3770000
b100 J
1!
1C
#3780000
0!
0C
#3790000
b101 J
1!
1C
#3800000
0!
0C
#3810000
b110 J
1!
1C
#3820000
0!
0C
#3830000
b111 J
1!
1C
#3840000
0!
0C
#3850000
b1000 J
1!
1C
#3860000
0!
0C
#3870000
b101000010101 K
b101000010101 N
b10101 I
1>
b0 J
1!
1C
#3880000
0!
0C
#3890000
b1000000000 ]
b1 ;
b1 c
1r
b10101 X
0>
b1 J
b100000000000000000000000000001 f
b10001 j
b1 3
b1 l
b1 q
12
1!
1C
#3900000
0!
0C
#3910000
0r
b10001 $"
b1 #"
02
b10 J
b10101 ?
b10101 G
b10101 S
b10101 [
b10101 g
b10101 Z
1!
1C
#3920000
0!
0C
#3930000
b11 J
b10 0
b10 z
1!
1C
#3940000
0!
0C
#3950000
b100 J
1!
1C
#3960000
0!
0C
#3970000
b101 J
1!
1C
#3980000
0!
0C
#3990000
b110 J
1!
1C
#4000000
0!
0C
#4010000
b111 J
1!
1C
#4020000
0!
0C
#4030000
b1000 J
1!
1C
#4040000
0!
0C
#4050000
b101000010110 K
b101000010110 N
b10110 I
1>
b0 J
1!
1C
#4060000
0!
0C
#4070000
1r
b0 ]
b1 4
b1 `
b10010 j
b10101 3
b10101 l
b10101 q
12
b100010101 f
0>
b1 J
b10000001 X
1!
1C
#4080000
0!
0C
#4090000
0r
b10000001 ?
b10000001 G
b10000001 S
b10000001 [
b10000001 g
b10000001 Z
b10 J
02
b10010 $"
b100010101 #"
1!
1C
#4100000
0!
0C
#4110000
b11 J
1!
1C
#4120000
0!
0C
#4130000
b100 J
1!
1C
#4140000
0!
0C
#4150000
b101 J
1!
1C
#4160000
0!
0C
#4170000
b110 J
1!
1C
#4180000
0!
0C
#4190000
b111 J
1!
1C
#4200000
0!
0C
#4210000
b1000 J
1!
1C
#4220000
0!
0C
#4230000
b101000010111 K
b101000010111 N
b10111 I
1>
b0 J
1!
1C
#4240000
0!
0C
#4250000
b1101000 9
b1101000 e
b1101000 h
b100000 d
b1 ^
1.
b10 5
b10 a
b10 i
b0 4
b0 `
1r
b10100011 X
0>
b1 J
b10001010110000001 f
b10011 j
b10000001 3
b10000001 l
b10000001 q
12
1!
1C
#4260000
0!
0C
#4270000
0r
b10011 $"
b10001010110000001 #"
02
b10 J
b10100011 ?
b10100011 G
b10100011 S
b10100011 [
b10100011 g
b10100011 Z
1!
1C
#4280000
0!
0C
#4290000
b11 J
b10101100000000000000000010001110110 1
b10101100000000000000000010001110110 y
1!
1C
#4300000
0!
0C
#4310000
b100 J
1!
1C
#4320000
0!
0C
#4330000
b101 J
1!
1C
#4340000
0!
0C
#4350000
b110 J
1!
1C
#4360000
0!
0C
#4370000
b111 J
1!
1C
#4380000
0!
0C
#4390000
b1000 J
1!
1C
#4400000
0!
0C
#4410000
b101000011000 K
b101000011000 N
b11000 I
1>
b0 J
1!
1C
#4420000
0!
0C
#4430000
b101101101 9
b101101101 e
b101101101 h
1r
b1110000 d
b10 b
b0 ^
b10001 ]
b10 4
b10 `
b11 ;
b11 c
b10100 j
b10100011 3
b10100011 l
b10100011 q
12
b1000101011000000110100011 f
0>
b1 J
b1001001 X
1!
1C
#4440000
0!
0C
#4450000
0r
b1001001 ?
b1001001 G
b1001001 S
b1001001 [
b1001001 g
b1001001 Z
b10 J
02
b10100 $"
b101011000000110100011 #"
1!
1C
#4460000
0!
0C
#4470000
b11010001000000000010001010 A
b11010001000000000010001010 s
b11 J
1!
1C
#4480000
0!
0C
#4490000
b100 J
1!
1C
#4500000
0!
0C
#4510000
b101 J
1!
1C
#4520000
0!
0C
#4530000
b110 J
1!
1C
#4540000
0!
0C
#4550000
b111 J
1!
1C
#4560000
0!
0C
#4570000
b1000 J
1!
1C
#4580000
0!
0C
#4590000
b101000011001 K
b101000011001 N
b11001 I
1>
b0 J
1!
1C
#4600000
0!
0C
#4610000
b1000001011 9
b1000001011 e
b1000001011 h
b10100000 d
b0 b
b101011000 ]
1_
b1 5
b1 a
b1 i
b0 4
b0 `
b1 ;
b1 c
1r
b101101 X
0>
b1 J
b10101100000011010001101001001 f
b10101 j
b1001001 3
b1001001 l
b1001001 q
12
1!
1C
#4620000
0!
0C
#4630000
0r
b10101 $"
b100000011010001101001001 #"
02
b10 J
b101101 ?
b101101 G
b101101 S
b101101 [
b101101 g
b101101 Z
1!
1C
#4640000
0!
0C
#4650000
b11 J
b101001001101001010100101 8
b101001001101001010100101 v
1!
1C
#4660000
0!
0C
#4670000
b100 J
1!
1C
#4680000
0!
0C
#4690000
b101 J
1!
1C
#4700000
0!
0C
#4710000
b110 J
1!
1C
#4720000
0!
0C
#4730000
b111 J
1!
1C
#4740000
0!
0C
#4750000
b1000 J
1!
1C
#4760000
0!
0C
#4770000
b101000011010 K
b101000011010 N
b11010 I
1>
b0 J
1!
1C
