Alex/test_builds/parser_v2/sim/requantizer_v3.vcd
$date
	Fri Dec 09 18:11:26 2022
$end
$version
	Icarus Verilog
$end
$timescale
	1ps
$end
$scope module requantizer_tb $end
$var wire 1 ! dout_v $end
$var wire 32 " dout [31:0] $end
$var reg 9 # big_values [8:0] $end
$var reg 2 $ block_type [1:0] $end
$var reg 1 % clk $end
$var reg 1 & din_valid $end
$var reg 8 ' global_gain [7:0] $end
$var reg 10 ( is_pos [9:0] $end
$var reg 1 ) mixed_block_flag $end
$var reg 1 * preflag $end
$var reg 1 + rst $end
$var reg 84 , scalefac_l_in [83:0] $end
$var reg 144 - scalefac_s_in [143:0] $end
$var reg 1 . scalefac_scale $end
$var reg 9 / subblock_gain [8:0] $end
$var reg 1 0 window_switching_flag $end
$var reg 16 1 x_in [15:0] $end
$scope module shit $end
$var wire 9 2 big_values_in [8:0] $end
$var wire 2 3 block_type_in [1:0] $end
$var wire 1 % clk $end
$var wire 1 & din_v $end
$var wire 8 4 global_gain_in [7:0] $end
$var wire 10 5 is_pos [9:0] $end
$var wire 1 ) mixed_block_flag_in $end
$var wire 1 * preflag_in $end
$var wire 1 + rst $end
$var wire 84 6 scalefac_l_in [83:0] $end
$var wire 144 7 scalefac_s_in [143:0] $end
$var wire 1 . scalefac_scale_in $end
$var wire 9 8 subblock_gain_in [8:0] $end
$var wire 1 0 window_switching_flag_in $end
$var wire 16 9 x_in [15:0] $end
$var wire 4 : x_tab_base [3:0] $end
$var wire 16 ; x_pow_43 [15:0] $end
$var wire 16 < x_in_mask [15:0] $end
$var wire 16 = x_abs [15:0] $end
$var wire 10 > p43_table_input [9:0] $end
$var wire 10 ? count1 [9:0] $end
$var wire 4 @ c3_win [3:0] $end
$var wire 12 A c3_sfb [11:0] $end
$var wire 4 B c3_bt [3:0] $end
$var wire 4 C c2_win [3:0] $end
$var wire 12 D c2_sfb [11:0] $end
$var wire 4 E c2_bt [3:0] $end
$var wire 4 F c1_win [3:0] $end
$var wire 12 G c1_sfb [11:0] $end
$var wire 4 H c1_bt [3:0] $end
$var reg 27 I big_values_pipe [26:0] $end
$var reg 6 J block_type_pipe [5:0] $end
$var reg 2 K bt [1:0] $end
$var reg 3 L din_v_pipe [2:0] $end
$var reg 32 M dout [31:0] $end
$var reg 1 ! dout_v $end
$var reg 10 N exp1 [9:0] $end
$var reg 12 O exp2 [11:0] $end
$var reg 24 P global_gain_pipe [23:0] $end
$var reg 30 Q is_pos_pipe [29:0] $end
$var reg 3 R mixed_block_flag_pipe [2:0] $end
$var reg 3 S preflag_pipe [2:0] $end
$var reg 3 T pretab [2:0] $end
$var reg 32 U q2_30 [31:0] $end
$var reg 64 V q32_32 [63:0] $end
$var reg 64 W q4_60_part2 [63:0] $end
$var reg 252 X scalefac_l_pipe [251:0] $end
$var reg 432 Y scalefac_s_pipe [431:0] $end
$var reg 3 Z scalefac_scale_pipe [2:0] $end
$var reg 4 [ scalefac_sel [3:0] $end
$var reg 1 \ scalefac_shift $end
$var reg 12 ] sfb [11:0] $end
$var reg 27 ^ subblock_gain_pipe [26:0] $end
$var reg 3 _ target_subblock_gain [2:0] $end
$var reg 10 ` tmp [9:0] $end
$var reg 3 a win [2:0] $end
$var reg 3 b window_switching_flag_pipe [2:0] $end
$var reg 16 c x_16bit [15:0] $end
$var reg 10 d x_base [9:0] $end
$var reg 10 e x_base_abs [9:0] $end
$var reg 10 f x_base_mask [9:0] $end
$var reg 48 g x_in_pipe [47:0] $end
$var reg 12 h x_quant_base_signed [11:0] $end
$var reg 12 i x_quant_base_signed_mask [11:0] $end
$scope module POW43_TB $end
$var wire 10 j addra [9:0] $end
$var wire 1 % clka $end
$var wire 20 k dina [19:0] $end
$var wire 1 l ena $end
$var wire 1 m regcea $end
$var wire 1 + rsta $end
$var wire 1 n wea $end
$var wire 20 o douta [19:0] $end
$var parameter 152 p INIT_FILE $end
$var parameter 32 q RAM_DEPTH $end
$var parameter 128 r RAM_PERFORMANCE $end
$var parameter 32 s RAM_WIDTH $end
$var reg 20 t ram_data [19:0] $end
$scope function clogb2 $end
$var integer 32 u depth [31:0] $end
$upscope $end
$scope begin output_register $end
$var reg 20 v douta_reg [19:0] $end
$upscope $end
$scope begin use_init_file $end
$upscope $end
$upscope $end
$scope module TB_CASE_1 $end
$var wire 10 w addra [9:0] $end
$var wire 1 % clka $end
$var wire 20 x dina [19:0] $end
$var wire 1 y ena $end
$var wire 1 z regcea $end
$var wire 1 + rsta $end
$var wire 1 { wea $end
$var wire 20 | douta [19:0] $end
$var parameter 208 } INIT_FILE $end
$var parameter 32 ~ RAM_DEPTH $end
$var parameter 128 !" RAM_PERFORMANCE $end
$var parameter 32 "" RAM_WIDTH $end
$var reg 20 #" ram_data [19:0] $end
$scope function clogb2 $end
$var integer 32 $" depth [31:0] $end
$upscope $end
$scope begin output_register $end
$var reg 20 %" douta_reg [19:0] $end
$upscope $end
$scope begin use_init_file $end
$upscope $end
$upscope $end
$scope module TB_CASE_2 $end
$var wire 10 &" addra [9:0] $end
$var wire 1 % clka $end
$var wire 20 '" dina [19:0] $end
$var wire 1 (" ena $end
$var wire 1 )" regcea $end
$var wire 1 + rsta $end
$var wire 1 *" wea $end
$var wire 20 +" douta [19:0] $end
$var parameter 208 ," INIT_FILE $end
$var parameter 32 -" RAM_DEPTH $end
$var parameter 128 ." RAM_PERFORMANCE $end
$var parameter 32 /" RAM_WIDTH $end
$var reg 20 0" ram_data [19:0] $end
$scope function clogb2 $end
$var integer 32 1" depth [31:0] $end
$upscope $end
$scope begin output_register $end
$var reg 20 2" douta_reg [19:0] $end
$upscope $end
$scope begin use_init_file $end
$upscope $end
$upscope $end
$scope module TB_CASE_3 $end
$var wire 10 3" addra [9:0] $end
$var wire 1 % clka $end
$var wire 20 4" dina [19:0] $end
$var wire 1 5" ena $end
$var wire 1 6" regcea $end
$var wire 1 + rsta $end
$var wire 1 7" wea $end
$var wire 20 8" douta [19:0] $end
$var parameter 208 9" INIT_FILE $end
$var parameter 32 :" RAM_DEPTH $end
$var parameter 128 ;" RAM_PERFORMANCE $end
$var parameter 32 <" RAM_WIDTH $end
$var reg 20 =" ram_data [19:0] $end
$scope function clogb2 $end
$var integer 32 >" depth [31:0] $end
$upscope $end
$scope begin output_register $end
$var reg 20 ?" douta_reg [19:0] $end
$upscope $end
$scope begin use_init_file $end
$upscope $end
$upscope $end
$upscope $end
$upscope $end
$enddefinitions $end
$comment Show the parameter values. $end
$dumpall
b10100 <"
b1001000010010010100011101001000010111110101000001000101010100100100011001001111010100100100110101000001010011100100001101000101 ;"
b1001000000 :"
b110010001100001011101000110000100101111010001100101010101001100010011000101111101010111010010010100111001011111010100110100011001000010010111110101010001000010010111110011001100101110011011010110010101101101 9"
b10100 /"
b1001000010010010100011101001000010111110101000001000101010100100100011001001111010100100100110101000001010011100100001101000101 ."
b1001000000 -"
b110010001100001011101000110000100101111010001100101010101001100010011000101111101010111010010010100111001011111010100110100011001000010010111110101010001000010010111110011001000101110011011010110010101101101 ,"
b10100 ""
b1001000010010010100011101001000010111110101000001000101010100100100011001001111010100100100110101000001010011100100001101000101 !"
b1001000000 ~
b110010001100001011101000110000100101111010001100101010101001100010011000101111101010111010010010100111001011111010100110100011001000010010111110101010001000010010111110011000100101110011011010110010101101101 }
b10100 s
b1001000010010010100011101001000010111110101000001000101010100100100011001001111010100100100110101000001010011100100001101000101 r
b1111101000 q
b1100100011000010111010001100001001011110111000001101111011101110101111100110100001100110101111101110100011000010110001000101110011011010110010101101101 p
$end
#0
$dumpvars
b0 ?"
bx >"
b0 ="
b0 8"
07"
16"
15"
b0 4"
b0 3"
b0 2"
bx 1"
b0 0"
b0 +"
0*"
1)"
1("
b0 '"
b0 &"
b0 %"
bx $"
b0 #"
b0 |
0{
1z
1y
b0 x
b0 w
b0 v
bx u
b0 t
b0 o
0n
1m
1l
b0 k
b0 j
bx i
bx h
bx g
bx f
bx e
bx d
bx c
bx b
b0 a
b0xxxxxxxx `
bx _
bx ^
b0 ]
x\
bx [
bx Z
bx Y
bx X
bx W
bx V
bx U
b0 T
bx S
bx R
bx Q
bx P
bx O
bx N
bx M
bx L
bx0 K
bx J
bx I
b0 H
b0 G
b0 F
b0 E
b0 D
b0 C
b0 B
b0 A
b0 @
b110110010 ?
b0 >
b0 =
b0 <
b0 ;
b0 :
b0 9
b0 8
b0 7
b10000 6
b0 5
b10011111 4
b0 3
b11011001 2
b0 1
00
b0 /
0.
b0 -
b10000 ,
0+
0*
0)
b0 (
b10011111 '
0&
0%
b0 $
b11011001 #
bx "
x!
$end
#10000
b1 #"
b1 ="
b11100000000000000000 t
bx0000000000000000 g
bx0 L
bx0000000000 Q
bx000000000000000000000000000000000000000000000000000000000000000000000000000000000000000000000000000000000000000000000000000000000000000000000000 Y
bx000000000000000000000000000000000000000000000000000000000000000000000000000000010000 X
bx011011001 I
bx000000000 ^
bx0 S
bx10011111 P
bx0 Z
bx0 R
bx00 J
bx0 b
1%
#20000
0%
1+
#30000
b0 c
b0 O
b1100101110 N
b0 [
b0 K
b0 _
1\
0!
b0 g
b0 L
b0 Q
b0 Y
b0 X
b0 I
b0 ^
b0 S
b0 P
b0 Z
b0 R
b0 J
b0 b
1%
#40000
b111 >
b111 j
b111 =
0%
b111 1
b111 9
1&
0+
#50000
b1 K
b1 H
b1 B
b1110 :
b0 "
b0 M
b0 W
b0 U
b0 V
b1000010 `
b100001010 e
b1111111111 f
b1011110110 d
b0 i
b1011110110 h
b1 |
b1 %"
b1 8"
b1 ?"
b11100000000000000000 o
b11100000000000000000 v
b10100011010110001111 t
b111 g
b1 L
b10000 X
b11011001 I
b10011111 P
1%
#60000
b100 >
b100 j
b100 =
0%
b1 (
b1 5
b1 w
b1 &"
b1 3"
b100 1
b100 9
#70000
b111111101100010011011 "
b111111101100010011011 M
b111111101100010011011111111111100110010110000000000 W
b1101011000111100000000 U
b110101100011110000000000 V
b10110 `
b1011011 e
b11010110001111 c
b1110100101 d
b1110100101 h
b1111001101 N
1!
b11010110001111 ;
b1010 :
b11 L
b10000000000000000000000000000000000000000000000000000000000000000000000000000000000010000 X
b11011001011011001 I
b1001111110011111 P
b1110000000000000100 g
b1 Q
b10110011001011001011 t
b10100011010110001111 o
b10100011010110001111 v
1%
#80000
b100 =
b1111111111111111 <
0%
b10 (
b10 5
b10 w
b10 &"
b10 3"
b1111111111111100 1
b1111111111111100 9
#90000
b11110001100111010000 "
b11110001100111010000 M
b11110001100111010000101001011001011110111000000000 W
b110010110010110000000 U
b11001011001011000000000 V
b10111 `
b1011111 e
b11001011001011 c
b1110100001 d
b1110100001 h
b11001011001011 ;
b1011 :
b10110011001011001011 o
b10110011001011001011 v
b1001111111111111100 g
b10000000010 Q
1%
#100000
b100000 >
b100000 j
b100000 =
b0 <
0%
b11 (
b11 5
b11 w
b11 &"
b11 3"
b100000 1
b100000 9
#110000
b11111111111100001110011000101111 "
b11111111111100001110011000101111 M
b1111111111111100001110011000101111010110100110100001001000000000 W
b11111111111001101001101010000000 U
b1111111111111111111111111111111111111111100110100110101000000000 V
b1100110100110101 c
b11111111111111000000000000100000 g
b100000000011 Q
b1110011001011001011 t
1%
#120000
b1001 >
b1001 j
b1001 =
b1111111111111111 <
0%
b100 (
b100 5
b100 w
b100 &"
b100 3"
b1111111111110111 1
b1111111111110111 9
#130000
b10011 `
b1001111 e
b1110110001 d
b1110110001 h
b111 :
b111100011001110100001010 "
b111100011001110100001010 M
b111100011001110100001010010110010111101110000000000000 W
b1100101100101100000000000 U
b110010110010110000000000000 V
b11001011001011 c
b100000001 #"
b10000 0"
b100000001 ="
b1110011001011001011 o
b1110011001011001011 v
b10010010010101110001 t
b1000001111111111110111 g
b110000000100 Q
1%
#140000
0%
0&
#150000
b11111111111000001000010000000010 "
b11111111111000001000010000000010 M
b1111111111111000001000010000000010000000111000001110111000000000 W
b11111111110110101000111100000000 U
b1111111111111111111111111111111111111111011010100011110000000000 V
b10110 `
b1011001 e
b1101101010001111 c
b1110100111 d
b1110100111 h
b10 O
b1 [
b1 ]
b10010101110001 ;
b1001 :
b1 A
b1 C
b1 G
b11111111111101111111111111110111 g
b1000000000100 Q
b10 L
b10010010010101110001 o
b10010010010101110001 v
b100000001 8"
b100000001 ?"
b10000 +"
b10000 2"
b100000001 |
b100000001 %"
1%
#160000
0%
#170000
0!
b0 L
1%
#180000
0%
#190000
1%
#200000
0%
#210000
1%
#220000
0%
#230000
1%
#240000
0%
#250000
1%
#260000
0%
#270000
1%
#280000
0%
#290000
1%
#300000
0%
#310000
1%
#320000
0%
#330000
1%
#340000
b11101 >
b11101 j
b11101 =
b0 <
b110011000 ?
0%
b0 (
b0 5
b0 w
b0 &"
b0 3"
b11101 1
b11101 9
1&
b1101000011000000010000000000000000000000000001000000000000000000010010000000000000 ,
b1101000011000000010000000000000000000000000001000000000000000000010010000000000000 6
b11001100 #
b11001100 2
b10100001 '
b10100001 4
#350000
b11111111111101110000000000011101 g
b1 L
b1000000000000 Q
b10000001101000011000000010000000000000000000000000001000000000000000000010010000000000000 X
b11011001011001100 I
b1001111110100001 P
b1110010110010001100 t
b1 ="
b0 0"
b1 #"
1%
#360000
b11111 >
b11111 j
b11111 =
b1111111111111111 <
0%
b1 (
b1 5
b1 w
b1 &"
b1 3"
b1111111111100001 1
b1111111111100001 9
#370000
b0 ]
b0 G
b0 C
b0 A
b10110010001100 ;
b111 :
b1001010111010110010101001 "
b1001010111010110010101001 M
b1001010111010110010101001011001001110101100000000000000 W
b1011001000110000000000000 U
b101100100011000000000000000 V
b10011 `
b1001101 e
b10110010001100 c
b1110110011 d
b1110110011 h
b0 O
b1111001111 N
b0 [
1!
b1 |
b1 %"
b0 +"
b0 2"
b1 8"
b1 ?"
b1110010110010001100 o
b1110010110010001100 v
b1110011000010110000 t
b11 L
b1101000011000000010000000000000000000000000001000000000000000000010010000000000000001101000011000000010000000000000000000000000001000000000000000000010010000000000000 X
b11001100011001100 I
b1010000110100001 P
b111011111111111100001 g
b1 Q
1%
#380000
b1110 >
b1110 j
b1110 =
0%
b10 (
b10 5
b10 w
b10 &"
b10 3"
b1111111111110010 1
b1111111111110010 9
#390000
b11111110101110000111100010001001 "
b11111110101110000111100010001001 M
b1111111110101110000111100010001001011001011011010000000000000000 W
b11111110011110101000000000000000 U
b1111111111111111111111111111111111111001111010100000000000000000 V
b1100111101010000 c
b11000010110000 ;
b11111111111000011111111111110010 g
b10000000010 Q
b10000010000110111101 t
b1110011000010110000 o
b1110011000010110000 v
1%
#400000
b11010 >
b11010 j
b11010 =
b0 <
0%
b11 (
b11 5
b11 w
b11 &"
b11 3"
b11010 1
b11010 9
#410000
b11111111100011101000010010110101 "
b11111111100011101000010010110101 M
b1111111111100011101000010010110101111011100110000101100000000000 W
b11111111011110010000110000000000 U
b1111111111111111111111111111111111111101111001000011000000000000 V
b10100 `
b1010001 e
b1101111001000011 c
b1110101111 d
b1110101111 h
b10000110111101 ;
b1000 :
b10000010000110111101 o
b10000010000110111101 v
b1110010011010000011 t
b11111111111100100000000000011010 g
b100000000011 Q
1%
#420000
b1 >
b1 j
b1 =
0%
b100 (
b100 5
b100 w
b100 &"
b100 3"
b1 1
b1 9
#430000
b1000000110001001100101110 "
b1000000110001001100101110 M
b1000000110001001100101110100110000101001011000000000000 W
b1001101000001100000000000 U
b100110100000110000000000000 V
b10011 `
b1001101 e
b10011010000011 c
b1110110011 d
b1110110011 h
b10011010000011 ;
b111 :
b110100000000000000001 g
b110000000100 Q
b11100100000000000000 t
b1110010011010000011 o
b1110010011010000011 v
b100000001 ="
b10000 0"
b100000001 #"
1%
#440000
b101 >
b101 j
b101 =
0%
b101 (
b101 5
b101 w
b101 &"
b101 3"
b101 1
b101 9
#450000
b110101110100010011 "
b110101110100010011 M
b110101110100010011111100110010000000000000000000 W
b1000000000000000000 U
b100000000000000000000 V
b11010 `
b1101001 e
b100000000000000 c
b1110010111 d
b1110010111 h
b1 ]
b1 G
b1 C
b1 A
b100000000000000 ;
b1110 :
b100000001 |
b100000001 %"
b10000 +"
b10000 2"
b100000001 8"
b100000001 ?"
b11100100000000000000 o
b11100100000000000000 v
b10100010001000110011 t
b10000000000000101 g
b1000000000101 Q
1%
#460000
0%
0&
#470000
b111001100001000001100 "
b111001100001000001100 M
b111001100001000001100010100001110101111011000000000 W
b1000100011001100000000 U
b100010001100110000000000 V
b10110 `
b1011001 e
b10001000110011 c
b1110100111 d
b1110100111 h
b10001000110011 ;
b1010 :
b1010000000000000101 g
b1010000000101 Q
b10 L
b10100010001000110011 o
b10100010001000110011 v
1%
#480000
0%
#490000
0!
b0 L
1%
