Alex/test_builds/parser_v2/sim/side_info_sim.vcd
$date
	Sun Dec 04 01:13:59 2022
$end
$version
	Icarus Verilog
$end
$timescale
	1ps
$end
$scope module integration_tb $end
$var wire 1 ! clk_100mhz $end
$var wire 1 " sys_rst $end
$var wire 4 # window_switching_flag [3:0] $end
$var wire 1 $ valid_header $end
$var wire 60 % table_select [59:0] $end
$var wire 36 & subblock_gain [35:0] $end
$var wire 1 ' side_info_flag $end
$var wire 1 ( side_info_axiov $end
$var wire 8 ) scfsi [7:0] $end
$var wire 4 * scalefac_scale [3:0] $end
$var wire 16 + scalefac_compress [15:0] $end
$var wire 16 , region1_count [15:0] $end
$var wire 16 - region0_count [15:0] $end
$var wire 1 . prot $end
$var wire 3 / private_bits [2:0] $end
$var wire 4 0 preflag [3:0] $end
$var wire 48 1 part2_3_length [47:0] $end
$var wire 2 2 mode_ext [1:0] $end
$var wire 2 3 mode [1:0] $end
$var wire 4 4 mixed_block_flag [3:0] $end
$var wire 9 5 main_data_begin [8:0] $end
$var wire 32 6 global_gain [31:0] $end
$var wire 11 7 frame_size [10:0] $end
$var wire 1 8 fifo_buffer_flag $end
$var wire 2 9 emphasis [1:0] $end
$var wire 1 : crc_16_flag $end
$var wire 4 ; count1table_select [3:0] $end
$var wire 1 < bram_axiov $end
$var wire 8 = bram_axiod [7:0] $end
$var wire 8 > block_type [7:0] $end
$var wire 36 ? big_values [35:0] $end
$var reg 1 @ btnu $end
$var reg 1 A clk $end
$var reg 1 B rst $end
$var reg 7 C sw [6:0] $end
$scope module data_out $end
$var wire 1 ! clk $end
$var wire 7 D frame_num_id [6:0] $end
$var wire 1 @ frame_num_iv $end
$var wire 1 " rst $end
$var wire 8 E axiod [7:0] $end
$var parameter 32 F delay $end
$var reg 1 < axiov $end
$var reg 9 G byte_counter [8:0] $end
$var reg 5 H delay_counter [4:0] $end
$var reg 16 I frame_addr [15:0] $end
$var reg 16 J frame_num_saved [15:0] $end
$var reg 1 K reading_status $end
$scope module image_BROM $end
$var wire 16 L addra [15:0] $end
$var wire 1 ! clka $end
$var wire 8 M dina [7:0] $end
$var wire 1 N ena $end
$var wire 1 O regcea $end
$var wire 1 " rsta $end
$var wire 1 P wea $end
$var wire 8 Q douta [7:0] $end
$var parameter 136 R INIT_FILE $end
$var parameter 32 S RAM_DEPTH $end
$var parameter 128 T RAM_PERFORMANCE $end
$var parameter 32 U RAM_WIDTH $end
$var reg 8 V ram_data [7:0] $end
$scope function clogb2 $end
$var integer 32 W depth [31:0] $end
$upscope $end
$scope begin output_register $end
$var reg 8 X douta_reg [7:0] $end
$upscope $end
$scope begin use_init_file $end
$upscope $end
$upscope $end
$upscope $end
$scope module light $end
$var wire 8 Y axiid [7:0] $end
$var wire 1 < axiiv $end
$var wire 1 ! clk $end
$var wire 1 " rst $end
$var wire 1 Z version $end
$var wire 12 [ sync [11:0] $end
$var wire 16 \ samp_rate [15:0] $end
$var wire 1 . prot $end
$var wire 1 ] padding $end
$var wire 2 ^ mode_ext [1:0] $end
$var wire 2 _ mode [1:0] $end
$var wire 2 ` layer [1:0] $end
$var wire 2 a emphasis [1:0] $end
$var reg 9 b bitrate [8:0] $end
$var reg 11 c frame_size [10:0] $end
$var reg 32 d header [31:0] $end
$var reg 1 $ valid_header $end
$upscope $end
$scope module mux $end
$var wire 8 e axiid [7:0] $end
$var wire 1 < axiiv $end
$var wire 1 ! clk $end
$var wire 11 f frame_size [10:0] $end
$var wire 2 g mode [1:0] $end
$var wire 1 . prot $end
$var wire 1 " rst $end
$var wire 1 $ valid_header $end
$var wire 1 ' side_info_ov $end
$var wire 1 8 fifo_buffer_ov $end
$var wire 1 : crc_16_ov $end
$var reg 12 h byte_counter [11:0] $end
$var reg 2 i crc_length [1:0] $end
$var reg 11 j frame_size_saved [10:0] $end
$var reg 3 k output_codeword [2:0] $end
$var reg 6 l side_info_length [5:0] $end
$var reg 1 m status $end
$upscope $end
$scope module si_parser $end
$var wire 8 n axiid [7:0] $end
$var wire 1 ' axiiv $end
$var wire 1 ! clk $end
$var wire 1 " rst $end
$var reg 1 ( axiov $end
$var reg 36 o big_values [35:0] $end
$var reg 8 p block_type [7:0] $end
$var reg 4 q count1table_select [3:0] $end
$var reg 32 r global_gain [31:0] $end
$var reg 9 s main_data_begin [8:0] $end
$var reg 4 t mixed_block_flag [3:0] $end
$var reg 48 u part2_3_length [47:0] $end
$var reg 4 v preflag [3:0] $end
$var reg 3 w private_bits [2:0] $end
$var reg 16 x region0_count [15:0] $end
$var reg 16 y region1_count [15:0] $end
$var reg 16 z scalefac_compress [15:0] $end
$var reg 4 { scalefac_scale [3:0] $end
$var reg 8 | scfsi [7:0] $end
$var reg 24 } side_info_buffer [23:0] $end
$var reg 6 ~ side_info_byte_counter [5:0] $end
$var reg 36 !" subblock_gain [35:0] $end
$var reg 60 "" table_select [59:0] $end
$var reg 4 #" window_switching_flag [3:0] $end
$upscope $end
$upscope $end
$enddefinitions $end
$comment Show the parameter values. $end
$dumpall
b1000 U
b1001000010010010100011101001000010111110101000001000101010100100100011001001111010100100100110101000001010011100100001101000101 T
b1111101000000000 S
b110010001100001011101000110000100101111011011010111000000110011010111110111001101101111011011100110011100101110011011010110010101101101 R
b10010 F
$end
#0
$dumpvars
bx #"
bx ""
bx !"
bx ~
bx }
bx |
bx {
bx z
bx y
bx x
bx w
bx v
bx u
bx t
bx s
bx r
bx q
bx p
bx o
b0 n
xm
bx l
bx k
bx j
bx i
bx h
bx g
b0 f
b0 e
bx d
b0 c
b0 b
bx a
bx `
bx _
bx ^
x]
b0xx \
bx [
xZ
b0 Y
b0 X
bx W
b0 V
b0 Q
0P
1O
1N
b0 M
bx L
xK
bx J
bx I
bx H
bx G
b0 E
b0 D
b0 C
0B
0A
0@
bx ?
bx >
b0 =
x<
bx ;
x:
bx 9
x8
b0 7
bx 6
bx 5
bx 4
bx 3
bx 2
bx 1
bx 0
bx /
x.
bx -
bx ,
bx +
bx *
bx )
x(
x'
bx &
bx %
0$
bx #
0"
0!
$end
#10000
0:
0'
08
bx V
0<
b0 k
0(
1!
1A
#20000
0!
0A
#30000
bx =
bx E
bx Q
bx Y
bx e
bx n
bx X
1!
1A
#40000
0!
0A
1"
1B
#50000
0Z
b0 `
b0 \
b0 [
0.
0]
b0 3
b0 _
b0 g
b0 2
b0 ^
b0 9
b0 a
b0 =
b0 E
b0 Q
b0 Y
b0 e
b0 n
b0 X
b0 H
0K
b0 G
b0 d
0m
b0 h
b0 ~
b0 }
b0 ;
b0 q
b0 *
b0 {
b0 0
b0 v
b0 ,
b0 y
b0 -
b0 x
b0 &
b0 !"
b0 %
b0 ""
b0 4
b0 t
b0 >
b0 p
b0 #
b0 #"
b0 +
b0 z
b0 6
b0 r
b0 ?
b0 o
b0 1
b0 u
b0 )
b0 |
b0 /
b0 w
b0 5
b0 s
1!
1A
#60000
0!
0A
0"
0B
#70000
bx =
bx E
bx Q
bx Y
bx e
bx n
bx X
1!
1A
#80000
0!
0A
1@
b101 C
b101 D
#90000
b101000000000 I
b101000000000 L
b101 J
1K
1!
1A
#100000
0!
0A
0@
#110000
b1 H
b11111111 V
1!
1A
#120000
0!
0A
#130000
b11111111 =
b11111111 E
b11111111 Q
b11111111 Y
b11111111 e
b11111111 n
b11111111 X
b10 H
1!
1A
#140000
0!
0A
#150000
b11 H
1!
1A
#160000
0!
0A
#170000
b100 H
1!
1A
#180000
0!
0A
#190000
b101 H
1!
1A
#200000
0!
0A
#210000
b110 H
1!
1A
#220000
0!
0A
#230000
b111 H
1!
1A
#240000
0!
0A
#250000
b1000 H
1!
1A
#260000
0!
0A
#270000
b1001 H
1!
1A
#280000
0!
0A
#290000
b1010 H
1!
1A
#300000
0!
0A
#310000
b1011 H
1!
1A
#320000
0!
0A
#330000
b1100 H
1!
1A
#340000
0!
0A
#350000
b1101 H
1!
1A
#360000
0!
0A
#370000
b1110 H
1!
1A
#380000
0!
0A
#390000
b1111 H
1!
1A
#400000
0!
0A
#410000
b10000 H
1!
1A
#420000
0!
0A
#430000
b10001 H
1!
1A
#440000
0!
0A
#450000
b10010 H
1!
1A
#460000
0!
0A
#470000
b101000000001 I
b101000000001 L
b1 G
1<
b0 H
1!
1A
#480000
0!
0A
#490000
b11 3
b11 _
b11 g
b11 2
b11 ^
b11 9
b11 a
b11111011 V
0<
b1 H
b11111111 d
1!
1A
#500000
0!
0A
#510000
b10 H
b11111011 =
b11111011 E
b11111011 Q
b11111011 Y
b11111011 e
b11111011 n
b11111011 X
1!
1A
#520000
0!
0A
#530000
b11 H
1!
1A
#540000
0!
0A
#550000
b100 H
1!
1A
#560000
0!
0A
#570000
b101 H
1!
1A
#580000
0!
0A
#590000
b110 H
1!
1A
#600000
0!
0A
#610000
b111 H
1!
1A
#620000
0!
0A
#630000
b1000 H
1!
1A
#640000
0!
0A
#650000
b1001 H
1!
1A
#660000
0!
0A
#670000
b1010 H
1!
1A
#680000
0!
0A
#690000
b1011 H
1!
1A
#700000
0!
0A
#710000
b1100 H
1!
1A
#720000
0!
0A
#730000
b1101 H
1!
1A
#740000
0!
0A
#750000
b1110 H
1!
1A
#760000
0!
0A
#770000
b1111 H
1!
1A
#780000
0!
0A
#790000
b10000 H
1!
1A
#800000
0!
0A
#810000
b10001 H
1!
1A
#820000
0!
0A
#830000
b10010 H
1!
1A
#840000
0!
0A
#850000
b101000000010 I
b101000000010 L
b10 G
1<
b0 H
1!
1A
#860000
0!
0A
#870000
b11 \
1]
b1111111111111011 d
0<
b1 H
b10010010 V
1!
1A
#880000
0!
0A
#890000
b10010010 =
b10010010 E
b10010010 Q
b10010010 Y
b10010010 e
b10010010 n
b10010010 X
b10 H
1!
1A
#900000
0!
0A
#910000
b11 H
1!
1A
#920000
0!
0A
#930000
b100 H
1!
1A
#940000
0!
0A
#950000
b101 H
1!
1A
#960000
0!
0A
#970000
b110 H
1!
1A
#980000
0!
0A
#990000
b111 H
1!
1A
#1000000
0!
0A
#1010000
b1000 H
1!
1A
#1020000
0!
0A
#1030000
b1001 H
1!
1A
#1040000
0!
0A
#1050000
b1010 H
1!
1A
#1060000
0!
0A
#1070000
b1011 H
1!
1A
#1080000
0!
0A
#1090000
b1100 H
1!
1A
#1100000
0!
0A
#1110000
b1101 H
1!
1A
#1120000
0!
0A
#1130000
b1110 H
1!
1A
#1140000
0!
0A
#1150000
b1111 H
1!
1A
#1160000
0!
0A
#1170000
b10000 H
1!
1A
#1180000
0!
0A
#1190000
b10001 H
1!
1A
#1200000
0!
0A
#1210000
b10010 H
1!
1A
#1220000
0!
0A
#1230000
b101000000011 I
b101000000011 L
b11 G
1<
b0 H
1!
1A
#1240000
0!
0A
#1250000
1Z
b11 `
b10 \
b1111 [
1.
b10 3
b10 _
b10 g
b1 2
b1 ^
b10 9
b10 a
b1100100 V
0<
b1 H
b111111111111101110010010 d
1!
1A
#1260000
0!
0A
#1270000
b10 H
b1100100 =
b1100100 E
b1100100 Q
b1100100 Y
b1100100 e
b1100100 n
b1100100 X
1!
1A
#1280000
0!
0A
#1290000
b11 H
1!
1A
#1300000
0!
0A
#1310000
b100 H
1!
1A
#1320000
0!
0A
#1330000
b101 H
1!
1A
#1340000
0!
0A
#1350000
b110 H
1!
1A
#1360000
0!
0A
#1370000
b111 H
1!
1A
#1380000
0!
0A
#1390000
b1000 H
1!
1A
#1400000
0!
0A
#1410000
b1001 H
1!
1A
#1420000
0!
0A
#1430000
b1010 H
1!
1A
#1440000
0!
0A
#1450000
b1011 H
1!
1A
#1460000
0!
0A
#1470000
b1100 H
1!
1A
#1480000
0!
0A
#1490000
b1101 H
1!
1A
#1500000
0!
0A
#1510000
b1110 H
1!
1A
#1520000
0!
0A
#1530000
b1111 H
1!
1A
#1540000
0!
0A
#1550000
b10000 H
1!
1A
#1560000
0!
0A
#1570000
b10001 H
1!
1A
#1580000
0!
0A
#1590000
b10010 H
1!
1A
#1600000
0!
0A
#1610000
b101000000100 I
b101000000100 L
b100 G
1<
b0 H
1!
1A
#1620000
0!
0A
#1630000
b110100010 7
b110100010 c
b110100010 f
1$
b10000000 b
b1 `
b0 \
b111111111111 [
b1 3
b1 _
b1 g
b10 2
b10 ^
b0 9
b0 a
b11111111111110111001001001100100 d
0<
b1 H
b11011110 V
1!
1A
#1640000
0!
0A
#1650000
b11011110 =
b11011110 E
b11011110 Q
b11011110 Y
b11011110 e
b11011110 n
b11011110 X
b10 H
1m
b110100010 j
b100000 l
b0 i
1!
1A
#1660000
0!
0A
#1670000
b11 H
1!
1A
#1680000
0!
0A
#1690000
b100 H
1!
1A
#1700000
0!
0A
#1710000
b101 H
1!
1A
#1720000
0!
0A
#1730000
b110 H
1!
1A
#1740000
0!
0A
#1750000
b111 H
1!
1A
#1760000
0!
0A
#1770000
b1000 H
1!
1A
#1780000
0!
0A
#1790000
b1001 H
1!
1A
#1800000
0!
0A
#1810000
b1010 H
1!
1A
#1820000
0!
0A
#1830000
b1011 H
1!
1A
#1840000
0!
0A
#1850000
b1100 H
1!
1A
#1860000
0!
0A
#1870000
b1101 H
1!
1A
#1880000
0!
0A
#1890000
b1110 H
1!
1A
#1900000
0!
0A
#1910000
b1111 H
1!
1A
#1920000
0!
0A
#1930000
b10000 H
1!
1A
#1940000
0!
0A
#1950000
b10001 H
1!
1A
#1960000
0!
0A
#1970000
b10010 H
1!
1A
#1980000
0!
0A
#1990000
b101000000101 I
b101000000101 L
b101 G
1<
b0 H
1!
1A
#2000000
0!
0A
#2010000
0$
b100000101 7
b100000101 c
b100000101 f
b1010000 b
0Z
b1 \
b111110111001 [
0.
0]
b11 3
b11 _
b11 g
b1 2
b1 ^
b10 9
b10 a
1'
b10 V
0<
b1 H
b11111011100100100110010011011110 d
b10 k
b1 h
1!
1A
#2020000
0!
0A
#2030000
b1 ~
b11011110 }
b10 H
b10 =
b10 E
b10 Q
b10 Y
b10 e
b10 n
b10 X
1!
1A
#2040000
0!
0A
#2050000
b11 H
b10 ~
b1101111000000010 }
1!
1A
#2060000
0!
0A
#2070000
b100 )
b100 |
b110111100 5
b110111100 s
b11 ~
b110111100000001000000010 }
b100 H
1!
1A
#2080000
0!
0A
#2090000
b101 H
b100 ~
b100000001000000010 }
1!
1A
#2100000
0!
0A
#2110000
b1000000010 1
b1000000010 u
b101 ~
b110 H
1!
1A
#2120000
0!
0A
#2130000
b111 H
b110 ~
1!
1A
#2140000
0!
0A
#2150000
b100 ?
b100 o
b111 ~
b1000 H
1!
1A
#2160000
0!
0A
#2170000
b1001 H
b1000 ~
b100 6
b100 r
1!
1A
#2180000
0!
0A
#2190000
b1010000 %
b1010000 ""
b1001 ~
b1010 H
1!
1A
#2200000
0!
0A
#2210000
b1011 H
b1010 ~
1!
1A
#2220000
0!
0A
#2230000
b1 ;
b1 q
b100 -
b100 x
b1011 ~
b1100 H
1!
1A
#2240000
0!
0A
#2250000
b1101 H
b1100 ~
1!
1A
#2260000
0!
0A
#2270000
b10000001000000010 1
b10000001000000010 u
b1101 ~
b1110 H
1!
1A
#2280000
0!
0A
#2290000
b1111 H
b1110 ~
b100000000000100 ?
b100000000000100 o
1!
1A
#2300000
0!
0A
#2310000
b100000 +
b100000 z
b10000000000100 6
b10000000000100 r
b1111 ~
b10000 H
1!
1A
#2320000
0!
0A
#2330000
b10001 H
b10000 ~
1!
1A
#2340000
0!
0A
#2350000
b101000000000000000001010000 %
b101000000000000000001010000 ""
b10001 ~
b10010 H
1!
1A
#2360000
0!
0A
#2370000
b101000000110 I
b101000000110 L
b110 G
1<
b0 H
b10010 ~
b10000 ,
b10000 y
1!
1A
#2380000
0!
0A
#2390000
b1101000100 7
b1101000100 c
b1101000100 f
b100000000 b
b10 `
b11 \
b100100100110 [
1]
b0 3
b0 _
b0 g
b0 2
b0 ^
b10011 ~
b10 h
b10010010011001001101111000000010 d
0<
b1 H
b11110100 V
1!
1A
#2400000
0!
0A
#2410000
b11110100 =
b11110100 E
b11110100 Q
b11110100 Y
b11110100 e
b11110100 n
b11110100 X
b10 H
b10100 ~
b10000000000000010000001000000010 1
b10000000000000010000001000000010 u
1!
1A
#2420000
0!
0A
#2430000
b100000001000100000000000100 ?
b100000001000100000000000100 o
b10101 ~
b100000001011110100 }
b11 H
1!
1A
#2440000
0!
0A
#2450000
b100 H
b10110 ~
b101111010011110100 }
b11110100010000000000100 6
b11110100010000000000100 r
1!
1A
#2460000
0!
0A
#2470000
b100 #
b100 #"
b11100100000 +
b11100100000 z
b10111 ~
b111101001111010011110100 }
b101 H
1!
1A
#2480000
0!
0A
#2490000
b110 H
b11000 ~
b1111000101000000000000000001010000 %
b1111000101000000000000000001010000 ""
b10000 >
b10000 p
1!
1A
#2500000
0!
0A
#2510000
b10111000000000000000000 &
b10111000000000000000000 !"
b100101111000101000000000000000001010000 %
b100101111000101000000000000000001010000 ""
b11001 ~
b111 H
1!
1A
#2520000
0!
0A
#2530000
b1000 H
b11010 ~
b100 *
b100 {
b100 0
b100 v
b110100010000 ,
b110100010000 y
b11100000100 -
b11100000100 x
b11010111000000000000000000 &
b11010111000000000000000000 !"
1!
1A
#2540000
0!
0A
#2550000
b11011 ~
b1001 H
1!
1A
#2560000
0!
0A
#2570000
b1010 H
b11100 ~
b100111101001000010000000000000010000001000000010 1
b100111101001000010000000000000010000001000000010 u
1!
1A
#2580000
0!
0A
#2590000
b111010011100000001000100000000000100 ?
b111010011100000001000100000000000100 o
b11101 ~
b1011 H
1!
1A
#2600000
0!
0A
#2610000
b1100 H
b11110 ~
b1101011100100000 +
b1101011100100000 z
b11010011011110100010000000000100 6
b11010011011110100010000000000100 r
1!
1A
#2620000
0!
0A
#2630000
b1111000000100101111000101000000000000000001010000 %
b1111000000100101111000101000000000000000001010000 ""
b11111 ~
b1101 H
1!
1A
#2640000
0!
0A
#2650000
b1110 H
b100000 ~
b111010100101111000000100101111000101000000000000000001010000 %
b111010100101111000000100101111000101000000000000000001010000 ""
1!
1A
#2660000
0!
0A
#2670000
b1100 0
b1100 v
b110110100010000 ,
b110110100010000 y
b11011100000100 -
b11011100000100 x
b1 ~
b1111 H
1!
1A
#2680000
0!
0A
#2690000
b10000 H
b10 ~
1!
1A
#2700000
0!
0A
#2710000
b10 )
b10 |
b111 /
b111 w
b111101001 5
b111101001 s
b11 ~
b10001 H
1!
1A
#2720000
0!
0A
#2730000
b10010 H
b100 ~
b11110010 )
b11110010 |
1!
1A
#2740000
0!
0A
#2750000
b101000000111 I
b101000000111 L
b100111101001000010000000000000010000010011110100 1
b100111101001000010000000000000010000010011110100 u
b101 ~
b111 G
1<
b0 H
1!
1A
#2760000
0!
0A
#2770000
b0 7
b0 c
b0 f
b0 b
1Z
b11 `
b0 \
b11001001101 [
b11 3
b11 _
b11 g
b11 2
b11 ^
b0 9
b0 a
b1110110 V
0<
b1 H
b1100100110111100000001011110100 d
b11 h
b110 ~
1!
1A
#2780000
0!
0A
#2790000
b111010011100000001000100000111101001 ?
b111010011100000001000100000111101001 o
b111 ~
b10 H
b1110110 =
b1110110 E
b1110110 Q
b1110110 Y
b1110110 e
b1110110 n
b1110110 X
1!
1A
#2800000
0!
0A
#2810000
b11 H
b1000 ~
b111101001111010001110110 }
b101 #
b101 #"
b1101011100101110 +
b1101011100101110 z
b11010011011110100010000011101001 6
b11010011011110100010000011101001 r
1!
1A
#2820000
0!
0A
#2830000
b111010100101111000000100101111000101000000000000000001011101 %
b111010100101111000000100101111000101000000000000000001011101 ""
b1001 ~
b111101000111011001110110 }
b100 H
1!
1A
#2840000
0!
0A
#2850000
b101 H
b1010 ~
b11101100111011001110110 }
b11010111000000000000000101 &
b11010111000000000000000101 !"
b111010100101111000000100101111000101000000000000001001111101 %
b111010100101111000000100101111000101000000000000001001111101 ""
1!
1A
#2860000
0!
0A
#2870000
b101 *
b101 {
b110110100011101 ,
b110110100011101 y
b11011100000111 -
b11011100000111 x
b11010111000000000111100101 &
b11010111000000000111100101 !"
b1011 ~
b110 H
1!
1A
#2880000
0!
0A
#2890000
b111 H
b1100 ~
1!
1A
#2900000
0!
0A
#2910000
b100111101001000010000000001110110011010011110100 1
b100111101001000010000000001110110011010011110100 u
b1101 ~
b1000 H
1!
1A
#2920000
0!
0A
#2930000
b1001 H
b1110 ~
b111010011100000001101100111111101001 ?
b111010011100000001101100111111101001 o
1!
1A
#2940000
0!
0A
#2950000
b1101011101101110 +
b1101011101101110 z
b11010011011110100110011111101001 6
b11010011011110100110011111101001 r
b1111 ~
b1010 H
1!
1A
#2960000
0!
0A
#2970000
b1011 H
b10000 ~
1!
1A
#2980000
0!
0A
#2990000
b111010100101111000000100101111101101001111101000001001111101 %
b111010100101111000000100101111101101001111101000001001111101 ""
b10001 ~
b1100 H
1!
1A
#3000000
0!
0A
#3010000
b1101 H
b10010 ~
b110110100111101 ,
b110110100111101 y
b11011101110111 -
b11011101110111 x
1!
1A
#3020000
0!
0A
#3030000
b11 ;
b11 q
b10011 ~
b1110 H
1!
1A
#3040000
0!
0A
#3050000
b1111 H
b10100 ~
b100111101001110110011101001110110011010011110100 1
b100111101001110110011101001110110011010011110100 u
1!
1A
#3060000
0!
0A
#3070000
b111010011100111011101100111111101001 ?
b111010011100111011101100111111101001 o
b10101 ~
b10000 H
1!
1A
#3080000
0!
0A
#3090000
b10001 H
b10110 ~
b11010011001110110110011111101001 6
b11010011001110110110011111101001 r
1!
1A
#3100000
0!
0A
#3110000
b1101001101101110 +
b1101001101101110 z
b10111 ~
b10010 H
1!
1A
#3120000
0!
0A
#3130000
b101000001000 I
b101000001000 L
b1000 G
1<
b0 H
b11000 ~
b111010100101111000000100100111101101001111101000001001111101 %
b111010100101111000000100100111101101001111101000001001111101 ""
b100 4
b100 t
1!
1A
#3140000
0!
0A
#3150000
0Z
b1 `
b1 \
b110111100000 [
0]
b1 3
b1 _
b1 g
b10 9
b10 a
b11011111000000000111100101 &
b11011111000000000111100101 !"
b111010100101111000000110000111101101001111101000001001111101 %
b111010100101111000000110000111101101001111101000001001111101 ""
b11001 ~
b100 h
b11011110000000101111010001110110 d
0<
b1 H
b1000101 V
1!
1A
#3160000
0!
0A
#3170000
b1000101 =
b1000101 E
b1000101 Q
b1000101 Y
b1000101 e
b1000101 n
b1000101 X
b10 H
b11010 ~
b1011111000000000111100101 &
b1011111000000000111100101 !"
1!
1A
#3180000
0!
0A
#3190000
b11011 ~
b11101100111011001000101 }
b11 H
1!
1A
#3200000
0!
0A
#3210000
b100 H
b11100 ~
b11101100100010101000101 }
b110011101100110110011101001110110011010011110100 1
b110011101100110110011101001110110011010011110100 u
1!
1A
#3220000
0!
0A
#3230000
b100010101100111011101100111111101001 ?
b100010101100111011101100111111101001 o
b11101 ~
b10001010100010101000101 }
b101 H
1!
1A
#3240000
0!
0A
#3250000
b110 H
b11110 ~
b1001101101110 +
b1001101101110 z
b10101001110110110011111101001 6
b10101001110110110011111101001 r
1!
1A
#3260000
0!
0A
#3270000
b111010100110100000000110000111101101001111101000001001111101 %
b111010100110100000000110000111101101001111101000001001111101 ""
b11111 ~
b111 H
1!
1A
#3280000
0!
0A
#3290000
b1000 H
b100000 ~
b100010101010100000000110000111101101001111101000001001111101 %
b100010101010100000000110000111101101001111101000001001111101 ""
1!
1A
#3300000
0!
0A
#3310000
b1011 ;
b1011 q
b110100111101 ,
b110100111101 y
b101011101110111 -
b101011101110111 x
b1 ~
b1001 H
1!
1A
#3320000
0!
0A
#3330000
b1010 H
b10 ~
1!
1A
#3340000
0!
0A
#3350000
b11111010 )
b11111010 |
b100 /
b100 w
b10001010 5
b10001010 s
b11 ~
b1011 H
1!
1A
#3360000
0!
0A
#3370000
b1100 H
b100 ~
b101010 )
b101010 |
1!
1A
#3380000
0!
0A
#3390000
b110011101100110110011101001110110011010101000101 1
b110011101100110110011101001110110011010101000101 u
b101 ~
b1101 H
1!
1A
#3400000
0!
0A
#3410000
b1110 H
b110 ~
1!
1A
#3420000
0!
0A
#3430000
b100010101100111011101100111010001010 ?
b100010101100111011101100111010001010 o
b111 ~
b1111 H
1!
1A
#3440000
0!
0A
#3450000
b10000 H
b1000 ~
b1001101101000 +
b1001101101000 z
b10101001110110110011110001010 6
b10101001110110110011110001010 r
1!
1A
#3460000
0!
0A
#3470000
b100010101010100000000110000111101101001111101000001001110001 %
b100010101010100000000110000111101101001111101000001001110001 ""
b10001 >
b10001 p
b1001 ~
b10001 H
1!
1A
#3480000
0!
0A
#3490000
b10010 H
b1010 ~
b1011111000000000111100001 &
b1011111000000000111100001 !"
b100010101010100000000110000111101101001111101000000101010001 %
b100010101010100000000110000111101101001111101000000101010001 ""
1!
1A
#3500000
0!
0A
#3510000
b101000001001 I
b101000001001 L
b1010 ;
b1010 q
b1011111000000000100010001 &
b1011111000000000100010001 !"
b1011 ~
b1001 G
1<
b0 H
1!
1A
#3520000
0!
0A
#3530000
b100111010 7
b100111010 c
b100111010 f
b1100000 b
b10 `
b101111 [
1]
b0 2
b0 ^
b1 9
b1 a
b1010010 V
0<
b1 H
b10111101000111011001000101 d
b101 h
b1100 ~
1!
1A
#3540000
0!
0A
#3550000
b110011101100110110011101101000101010010101000101 1
b110011101100110110011101101000101010010101000101 u
b1101 ~
b10 H
b1010010 =
b1010010 E
b1010010 Q
b1010010 Y
b1010010 e
b1010010 n
b1010010 X
1!
1A
#3560000
0!
0A
#3570000
b11 H
b1110 ~
b10001010100010101010010 }
b100010101100111011001010100010001010 ?
b100010101100111011001010100010001010 o
1!
1A
#3580000
0!
0A
#3590000
b1001100101000 +
b1001100101000 z
b10101001110110101010110001010 6
b10101001110110101010110001010 r
b1111 ~
b10001010101001001010010 }
b100 H
1!
1A
#3600000
0!
0A
#3610000
b101 H
b10000 ~
b10100100101001001010010 }
1!
1A
#3620000
0!
0A
#3630000
b100010101010100000000110000111100101001010100000000101010001 %
b100010101010100000000110000111100101001010100000000101010001 ""
b10001 ~
b110 H
1!
1A
#3640000
0!
0A
#3650000
b111 H
b10010 ~
b110100011101 ,
b110100011101 y
b101011101010111 -
b101011101010111 x
1!
1A
#3660000
0!
0A
#3670000
b10011 ~
b1000 H
1!
1A
#3680000
0!
0A
#3690000
b1001 H
b10100 ~
b110011101100010010010100101000101010010101000101 1
b110011101100010010010100101000101010010101000101 u
1!
1A
#3700000
0!
0A
#3710000
b100010101100101001001010100010001010 ?
b100010101100101001001010100010001010 o
b10101 ~
b1010 H
1!
1A
#3720000
0!
0A
#3730000
b1011 H
b10110 ~
b10101001010010101010110001010 6
b10101001010010101010110001010 r
1!
1A
#3740000
0!
0A
#3750000
b1001000101000 +
b1001000101000 z
b10111 ~
b1100 H
1!
1A
#3760000
0!
0A
#3770000
b1101 H
b11000 ~
b100010101010100000000110000101100101001010100000000101010001 %
b100010101010100000000110000101100101001010100000000101010001 ""
b1 >
b1 p
1!
1A
#3780000
0!
0A
#3790000
b1001101000000000100010001 &
b1001101000000000100010001 !"
b100010101010100000000010000101100101001010100000000101010001 %
b100010101010100000000010000101100101001010100000000101010001 ""
b11001 ~
b1110 H
1!
1A
#3800000
0!
0A
#3810000
b1111 H
b11010 ~
b1000 0
b1000 v
1!
1A
#3820000
0!
0A
#3830000
b11011 ~
b10000 H
1!
1A
#3840000
0!
0A
#3850000
b10001 H
b11100 ~
b10010100100010010010100101000101010010101000101 1
b10010100100010010010100101000101010010101000101 u
1!
1A
#3860000
0!
0A
#3870000
b101001001100101001001010100010001010 ?
b101001001100101001001010100010001010 o
b11101 ~
b10010 H
1!
1A
#3880000
0!
0A
#3890000
b101000001010 I
b101000001010 L
b1010 G
1<
b0 H
b11110 ~
b1101 #
b1101 #"
b100001000101000 +
b100001000101000 z
b1001001001010010101010110001010 6
b1001001001010010101010110001010 r
1!
1A
#3900000
0!
0A
#3910000
b10110110 7
b10110110 c
b10110110 f
b111000 b
b11 `
b111101000111 [
0]
b1 2
b1 ^
b10 9
b10 a
b100010101001001000000010000101100101001010100000000101010001 %
b100010101001001000000010000101100101001010100000000101010001 ""
b1100 4
b1100 t
b11111 ~
b110 h
b11110100011101100100010101010010 d
0<
b1 H
b10001011 V
1!
1A
#3920000
0!
0A
#3930000
b10001011 =
b10001011 E
b10001011 Q
b10001011 Y
b10001011 e
b10001011 n
b10001011 X
b10 H
b100000 ~
b1001001101000000000100010001 &
b1001001101000000000100010001 !"
b10101001000000010000101100101001010100000000101010001 %
b10101001000000010000101100101001010100000000101010001 ""
1!
1A
#3940000
0!
0A
#3950000
b10 ;
b10 q
b1101 *
b1101 {
b0 0
b0 v
b1101110100011101 ,
b1101110100011101 y
b111011101010111 -
b111011101010111 x
b10001001001001101000000000100010001 &
b10001001001001101000000000100010001 !"
b1 ~
b10100100101001010001011 }
b11 H
1!
1A
#3960000
0!
0A
#3970000
b100 H
b10 ~
b10100101000101110001011 }
1!
1A
#3980000
0!
0A
#3990000
b101101 )
b101101 |
b0 /
b0 w
b100010111 5
b100010111 s
b11 ~
b100010111000101110001011 }
b101 H
1!
1A
#4000000
0!
0A
#4010000
b110 H
b100 ~
b11101 )
b11101 |
1!
1A
#4020000
0!
0A
#4030000
b10010100100010010010100101000101010101110001011 1
b10010100100010010010100101000101010101110001011 u
b101 ~
b111 H
1!
1A
#4040000
0!
0A
#4050000
b1000 H
b110 ~
1!
1A
#4060000
0!
0A
#4070000
b101001001100101001001010100100010111 ?
b101001001100101001001010100100010111 o
b111 ~
b1001 H
1!
1A
#4080000
0!
0A
#4090000
b1010 H
b1000 ~
b1100 #
b1100 #"
b100001000100001 +
b100001000100001 z
b1001001001010010101010100010111 6
b1001001001010010101010100010111 r
1!
1A
#4100000
0!
0A
#4110000
b10101001000000010000101100101001010100000000101111100 %
b10101001000000010000101100101001010100000000101111100 ""
b1001 ~
b1011 H
1!
1A
#4120000
0!
0A
