Alex/test_builds/parser_v2/sim/stereo_32b_tb.vcd
$date
	Sat Dec 10 02:22:43 2022
$end
$version
	Icarus Verilog
$end
$timescale
	1ps
$end
$scope module stereo_tb $end
$var wire 1 ! gr_out $end
$var wire 1 " dout_v $end
$var wire 32 # ch2_out [31:0] $end
$var wire 32 $ ch1_out [31:0] $end
$var reg 9 % big_values_in [8:0] $end
$var reg 2 & block_type_in [1:0] $end
$var reg 18432 ' ch1_code [18431:0] $end
$var reg 32 ( ch1_in [31:0] $end
$var reg 18432 ) ch2_code [18431:0] $end
$var reg 32 * ch2_in [31:0] $end
$var reg 1 + clk $end
$var reg 1 , din_v $end
$var reg 1 - gr_in $end
$var reg 10 . is_pos_in [9:0] $end
$var reg 1 / mixed_block_flag_in $end
$var reg 2 0 mode_ext_in [1:0] $end
$var reg 2 1 mode_in [1:0] $end
$var reg 1 2 rst $end
$var reg 84 3 scalefac_l_in [83:0] $end
$var reg 144 4 scalefac_s_in [143:0] $end
$var reg 1 5 window_switching_flag_in $end
$scope module UUT $end
$var wire 9 6 big_values_in [8:0] $end
$var wire 2 7 block_type_in [1:0] $end
$var wire 32 8 ch1_in [31:0] $end
$var wire 32 9 ch2_in [31:0] $end
$var wire 1 + clk $end
$var wire 1 , din_v $end
$var wire 1 - gr_in $end
$var wire 10 : is_pos_in [9:0] $end
$var wire 1 / mixed_block_flag_in $end
$var wire 2 ; mode_ext_in [1:0] $end
$var wire 2 < mode_in [1:0] $end
$var wire 1 2 rst $end
$var wire 84 = scalefac_l_in [83:0] $end
$var wire 144 > scalefac_s_in [143:0] $end
$var wire 1 5 window_switching_flag_in $end
$var wire 10 ? count1 [9:0] $end
$var wire 4 @ c3_win [3:0] $end
$var wire 8 A c3_sfb [7:0] $end
$var wire 4 B c3_bt [3:0] $end
$var wire 4 C c2_win [3:0] $end
$var wire 8 D c2_sfb [7:0] $end
$var wire 4 E c2_bt [3:0] $end
$var wire 4 F c1_win [3:0] $end
$var wire 8 G c1_sfb [7:0] $end
$var wire 4 H c1_bt [3:0] $end
$var reg 64 I A [63:0] $end
$var reg 64 J B [63:0] $end
$var reg 1 K STEREO $end
$var reg 18 L big_values_pipe [17:0] $end
$var reg 4 M block_type_pipe [3:0] $end
$var reg 2 N bt [1:0] $end
$var reg 32 O ch1_out [31:0] $end
$var reg 64 P ch1_pipe [63:0] $end
$var reg 32 Q ch2_out [31:0] $end
$var reg 64 R ch2_pipe [63:0] $end
$var reg 2 S din_v_pipe [1:0] $end
$var reg 1 " dout_v $end
$var reg 1 ! gr_out $end
$var reg 2 T gr_pipe [1:0] $end
$var reg 20 U is_pos_pipe [19:0] $end
$var reg 2 V mixed_block_flag_pipe [1:0] $end
$var reg 4 W mode_ext_pipe [3:0] $end
$var reg 4 X mode_pipe [3:0] $end
$var reg 32 Y ms_comp_l [31:0] $end
$var reg 64 Z ms_comp_l_int [63:0] $end
$var reg 32 [ ms_comp_r [31:0] $end
$var reg 64 \ ms_comp_r_int [63:0] $end
$var reg 4 ] ratio_idx [3:0] $end
$var reg 32 ^ ratio_l [31:0] $end
$var reg 32 _ ratio_r [31:0] $end
$var reg 168 ` scalefac_l_pipe [167:0] $end
$var reg 288 a scalefac_s_pipe [287:0] $end
$var reg 10 b sfb [9:0] $end
$var reg 4 c win [3:0] $end
$var reg 2 d window_switching_flag_pipe [1:0] $end
$scope module TB_CASE_1 $end
$var wire 9 e addra [8:0] $end
$var wire 1 + clka $end
$var wire 16 f dina [15:0] $end
$var wire 1 g ena $end
$var wire 1 h regcea $end
$var wire 1 2 rsta $end
$var wire 1 i wea $end
$var wire 16 j douta [15:0] $end
$var parameter 224 k INIT_FILE $end
$var parameter 32 l RAM_DEPTH $end
$var parameter 128 m RAM_PERFORMANCE $end
$var parameter 32 n RAM_WIDTH $end
$var reg 16 o ram_data [15:0] $end
$scope function clogb2 $end
$var integer 32 p depth [31:0] $end
$upscope $end
$scope begin output_register $end
$var reg 16 q douta_reg [15:0] $end
$upscope $end
$scope begin use_init_file $end
$upscope $end
$upscope $end
$scope module TB_CASE_2 $end
$var wire 9 r addra [8:0] $end
$var wire 1 + clka $end
$var wire 16 s dina [15:0] $end
$var wire 1 t ena $end
$var wire 1 u regcea $end
$var wire 1 2 rsta $end
$var wire 1 v wea $end
$var wire 16 w douta [15:0] $end
$var parameter 224 x INIT_FILE $end
$var parameter 32 y RAM_DEPTH $end
$var parameter 128 z RAM_PERFORMANCE $end
$var parameter 32 { RAM_WIDTH $end
$var reg 16 | ram_data [15:0] $end
$scope function clogb2 $end
$var integer 32 } depth [31:0] $end
$upscope $end
$scope begin output_register $end
$var reg 16 ~ douta_reg [15:0] $end
$upscope $end
$scope begin use_init_file $end
$upscope $end
$upscope $end
$scope module TB_CASE_3 $end
$var wire 9 !" addra [8:0] $end
$var wire 1 + clka $end
$var wire 16 "" dina [15:0] $end
$var wire 1 #" ena $end
$var wire 1 $" regcea $end
$var wire 1 2 rsta $end
$var wire 1 %" wea $end
$var wire 16 &" douta [15:0] $end
$var parameter 224 '" INIT_FILE $end
$var parameter 32 (" RAM_DEPTH $end
$var parameter 128 )" RAM_PERFORMANCE $end
$var parameter 32 *" RAM_WIDTH $end
$var reg 16 +" ram_data [15:0] $end
$scope function clogb2 $end
$var integer 32 ," depth [31:0] $end
$upscope $end
$scope begin output_register $end
$var reg 16 -" douta_reg [15:0] $end
$upscope $end
$scope begin use_init_file $end
$upscope $end
$upscope $end
$upscope $end
$scope begin $ivl_for_loop0 $end
$var integer 32 ." i [31:0] $end
$upscope $end
$upscope $end
$enddefinitions $end
$comment Show the parameter values. $end
$dumpall
b10000 *"
b1001000010010010100011101001000010111110101000001000101010100100100011001001111010100100100110101000001010011100100001101000101 )"
b110100010 ("
b1100100011000010111010001100001001011110100100101010011010111110111001101110100011001010111001001100101011011110101111101110011011001100110001001011111011010010110010001111000010111110011001100101110011011010110010101101101 '"
b10000 {
b1001000010010010100011101001000010111110101000001000101010100100100011001001111010100100100110101000001010011100100001101000101 z
b110011000 y
b1100100011000010111010001100001001011110100100101010011010111110111001101110100011001010111001001100101011011110101111101110011011001100110001001011111011010010110010001111000010111110011001000101110011011010110010101101101 x
b10000 n
b1001000010010010100011101001000010111110101000001000101010100100100011001001111010100100100110101000001010011100100001101000101 m
b110011000 l
b1100100011000010111010001100001001011110100100101010011010111110111001101110100011001010111001001100101011011110101111101110011011001100110001001011111011010010110010001111000010111110011000100101110011011010110010101101101 k
$end
#0
$dumpvars
b0 ."
b0 -"
bx ,"
b0 +"
b0 &"
0%"
1$"
1#"
b0 ""
b0 !"
b0 ~
bx }
b0 |
b0 w
0v
1u
1t
b0 s
b0 r
b0 q
bx p
b0 o
b0 j
0i
1h
1g
b0 f
b0 e
bx d
bx c
bx b
bx a
bx `
b1000000000000000000000000000000 _
b1000000000000000000000000000000 ^
b111 ]
bx \
bx [
bx Z
bx Y
bx X
bx W
bx V
bx U
bx T
bx S
bx R
bx Q
bx P
bx O
bx N
bx M
bx L
xK
bx J
bx I
b0 H
b0 G
b0 F
b0 E
b0 D
b0 C
b0 B
b0 A
b0 @
bx0 ?
b0 >
b0 =
b1 <
b10 ;
b0 :
bx 9
bx 8
b1 7
b1000111 6
15
b0 4
b0 3
02
b1 1
b10 0
0/
b0 .
0-
0,
0+
bx *
b0 )
bx (
b10001010011101001011100000000000010100001010001010001100000000000000000000000000000000111111111110101111010111010111011111111111001101001101000000001111111111101110111001100111011001111111111010100011000111001110011111111110101000110001110011100111111111101010001100011100111001111111111010100011000111001110011111111110111011100110011101100111111111110011010011010000000011111111111101110101100010110100101111111111101011110101110101110111111111111110000000000000000000111111111111100000000000000000001111111111111000000000000000000011111111111110000000000000000000000000000001010000101000101000110000000000010100001010001010001100000000000010000000000000000000000000000000100000000000000000000000000000001000000000000000000000000000000010000000000000000000000000000001010000101000101000110000000000010100001010001010001100000000000101000010100010100011000000000001010000101000101000110000000000010100001010001010001100000000000101000010100010100011000000000001010000101000101000110000000000010100001010001010001100000000000010000000000000000000000000000000100000000000000000001111111111111000000000000000000011111111111110000000000000000000000000000001010000101000101000110000000000100010100111010010111000000000001000101001110100101110000000000010001010011101001011100000000000100010100111010010111000000000000101000010100010100011000000000001010000101000101000110000000000010100001010001010001100000000000101000010100010100011000000000000100000000000000000000000000000001000000000000000000000000000000000000000000000000000000000000000000000000000000000000000000000000000000000000000000000000000000000000000000000000000111111111111100000000000000000001111111111111000000000000000000011111111111110000000000000000000000000000001010000101000101000110000000000001000000000000000000000000000000010000000000000000000000000000000000000000000000000001111111111111000000000000000000011111111111110000000000000000000111111111110101111010111010111011111111111101011110101110101110111111111111010111101011101011101111111111110101111010111010111011111111111101011110101110101110111111111111010111101011101011101111111111110101111010111010111011111111111111000000000000000000011111111111110000000000000000000111111111111100000000000000000001111111111111000000000000000000011111111111110000000000000000000000000000001010000101000101000110000000000010100001010001010001100000000000101000010100010100011000000000001010000101000101000110000000000010100001010001010001100000000000101000010100010100011000000000001010000101000101000110000000000010100001010001010001100000000000010000000000000000000000000000000100000000000000000000000000000001000000000000000000000000000000010000000000000000000000000000000100000000000000000000000000000001000000000000000000000000000000010000000000000000000000000000000100000000000000000000000000000001000000000000000000000000000000010000000000000000000111111111111100000000000000000001111111111111000000000000000000011111111111110000000000000000000111111111111100000000000000000001111111111111000000000000000000000000000000000000000000000000000000000000000000000000000000000000000000000000000000000000000000000000000000000000000000000000000000000000000000000000000000000000000000000000000000000000000000000000000000000000000000000000000000000000000100000000000000000000000000000001000000000000000000000000000000010000000000000000000000000000001010000101000101000110000000000010100001010001010001100000000000101000010100010100011111111111101110101100010110100101111111111011101011000101101001011111111110111010110001011010010111111111101110101100010110100101111111111101011110101110101110111111111111110000000000000000000111111111111100000000000000000000000000000000000000000000000000000000000000010000000000000000000000000000001010000101000101000110000000000010100001010001010001100000000000101000010100010100011000000000001010000101000101000110000000000010100001010001010001100000000000010000000000000000000000000000000100000000000000000000000000000000000000000000000000011111111111110000000000000000000000000000001010000101000101000110000000000010100001010001010001100000000000101000010100010100011000000000001010000101000101000110000000000010100001010001010001100000000000101000010100010100011000000000001010000101000101000110000000000010100001010001010001100000000000101000010100010100011000000000001010000101000101000110000000000010100001010001010001100000000000101000010100010100011000000000001010000101000101000110000000000010100001010001010001100000000000010000000000000000000000000000000100000000000000000000000000000000000000000000000000000000000000000000000000000000000000000000000000000000000000000000000000000000000000000000000000000000000000000000000000000000000000000000000000000000000000000000000000000000000000000000000000000000000000000000000000000000000000000000000000000000000000000000000000000000000000000000000000000000000000000000000000000000000000000000000000000000000000000000000000000000000000000000000000000000000000000000000000000000000000000000000000000000000000000000000000000000000000000000000000000000000000000000000000000000000000000000000000000000000000000000000000000000000000000000000000000000000000000000000000000000000000000000000000000000000000000000000000000000000000000000000000000000000000000000000000000000000000000000000000000000000000000000000000000000000000000000000000000000000000000000000000000000000000000000000000000000000000000000000000000000000000000000000000000000000000000000000000000000000000000000000000000000000000000000000000000000000000000000000000000000000000000000000000000000000000000000000000000000000000000000000000000000000000000000000000000000000000000000000000000000000000000000000000000000000000000000000000000000000000000000000000000000000000000000000000000000000000000000000000000000000000000000000000000000000000000000000000000000000000000000000000000000000000000000000000000000000000000000000000000000000000000000000000000000000000000000000000000000000000000000000000000000000000000000000000000000000000000000000000000000000000000000000000000000000000000000000000000000000000000000000000000000000000000000000000000000000000000000000000000000000000000000000000000000000000000000000000000000000000000000000000000000000000000000000000000000000000000000000000000000000000000000000000000000000000000000000000000000000000000000000000000000000000000000000000000000000000000000000000000000000000000000000000000000000000000000000000000000000000000000000000000000000000000000000000000000000000000000000000000000000000000000000000000000000000000000000000000000000000000000000000000000000000000000000000000000000000000000000000000000000000000000000000000000000000000000000000000000000000000000000000000000000000000000000000000000000000000000000000000000000000000000000000000000000000000000000000000000000000000000000000000000000000000000000000000000000000000000000000000000000000000000000000000000000000000000000000000000000000000000000000000000000000000000000000000000000000000000000000000000000000000000000000000000000000000000000000000000000000000000000000000000000000000000000000000000000000000000000000000000000000000000000000000000000000000000000000000000000000000000000000000000000000000000000000000000000000000000000000000000000000000000000000000000000000000000000000000000000000000000000000000000000000000000000000000000000000000000000000000000000000000000000000000000000000000000000000000000000000000000000000000000000000000000000000000000000000000000000000000000000000000000000000000000000000000000000000000000000000000000000000000000000000000000000000000000000000000000000000000000000000000000000000000000000000000000000000000000000000000000000000000000000000000000000000000000000000000000000000000000000000000000000000000000000000000000000000000000000000000000000000000000000000000000000000000000000000000000000000000000000000000000000000000000000000000000000000000000000000000000000000000000000000000000000000000000000000000000000000000000000000000000000000000000000000000000000000000000000000000000000000000000000000000000000000000000000000000000000000000000000000000000000000000000000000000000000000000000000000000000000000000000000000000000000000000000000000000000000000000000000000000000000000000000000000000000000000000000000000000000000000000000000000000000000000000000000000000000000000000000000000000000000000000000000000000000000000000000000000000000000000000000000000000000000000000000000000000000000000000000000000000000000000000000000000000000000000000000000000000000000000000000000000000000000000000000000000000000000000000000000000000000000000000000000000000000000000000000000000000000000000000000000000000000000000000000000000000000000000000000000000000000000000000000000000000000000000000000000000000000000000000000000000000000000000000000000000000000000000000000000000000000000000000000000000000000000000000000000000000000000000000000000000000000000000000000000000000000000000000000000000000000000000000000000000000000000000000000000000000000000000000000000000000000000000000000000000000000000000000000000000000000000000000000000000000000000000000000000000000000000000000000000000000000000000000000000000000000000000000000000000000000000000000000000000000000000000000000000000000000000000000000000000000000000000000000000000000000000000000000000000000000000000000000000000000000000000000000000000000000000000000000000000000000000000000000000000000000000000000000000000000000000000000000000000000000000000000000000000000000000000000000000000000000000000000000000000000000000000000000000000000000000000000000000000000000000000000000000000000000000000000000000000000000000000000000000000000000000000000000000000000000000000000000000000000000000000000000000000000000000000000000000000000000000000000000000000000000000000000000000000000000000000000000000000000000000000000000000000000000000000000000000000000000000000000000000000000000000000000000000000000000000000000000000000000000000000000000000000000000000000000000000000000000000000000000000000000000000000000000000000000000000000000000000000000000000000000000000000000000000000000000000000000000000000000000000000000000000000000000000000000000000000000000000000000000000000000000000000000000000000000000000000000000000000000000000000000000000000000000000000000000000000000000000000000000000000000000000000000000000000000000000000000000000000000000000000000000000000000000000000000000000000000000000000000000000000000000000000000000000000000000000000000000000000000000000000000000000000000000000000000000000000000000000000000000000000000000000000000000000000000000000000000000000000000000000000000000000000000000000000000000000000000000000000000000000000000000000000000000000000000000000000000000000000000000000000000000000000000000000000000000000000000000000000000000000000000000000000000000000000000000000000000000000000000000000000000000000000000000000000000000000000000000000000000000000000000000000000000000000000000000000000000000000000000000000000000000000000000000000000000000000000000000000000000000000000000000000000000000000000000000000000000000000000000000000000000000000000000000000000000000000000000000000000000000000000000000000000000000000000000000000000000000000000000000000000000000000000000000000000000000000000000000000000000000000000000000000000000000000000000000000000000000000000000000000000000000000000000000000000000000000000000000000000000000000000000000000000000000000000000000000000000000000000000000000000000000000000000000000000000000000000000000000000000000000000000000000000000000000000000000000000000000000000000000000000000000000000000000000000000000000000000000000000000000000000000000000000000000000000000000000000000000000000000000000000000000000000000000000000000000000000000000000000000000000000000000000000000000000000000000000000000000000000000000000000000000000000000000000000000000000000000000000000000000000000000000000000000000000000000000000000000000000000000000000000000000000000000000000000000000000000000000000000000000000000000000000000000000000000000000000000000000000000000000000000000000000000000000000000000000000000000000000000000000000000000000000000000000000000000000000000000000000000000000000000000000000000000000000000000000000000000000000000000000000000000000000000000000000000000000000000000000000000000000000000000000000000000000000000000000000000000000000000000000000000000000000000000000000000000000000000000000000000000000000000000000000000000000000000000000000000000000000000000000000000000000000000000000000000000000000000000000000000000000000000000000000000000000000000000000000000000000000000000000000000000000000000000000000000000000000000000000000000000000000000000000000000000000000000000000000000000000000000000000000000000000000000000000000000000000000000000000000000000000000000000000000000000000000000000000000000000000000000000000000000000000000000000000000000000000000000000000000000000000000000000000000000000000000000000000000000000000000000000000000000000000000000000000000000000000000000000000000000000000000000000000000000000000000000000000000000000000000000000000000000000000000000000000000000000000000000000000000000000000000000000000000000000000000000000000000000000000000000000000000000000000000000000000000000000000000000000000000000000000000000000000000000000000000000000000000000000000000000000000000000000000000000000000000000000000000000000000000000000000000000000000000000000000000000000000000000000000000000000000000000000000000000000000000000000000000000000000000000000000000000000000000000000000000000000000000000000000000000000000000000000000000000000000000000000000000000000000000000000000000000000000000000000000000000000000000000000000000000000000000000000000000000000000000000000000000000000000000000000000000000000000000000000000000000000000000000000000000000000000000000000000000000000000000000000000000000000000000000000000000000000000000000000000000000000000000000000000000000000000000000000000000000000000000000000000000000000000000000000000000000000000000000000000000000000000000000000000000000000000000000000000000000000000000000000000000000000000000000000000000000000000000000000000000000000000000000000000000000000000000000000000000000000000000000000000000000000000000000000000000000000000000000000000000000000000000000000000000000000000000000000000000000000000000000000000000000000000000000000000000000000000000000000000000000000000000000000000000000000000000000000000000000000000000000000000000000000000000000000000000000000000000000000000000000000000000000000000000000000000000000000000000000000000000000000000000000000000000000000000000000000000000000000000000000000000000000000000000000000000000000000000000000000000000000000000000000000000000000000000000000000000000000000000000000000000000000000000000000000000000000000000000000000000000000000000000000000000000000000000000000000000000000000000000000000000000000000000000000000000000000000000000000000000000000000000000000000000000000000000000000000000000000000000000000000000000000000000000000000000000000000000000000000000000000000000000000000000000000000000000000000000000000000000000000000000000000000000000000000000000000000000000000000000000000000000000000000000000000000000000000000000000000000000000000000000000000000000000000000000000000000000000000000000000000000000000000000000000000000000000000000000000000000000000000000000000000000000000000000000000000000000000000000000000000000000000000000000000000000000000000000000000000000000000000000000000000000000000000000000000000000000000000000000000000000000000000000000000000000000000000000000000000000000000000000000000000000000000000000000000000000000000000000000000000000000000000000000000000000000000000000000000000000000000000000000000000000000000000000000000000000000000000000000000000000000000000000000000000000000000000000000000000000000000000000000000000000000000000000000000000000000000000000000000000000000000000000000000000000000000000000000000000000000000000000000000000000000000000000000000000000000000000000000000000000000000000000000000000000000000000000000000000000000000000000000000000000000000000000000000000000000000000000000000000000000000000000000000000000000000000000000000000000000000000000000000000000000000000000000000000000000000000000000000000000000000000000000000000000000000000000000000000000000000000000000000000000000000000000000000000000000000000000000000000000000000000000000000000000000000000000000000000000000000000000000000000000000000000000000000000000000000000000000000000000000000000000000000000000000000000000000000000000000000000000000000000000000000000000000000000000000000000000000000000000000000000000000000000000000000000000000000000000000000000000000000000000000000000000000000000000000000000000000000000000000000000000000000000000000000000000000000000000000000000000000000000000000000000000000000000000000000000000000000000000000000000000000000000000000000000000000000000000000000000000000000000000000000000000000000000000000000000000000000000000000000000000000000000000000000000000000000000000000000000000000000000000000000000000000000000000000000000000000000000000000000000000000000000000000000000000000000000000000000000000000000000000000000000000000000000000000000000000000000000000000000000000000000000000000000000000000000000000000000000000000000000000000000000000000000000000000000000000000000000000000000000000000000000000000000000000000000000000000000000000000000000000000000000000000000000000000000000000000000000000000000000000000000000000000000000000000000000000000000000000000000000000000000000000000000000000000000000000000000000000000000000000000000000000000000000000000000000000000000000000000000000000000000000000000000000000000000000000000000000000000000000000000000000000000000000000000000000000000000000000000000000000000000000000000000000000000000000000000000000000000000000000000000000000000000000000000000000000000000000000000000000000000000000000000000000000000000000000000000000000000000000000000000000000000000000000000000000000000000000000000000000000000000000000000000000000000000000000000000000000000000000000000000000000000000000000000000000000000000000000000000000000000000000000000000000000000000000000000000000000000000000000000000000000000000000000000000000000000000000000000000000000000000000000000000000000000000000000000000000000000000000000000000000000000000000000000000000000000000000000000000000000000000000000000000000000000000000000000000000000000000000000000000000000000000000000000000000000000000000000000000000000000000000000000000000000000000 '
b1 &
b1000111 %
bx $
bx #
x"
x!
$end
#10000
b1 o
b1 +"
bx0 S
bx0 T
bx0000000000 U
bx000000000000000000000000000000000000000000000000000000000000000000000000000000000000000000000000000000000000000000000000000000000000000000000000 a
bx000000000000000000000000000000000000000000000000000000000000000000000000000000000000 `
bx0 V
bx01 M
bx1 d
bx001000111 L
bx10 W
bx01 X
b0 c
b10 N
b0 b
0K
1+
#20000
0+
12
#30000
b0 ?
b0 #
b0 Q
b0 $
b0 O
b0 J
b0 I
b0 [
b0 Y
b0 \
b0 Z
b0 S
b0 T
b0 U
b0 R
b0 P
b0 a
b0 `
b0 V
b0 M
b0 d
b0 L
b0 W
b0 X
1+
#40000
0+
02
#50000
b1 H
b1 B
b1 j
b1 q
b1 &"
b1 -"
b0xxxxxxxxxxxxxxxxxxxxxxxxxxxxxxxx R
b0xxxxxxxxxxxxxxxxxxxxxxxxxxxxxxxx P
b1 M
b1 d
b1000111 L
b10 W
b1 X
0"
0!
1+
#60000
0+
b0 *
b0 9
b1000101001110100101110 (
b1000101001110100101110 8
1,
#70000
b10001110 ?
bx #
bx Q
bx $
bx O
bx J
bx I
bx [
bx Y
bx \
bx Z
b101 M
b11 d
b1000111001000111 L
b1010 W
b101 X
b1 S
bx00000000000000000000000000000000 R
bx00000000001000101001110100101110 P
1+
#80000
b1 e
b1 r
b1 !"
0+
b1 .
b1 :
b101000010100010100011 (
b101000010100010100011 8
b1 ."
#90000
b110000111100111001100 #
b110000111100111001100 Q
b110000111100111001100 $
b110000111100111001100 O
b110000111100111001100000000000000000000000000000000 J
b110000111100111001100000000000000000000000000000000 I
b110000111100111001100 [
b110000111100111001100 Y
b110000111100111001100110111000110100000100010101000 \
b110000111100111001100110111000110100000100010101000 Z
b11 S
b0 R
b1 U
b100010100111010010111000000000000101000010100010100011 P
1K
1+
#100000
b10 e
b10 r
b10 !"
0+
b10 .
b10 :
b0 (
b0 8
b10 ."
#110000
b11100100000100011111 #
b11100100000100011111 Q
b11100100000100011111 $
b11100100000100011111 O
b11100100000100011111000000000000000000000000000000 J
b11100100000100011111000000000000000000000000000000 I
b11100100000100011111 [
b11100100000100011111 Y
b11100100000100011111000001111110011001010111100100 \
b11100100000100011111000001111110011001010111100100 Z
1"
b10000000010 U
b10100001010001010001100000000000000000000000000000000 P
1+
#120000
b11 e
b11 r
b11 !"
0+
b11 .
b11 :
b11111111111010111101011101011101 (
b11111111111010111101011101011101 8
b11 ."
#130000
b0 #
b0 Q
b0 $
b0 O
b0 J
b0 I
b0 [
b0 Y
b0 \
b0 Z
b100000000011 U
b11111111111010111101011101011101 P
1+
#140000
b100 e
b100 r
b100 !"
0+
b100 .
b100 :
b11111111110011010011010000000011 (
b11111111110011010011010000000011 8
b100 ."
#150000
b11111111111100011011111011100000 #
b11111111111100011011111011100000 Q
b11111111111100011011111011100000 $
b11111111111100011011111011100000 O
b1111111111111100011011111011100000000000000000000000000000000000 J
b1111111111111100011011111011100000000000000000000000000000000000 I
b11111111111100011011111011100000 [
b11111111111100011011111011100000 Y
b1111111111111100011011111011100000111110000001100110101000011100 \
b1111111111111100011011111011100000111110000001100110101000011100 Z
b110000000100 U
b1111111111101011110101110101110111111111110011010011010000000011 P
b10001 +"
b10001 o
1+
#160000
b101 e
b101 r
b101 !"
0+
b101 .
b101 :
b11111111101110111001100111011001 (
b11111111101110111001100111011001 8
b101 ."
#170000
b1 F
b1 @
b11111111110111000001010011001010 #
b11111111110111000001010011001010 Q
b11111111110111000001010011001010 $
b11111111110111000001010011001010 O
b1111111111110111000001010011001010000000000000000000000000000000 J
b1111111111110111000001010011001010000000000000000000000000000000 I
b11111111110111000001010011001010 [
b11111111110111000001010011001010 Y
b1111111111110111000001010011001010101011011110010010011001100100 \
b1111111111110111000001010011001010101011011110010010011001100100 Z
b10001 j
b10001 q
b10001 &"
b10001 -"
b1000000000101 U
b1111111111001101001101000000001111111111101110111001100111011001 P
1+
#180000
b110 e
b110 r
b110 !"
0+
b110 .
b110 :
b11111111101010001100011100111001 (
b11111111101010001100011100111001 8
b110 ."
#190000
b11111111110011111010001001110011 #
b11111111110011111010001001110011 Q
b11111111110011111010001001110011 $
b11111111110011111010001001110011 O
b1111111111110011111010001001110011000000000000000000000000000000 J
b1111111111110011111010001001110011000000000000000000000000000000 I
b11111111110011111010001001110011 [
b11111111110011111010001001110011 Y
b1111111111110011111010001001110011110110101001100111010011101100 \
b1111111111110011111010001001110011110110101001100111010011101100 Z
b1010000000110 U
b1111111110111011100110011101100111111111101010001100011100111001 P
1+
#200000
b111 e
b111 r
b111 !"
0+
b111 .
b111 :
b111 ."
#210000
b11111111110000100101001100101011 #
b11111111110000100101001100101011 Q
b11111111110000100101001100101011 $
b11111111110000100101001100101011 O
b1111111111110000100101001100101011000000000000000000000000000000 J
b1111111111110000100101001100101011000000000000000000000000000000 I
b11111111110000100101001100101011 [
b11111111110000100101001100101011 Y
b1111111111110000100101001100101011100011101010010001110101101100 \
b1111111111110000100101001100101011100011101010010001110101101100 Z
b1111111110101000110001110011100111111111101010001100011100111001 P
b1100000000111 U
1+
#220000
b1000 e
b1000 r
b1000 !"
0+
b1000 .
b1000 :
b1000 ."
#230000
b1110000001000 U
b100001 +"
b100001 o
1+
#240000
b1001 e
b1001 r
b1001 !"
0+
b1001 .
b1001 :
b1001 ."
#250000
b10 F
b10 @
b100001 j
b100001 q
b100001 &"
b100001 -"
b10000000001001 U
1+
#260000
b1010 e
b1010 r
b1010 !"
0+
b1010 .
b1010 :
b11111111101110111001100111011001 (
b11111111101110111001100111011001 8
b1010 ."
#270000
b10010000001010 U
b1111111110101000110001110011100111111111101110111001100111011001 P
1+
#280000
b1011 e
b1011 r
b1011 !"
0+
b1011 .
b1011 :
b11111111110011010011010000000011 (
b11111111110011010011010000000011 8
b1011 ."
#290000
b11111111110011111010001001110011 #
b11111111110011111010001001110011 Q
b11111111110011111010001001110011 $
b11111111110011111010001001110011 O
b1111111111110011111010001001110011000000000000000000000000000000 J
b1111111111110011111010001001110011000000000000000000000000000000 I
b11111111110011111010001001110011 [
b11111111110011111010001001110011 Y
b1111111111110011111010001001110011110110101001100111010011101100 \
b1111111111110011111010001001110011110110101001100111010011101100 Z
b10100000001011 U
b1111111110111011100110011101100111111111110011010011010000000011 P
1+
#300000
b1100 e
b1100 r
b1100 !"
0+
b1100 .
b1100 :
b11111111110111010110001011010010 (
b11111111110111010110001011010010 8
b1100 ."
#310000
b11111111110111000001010011001010 #
b11111111110111000001010011001010 Q
b11111111110111000001010011001010 $
b11111111110111000001010011001010 O
b1111111111110111000001010011001010000000000000000000000000000000 J
b1111111111110111000001010011001010000000000000000000000000000000 I
b11111111110111000001010011001010 [
b11111111110111000001010011001010 Y
b1111111111110111000001010011001010101011011110010010011001100100 \
b1111111111110111000001010011001010101011011110010010011001100100 Z
b10110000001100 U
b1111111111001101001101000000001111111111110111010110001011010010 P
b110001 +"
b10000 |
b110001 o
1+
#320000
b1101 e
b1101 r
b1101 !"
0+
b1101 .
b1101 :
b11111111111010111101011101011101 (
b11111111111010111101011101011101 8
b1101 ."
#330000
b11 F
b1 C
b11 @
b11111111111001111000011000110011 #
b11111111111001111000011000110011 Q
b11111111111001111000011000110011 $
b11111111111001111000011000110011 O
b1111111111111001111000011000110011000000000000000000000000000000 J
b1111111111111001111000011000110011000000000000000000000000000000 I
b11111111111001111000011000110011 [
b11111111111001111000011000110011 Y
b1111111111111001111000011000110011001000111001011111011101011000 \
b1111111111111001111000011000110011001000111001011111011101011000 Z
b110001 j
b110001 q
b10000 w
b10000 ~
b110001 &"
b110001 -"
b11000000001101 U
b1111111111011101011000101101001011111111111010111101011101011101 P
1+
#340000
b1110 e
b1110 r
b1110 !"
0+
b1110 .
b1110 :
b11111111111110000000000000000000 (
b11111111111110000000000000000000 8
b1110 ."
#350000
b11111111111100011011111011100000 #
b11111111111100011011111011100000 Q
b11111111111100011011111011100000 $
b11111111111100011011111011100000 O
b1111111111111100011011111011100000000000000000000000000000000000 J
b1111111111111100011011111011100000000000000000000000000000000000 I
b11111111111100011011111011100000 [
b11111111111100011011111011100000 Y
b1111111111111100011011111011100000111110000001100110101000011100 \
b1111111111111100011011111011100000111110000001100110101000011100 Z
b11010000001110 U
b1111111111101011110101110101110111111111111110000000000000000000 P
1+
#360000
b1111 e
b1111 r
b1111 !"
0+
b1111 .
b1111 :
b1111 ."
#370000
b11111111111110100101011111011000 #
b11111111111110100101011111011000 Q
b11111111111110100101011111011000 $
b11111111111110100101011111011000 O
b1111111111111110100101011111011000000000000000000000000000000000 J
b1111111111111110100101011111011000000000000000000000000000000000 I
b11111111111110100101011111011000 [
b11111111111110100101011111011000 Y
b1111111111111110100101011111011000011001101000000000000000000000 \
b1111111111111110100101011111011000011001101000000000000000000000 Z
b1111111111111000000000000000000011111111111110000000000000000000 P
b11100000001111 U
1+
#380000
b10000 e
b10000 r
b10000 !"
0+
b10000 .
b10000 :
b10000 ."
#390000
b11110000010000 U
b1000001 +"
b1000001 o
1+
#400000
b10001 e
b10001 r
b10001 !"
0+
b10001 .
b10001 :
b10001 ."
#410000
b100 F
b100 @
b1000001 j
b1000001 q
b1000001 &"
b1000001 -"
b100000000010001 U
1+
#420000
b10010 e
b10010 r
b10010 !"
0+
b10010 .
b10010 :
b101000010100010100011 (
b101000010100010100011 8
b10010 ."
#430000
b100010000010010 U
b1111111111111000000000000000000000000000000101000010100010100011 P
1+
#440000
b10011 e
b10011 r
b10011 !"
0+
b10011 .
b10011 :
b10011 ."
#450000
b11100100000100011111 #
b11100100000100011111 Q
b11100100000100011111 $
b11100100000100011111 O
b11100100000100011111000000000000000000000000000000 J
b11100100000100011111000000000000000000000000000000 I
b11100100000100011111 [
b11100100000100011111 Y
b11100100000100011111000001111110011001010111100100 \
b11100100000100011111000001111110011001010111100100 Z
b10100001010001010001100000000000101000010100010100011 P
b100100000010011 U
1+
#460000
b10100 e
b10100 r
b10100 !"
0+
b10100 .
b10100 :
b10000000000000000000 (
b10000000000000000000 8
b10100 ."
#470000
b100110000010100 U
b10100001010001010001100000000000010000000000000000000 P
b1010001 +"
b1010001 o
1+
