Sam/fifo.vcd
$date
	Mon Dec 05 04:32:36 2022
$end
$version
	Icarus Verilog
$end
$timescale
	1ps
$end
$scope module fifo_tb $end
$var wire 1 ! full $end
$var wire 1 " empty $end
$var wire 1 # data_out $end
$var wire 32 $ data_count [31:0] $end
$var reg 1 % clk $end
$var reg 8 & data_in [7:0] $end
$var reg 1 ' rd $end
$var reg 1 ( rst $end
$var reg 1 ) wr $end
$scope module uut $end
$var wire 1 % clk $end
$var wire 8 * data_in [7:0] $end
$var wire 1 ' rd $end
$var wire 1 ( rst $end
$var wire 1 ) wr $end
$var wire 1 ! full $end
$var wire 1 " empty $end
$var reg 3 + bit_counter [2:0] $end
$var reg 32 , data_count [31:0] $end
$var reg 1 # data_out $end
$var reg 3 - r_ptr [2:0] $end
$var reg 3 . w_ptr [2:0] $end
$upscope $end
$scope begin $ivl_for_loop0 $end
$var integer 32 / i [31:0] $end
$upscope $end
$scope begin $ivl_for_loop1 $end
$var integer 32 0 i [31:0] $end
$upscope $end
$scope begin $ivl_for_loop2 $end
$var integer 32 1 i [31:0] $end
$upscope $end
$upscope $end
$enddefinitions $end
$comment Show the parameter values. $end
$dumpall
$end
#0
$dumpvars
b0 1
b0 0
b0 /
bx .
bx -
bx ,
bx +
b0 *
0)
0(
0'
b0 &
0%
bx $
x#
x"
x!
$end
#10000
1%
#20000
0%
1(
#30000
0!
1"
b0 $
b0 ,
b111 +
b0 -
b0 .
1%
#40000
0%
0(
#50000
1%
#60000
0%
b10101010 &
b10101010 *
1)
b11111111 /
#70000
0"
b1000 $
b1000 ,
b1 .
1%
#80000
0%
b11111110 /
#90000
b10000 $
b10000 ,
b10 .
1%
#100000
0%
b11111101 /
#110000
1!
b11000 $
b11000 ,
b11 .
1%
#120000
0%
b11111100 /
#130000
1%
#140000
0%
b11111011 /
#150000
1%
#160000
0%
b11111010 /
#170000
1%
#180000
0%
b11111001 /
#190000
1%
#200000
0%
b11111000 /
#210000
1%
#220000
0%
b11110111 /
#230000
1%
#240000
0%
b11110110 /
#250000
1%
#260000
0%
1'
0)
b11110101 /
#270000
b110 +
b10111 $
b10111 ,
1#
1%
#280000
0%
b1 0
#290000
b101 +
b10110 $
b10110 ,
0#
1%
#300000
0%
b10 0
#310000
b100 +
b10101 $
b10101 ,
1#
1%
#320000
0%
b11 0
#330000
b11 +
b10100 $
b10100 ,
0#
1%
#340000
0%
b100 0
#350000
b10 +
b10011 $
b10011 ,
1#
1%
#360000
0%
b101 0
#370000
b1 +
b10010 $
b10010 ,
0#
1%
#380000
0%
b110 0
#390000
b0 +
b10001 $
b10001 ,
1#
1%
#400000
0%
b111 0
#410000
0!
b1 -
b111 +
b10000 $
b10000 ,
0#
1%
#420000
0%
b1000 0
#430000
b110 +
b1111 $
b1111 ,
1#
1%
#440000
0%
b1001 0
#450000
b101 +
b1110 $
b1110 ,
0#
1%
#460000
0%
b1010 0
#470000
b100 +
b1101 $
b1101 ,
1#
1%
#480000
0%
b1011 0
#490000
b11 +
b1100 $
b1100 ,
0#
1%
#500000
0%
b1100 0
#510000
b10 +
b1011 $
b1011 ,
1#
1%
#520000
0%
b1101 0
#530000
b1 +
b1010 $
b1010 ,
0#
1%
#540000
0%
b1110 0
#550000
b0 +
b1001 $
b1001 ,
1#
1%
#560000
0%
b1111 0
#570000
b10 -
b111 +
b1000 $
b1000 ,
0#
1%
#580000
0%
b10000 0
#590000
b110 +
b111 $
b111 ,
1#
1%
#600000
0%
b10001 0
#610000
b101 +
b110 $
b110 ,
0#
1%
#620000
0%
b10010 0
#630000
b100 +
b101 $
b101 ,
1#
1%
#640000
0%
b10011 0
#650000
b11 +
b100 $
b100 ,
0#
1%
#660000
0%
b10100 0
#670000
b10 +
b11 $
b11 ,
1#
1%
#680000
0%
b10101 0
#690000
b1 +
b10 $
b10 ,
0#
1%
#700000
0%
b10110 0
#710000
b0 +
b1 $
b1 ,
1#
1%
#720000
0%
b10111 0
#730000
1"
b11 -
b111 +
b0 $
b0 ,
0#
1%
#740000
0%
b11000 0
#750000
1%
#760000
0%
b11001 0
#770000
1%
#780000
0%
b11010 0
#790000
1%
#800000
0%
b11011 0
#810000
1%
#820000
0%
b11100 0
#830000
1%
#840000
0%
b11101 0
#850000
1%
#860000
0%
b11110 0
#870000
1%
#880000
0%
b11111 0
#890000
1%
#900000
0%
b100000 0
#910000
1%
#920000
0%
b100001 0
#930000
1%
#940000
0%
b100010 0
#950000
1%
#960000
0%
b100011 0
#970000
1%
#980000
0%
b100100 0
#990000
1%
#1000000
0%
b100101 0
#1010000
1%
#1020000
0%
b100110 0
#1030000
1%
#1040000
0%
b100111 0
#1050000
1%
#1060000
0%
b101000 0
#1070000
1%
#1080000
0%
b101001 0
#1090000
1%
#1100000
0%
b101010 0
#1110000
1%
#1120000
0%
b101011 0
#1130000
1%
#1140000
0%
b101100 0
#1150000
1%
#1160000
0%
b101101 0
#1170000
1%
#1180000
0%
b101110 0
#1190000
1%
#1200000
0%
b101111 0
#1210000
1%
#1220000
0%
b110000 0
#1230000
1%
#1240000
0%
b110001 0
#1250000
1%
#1260000
0%
1)
b11111111 1
0'
b110010 0
#1270000
0"
b1000 $
b1000 ,
b100 .
1%
#1280000
0%
b11111110 1
#1290000
b10000 $
b10000 ,
b101 .
1%
#1300000
0%
b11111101 1
#1310000
b11000 $
b11000 ,
b110 .
1%
#1320000
0%
b11111100 1
#1330000
b100000 $
b100000 ,
b111 .
1%
#1340000
0%
b11111011 1
#1350000
b101000 $
b101000 ,
b0 .
1%
#1360000
0%
b11111010 1
#1370000
b110000 $
b110000 ,
b1 .
1%
#1380000
0%
b11111001 1
#1390000
b111000 $
b111000 ,
b10 .
1%
#1400000
0%
b11111000 1
#1410000
1"
b1000000 $
b1000000 ,
b11 .
1%
#1420000
0%
b11110111 1
#1430000
0"
b1001000 $
b1001000 ,
b100 .
1%
#1440000
0%
b11110110 1
#1450000
b1010000 $
b1010000 ,
b101 .
1%
#1460000
0%
b11110101 1
