Sam/test_builds/parser_v2/sim/fifo_muxer_sim.vcd
$date
	Mon Dec 05 00:57:33 2022
$end
$version
	Icarus Verilog
$end
$timescale
	1ps
$end
$scope module sf_parser_tb $end
$var wire 1 ! sf_parser_flag $end
$var wire 576 " scalefac_s [575:0] $end
$var wire 336 # scalefac_l [335:0] $end
$var wire 4 $ parser_out_valid [3:0] $end
$var wire 1 % hf_decoder_flag $end
$var wire 1 & gr $end
$var wire 1 ' fifo_dout_v $end
$var wire 1 ( fifo_dout $end
$var wire 16 ) fifo_data_count [15:0] $end
$var wire 1 * ch $end
$var reg 8 + block_type [7:0] $end
$var reg 1 , clk $end
$var reg 9 - main_data_begin [8:0] $end
$var reg 4 . mixed_block_flag [3:0] $end
$var reg 48 / part2_3_length [47:0] $end
$var reg 1 0 rst $end
$var reg 16 1 scalefac_compress [15:0] $end
$var reg 8 2 scfsi [7:0] $end
$var reg 1 3 si_data_valid $end
$var reg 4 4 window_switching_flag [3:0] $end
$scope module UUT_muxer $end
$var wire 1 , clk $end
$var wire 9 5 main_data_begin [8:0] $end
$var wire 48 6 part2_3_length [47:0] $end
$var wire 1 0 rst $end
$var wire 4 7 sf_parser_axiov [3:0] $end
$var wire 1 3 si_valid_in $end
$var wire 1 & gr $end
$var wire 16 8 fifo_sample_count [15:0] $end
$var wire 1 ' fifo_dout_v $end
$var wire 1 * ch $end
$var reg 16 9 bit_counter [15:0] $end
$var reg 2 : grch [1:0] $end
$var reg 1 % hf_decoder_flag $end
$var reg 9 ; main_data_begin_save [8:0] $end
$var reg 48 < part2_3_length_save [47:0] $end
$var reg 1 ! sf_parser_flag $end
$var reg 2 = stage [1:0] $end
$var reg 12 > target_p23_length [11:0] $end
$var reg 1 ? target_sf_axiov $end
$upscope $end
$scope module parser_1 $end
$var wire 1 @ axiiv $end
$var wire 8 A block_type_in [7:0] $end
$var wire 1 , clk $end
$var wire 4 B mixed_block_flag_in [3:0] $end
$var wire 1 0 rst $end
$var wire 16 C scalefac_compress_in [15:0] $end
$var wire 8 D scfsi_in [7:0] $end
$var wire 1 3 si_valid $end
$var wire 4 E window_switching_flag_in [3:0] $end
$var wire 3 F shift_2 [2:0] $end
$var wire 3 G shift_1 [2:0] $end
$var wire 1 ( axiid $end
$var parameter 32 H CH $end
$var parameter 32 I GR $end
$var reg 1 J axiov $end
$var reg 32 K bit_counter [31:0] $end
$var reg 3 L bitlen_1 [2:0] $end
$var reg 3 M bitlen_2 [2:0] $end
$var reg 2 N block_type [1:0] $end
$var reg 4 O buffer [3:0] $end
$var reg 1 P mixed_block_flag $end
$var reg 4 Q scalefac_compress [3:0] $end
$var reg 84 R scalefac_l [83:0] $end
$var reg 144 S scalefac_s [143:0] $end
$var reg 4 T scfsi [3:0] $end
$var reg 1 U window_switching_flag $end
$upscope $end
$scope module parser_2 $end
$var wire 1 V axiiv $end
$var wire 8 W block_type_in [7:0] $end
$var wire 1 , clk $end
$var wire 4 X mixed_block_flag_in [3:0] $end
$var wire 1 0 rst $end
$var wire 16 Y scalefac_compress_in [15:0] $end
$var wire 8 Z scfsi_in [7:0] $end
$var wire 1 3 si_valid $end
$var wire 4 [ window_switching_flag_in [3:0] $end
$var wire 3 \ shift_2 [2:0] $end
$var wire 3 ] shift_1 [2:0] $end
$var wire 1 ( axiid $end
$var parameter 32 ^ CH $end
$var parameter 32 _ GR $end
$var reg 1 ` axiov $end
$var reg 32 a bit_counter [31:0] $end
$var reg 3 b bitlen_1 [2:0] $end
$var reg 3 c bitlen_2 [2:0] $end
$var reg 2 d block_type [1:0] $end
$var reg 4 e buffer [3:0] $end
$var reg 1 f mixed_block_flag $end
$var reg 4 g scalefac_compress [3:0] $end
$var reg 84 h scalefac_l [83:0] $end
$var reg 144 i scalefac_s [143:0] $end
$var reg 4 j scfsi [3:0] $end
$var reg 1 k window_switching_flag $end
$upscope $end
$scope module parser_3 $end
$var wire 1 l axiiv $end
$var wire 8 m block_type_in [7:0] $end
$var wire 1 , clk $end
$var wire 4 n mixed_block_flag_in [3:0] $end
$var wire 1 0 rst $end
$var wire 16 o scalefac_compress_in [15:0] $end
$var wire 8 p scfsi_in [7:0] $end
$var wire 1 3 si_valid $end
$var wire 4 q window_switching_flag_in [3:0] $end
$var wire 3 r shift_2 [2:0] $end
$var wire 3 s shift_1 [2:0] $end
$var wire 1 ( axiid $end
$var parameter 32 t CH $end
$var parameter 32 u GR $end
$var reg 1 v axiov $end
$var reg 32 w bit_counter [31:0] $end
$var reg 3 x bitlen_1 [2:0] $end
$var reg 3 y bitlen_2 [2:0] $end
$var reg 2 z block_type [1:0] $end
$var reg 4 { buffer [3:0] $end
$var reg 1 | mixed_block_flag $end
$var reg 4 } scalefac_compress [3:0] $end
$var reg 84 ~ scalefac_l [83:0] $end
$var reg 144 !" scalefac_s [143:0] $end
$var reg 4 "" scfsi [3:0] $end
$var reg 1 #" window_switching_flag $end
$upscope $end
$scope module parser_4 $end
$var wire 1 $" axiiv $end
$var wire 8 %" block_type_in [7:0] $end
$var wire 1 , clk $end
$var wire 4 &" mixed_block_flag_in [3:0] $end
$var wire 1 0 rst $end
$var wire 16 '" scalefac_compress_in [15:0] $end
$var wire 8 (" scfsi_in [7:0] $end
$var wire 1 3 si_valid $end
$var wire 4 )" window_switching_flag_in [3:0] $end
$var wire 3 *" shift_2 [2:0] $end
$var wire 3 +" shift_1 [2:0] $end
$var wire 1 ( axiid $end
$var parameter 32 ," CH $end
$var parameter 32 -" GR $end
$var reg 1 ." axiov $end
$var reg 32 /" bit_counter [31:0] $end
$var reg 3 0" bitlen_1 [2:0] $end
$var reg 3 1" bitlen_2 [2:0] $end
$var reg 2 2" block_type [1:0] $end
$var reg 4 3" buffer [3:0] $end
$var reg 1 4" mixed_block_flag $end
$var reg 4 5" scalefac_compress [3:0] $end
$var reg 84 6" scalefac_l [83:0] $end
$var reg 144 7" scalefac_s [143:0] $end
$var reg 4 8" scfsi [3:0] $end
$var reg 1 9" window_switching_flag $end
$upscope $end
$scope module sim_unit $end
$var wire 1 , clk $end
$var wire 11527 :" ds_store [11526:0] $end
$var wire 1 ;" rea $end
$var wire 1 0 rst $end
$var reg 16 <" data_count [15:0] $end
$var reg 1 ( data_out $end
$var reg 1 ' data_valid $end
$var reg 16 =" index [15:0] $end
$upscope $end
$upscope $end
$enddefinitions $end
$comment Show the parameter values. $end
$dumpall
b1 -"
b1 ,"
b1 u
b0 t
b0 _
b1 ^
b0 I
b0 H
$end
#0
$dumpvars
bx ="
bx <"
x;"
b100110000000001100100101000000010010000000000000000000010000100100101000000001000000001000000000011011110010101111001100011011111010001000101100011110001100000111110000011001001100001011111110001111100010000000011011000100000110011000001101000101011100001011000000000000011001011010100000111000011000010000000000011010011001101000100001011010011000100111000100111000001111000101111010110000100100000111000110010000111001111000001110001010000101111101010010010100111100011000001110010010111010111000011000110101000000110000110000011010000110100100001001010000110010010000001000110010100101100101011111001010101010111001011000010011101010111011010001100111001011000101100100011001010000000111100000001110000110000100000011100100110000000101000110001100110101010000011101011000011100001000010000100010101011000101001100000001000001100000100110001011000000101000110010011000100010000010011010010000001010010001000001010010111111110010011000000001100010010001110000101000100110011000001010010110101110000000101000001100011010010100101010101000101001011010001010011101001101010100100000110101100111000011001001010101100010101100100110011011101110101110110001000110010101001001101101110010110110011011101011000010000000010000000001011101010100101111010011111001000000101000000101100100010001011000000110101000111111001111111110111111100011110101010101010101011111001011111101001001100100000011010001010110001110101110110110111001111000000010001101100000001000101110100100000111000011001010110010010110001001001000000100100111111011010101110110110010011110000000101001000011001011011001100110011110101010110100000100001100101111000101011010100010010101111110000000111000011110100011011010110000000100000001101001101011101100010111011100011010001101010010110110100011011011111010100110010111011000101111110010001010101100010011100111000110010101111001010001101101101001100100110110111100100011100001010000000010111111011011110100010100001011100000110001011110010101101111111011001010001000110100100110010110100000001111001010000000010011010101100101011101101010010111101100101010011001110000100011100000101000000111000110101010011010010110110000110001000100011000011110100101100101101010010110010111011000001100100011011100000010101100100000100111000111100111100111101001100110000001110110111000010101101001000111100010110101111101110111000111010001011101011101110010111000111010111111000011010111110110011101101010000010001101001100010010101100100011011100001110100011010001001100000110000000000101111010001000101100001110100100110110011001100010110010001111100111011001011101010010010011100101111110110111010010111010110000101001011000011011101101111000010011111100001111110110111011000101100011000111111111111111111111111111111111111110001111010011110100100010101111010011110100010000101011101111110010110011011110010000001110110101000000001011011111101101111111000000100011101101010000111011010110110011111111111111111111111111111111111111010011111000001011100001100100010000001101011110100000101000001100000011100011100011100001100001010100000110000010100001011010111011000100001111100100100000000100111001110010110000000001000001110001101110001001000010010000101100110000010000101001010000010000000000001001010001000101001001110001001101000000000000000000001000100010001000001100100010100100001000000000110100000011000000010111110011000100100000000011100000001100100011110000010011100100110000010000010000010100010011001111111101000101110001001100010011000000010000000000110000000010110000000101010011000000100100000001100101001001100000110000010011000000100001000000010110001100000110100000000101111101001000001100101000000010101100010101011110011000001011100000000000100100001001001100000110001000000000010000101111110010000101000001010011000011010001100101100000010000101000001010100001100110110110000110111000011000100011010011001100001010100110010010100000111010000100110010000100110101101001100100001001100000011100101010011011111010110000011100111100110100101001110111000011101001011000011011101010101011100000011111000011001110101100101000010010001011010000011111011100001001001111100100110001100001010011100110000000000111101000010100101011010010101010010000000100001000001101000101010011101001011001100010000101010000000011010010011110000001001001010011001110001001001100100111010001000100110001010100001101111001110100101101100110011101001111001010100110010010101111101101000100110001100100001100101011011100010000011110001100010000110111010100110000000011000010000100000111111001010100000001010000010011011010000011011001010011000000111010000010110101001000101111011001101110101011101001001001000000001010010000100001011100110110101110101100010010011010001100001000001001100001111011010110110110010100101101101001011110101001101011100100101001100100000110001010010001000011010111001001011010111110000100111011000101000111011010011101011010000010010110100010110000000111000100000001000000001000110100110001110010110111000111010100011110011110110010000001000110011100101101001110100010000011110010110001010111000001000101011110000001110111010011100100000100111110111000100100111000111001001011010110101000101011010010001111101001001010001011010100110111010011110000111010101100000110001111010011101011111100011011000110000010100000110100110100100100011010000000110000100001010101011101000110101101110000110010111101011100010110011100100010000111001001011001001001101001110010011101100100001011101101110001101110101100111111111100001111101100010000011111110010000110111000100101000110010110100111110001110001100100101100011001011001010011000111001001011101000010011010110011111100010011001011100010001111111111000010100100010000010100100110110011011101000111010100101000010000100000000011101000000000101010000010100011111110000111000001101011000000010000010110110100111110100010100110001100101001101110011111110111001011111010111101001001111110000101010111001110101001010001110111111100101010000110101111001011111111111111111111111111111111111111111001011010101101110110010100110001110010000010000111011000100101111011100111101100001100100100000011111010110010110101110010000111100010100011001101001101000100100101101010110000001101111111111111111111111111111111111111000011011001100011000000001010100001011010001110111011000011111000101101000011010111011100110001100101110001110000010100001110110100100001011110100011110101010110110110100111110000100001100001101011101110101000000000010101001101001111001010110000111010010000111010001010100010111011010111010010010111001111010001101100100101000000000110101100110000000011000101010000000110000110001101000000000000000101101010000011010000111110011100110110100100000000100011001000110011101010000100110111110011100111001010010101001000000010100101000000010011110100011100111010111010010000011001010000101100110000011100011110010010100010101000000011100100101101000100000101101000100001100101110010110101000000001000001010111101110001100011011011000011110011000000110101000011010111100110011011011101010110001101111110100010111111100011010011010111100111011110010101011111001100101110011101011001111001011001000100010000000000010101011001000000001011010000100110001110101001100101010100110100010000011001100011001111101010001001011001101110101000110100000001110110010100011110110110011010001100100001011100011101010110000101100010000011010010001000011110111011011000100111000111000111100000011010101010111011111011111001001101111000101111001101111111101000110111000010100101001101110101001101001000010000111001011100010110011010110010101011000000110010101000100100001010001110000100010100010100101000101000111011000101100111011001100101100101110110001010110010111110111100101001100001001010110111001110100011011011100011110000111001000010111001111110100000101011110001001010101010111010110011101101101100011110011101011111001001111111011010110101011110010010010000110101001100010010101010100000101000111010000110000010000110100101010000110011010011010101101010110011101101101111000111111110101010101101100110101111101010000101110111111010001111000111001111000010111101000000000101001011100111011000101110011000110011100101001011011101101111110001011110111101001011101010001010000110001000010001001000111100000110010111110001010001111101011000000110111001000100001101111100100101101101000111010100101100010010101110101001110110100000101011010000111101100101001110110100100100010101101001111011000101101010011111100110101010011111010101100110010111010101101011110110010110001100110001001001111001011001001110110011111101001111010011010011001110101110010101001000110111001011101010101101001001000101011001101011000010100000100101011101111011111111111111111111111111111111111110100100101000011001000011010011110101001000011111101011010100011101011110010110110101011110110111011011100111011010110101011010100011111011111111111111111111111111111111111111001101110100000101000001010100101001001001110111011101010110100101110001101010011001011111110110110011011101101001101011100111000011001000101000100110000111011101001001100000100110011100110101010101001101010101100100011100100101000010011000000000110000000011010011010011000000000100001101000010110101001100110010110000001000001010110010100001101000000000110100100000110001100000110000000001001011110011000101001000000001101001110010011000110100001100100011011100011010101000100000000001010100000001101000010010111010101000110010110110110000101100110110000110011000100000101100100000110100000110011001010100100111100010000000100111110100110010000100101110010011001011000110000101001011110010100001011101010011101101100101101011110011001010010111001011101011010100110111011001110000110110100100101111010010101001011101100101101111010110010010101110111000110000110100101101010100101001000001010000111100101110011110101111100001001101001001100110101100010000100001111101101110011100011110100011010011101110010100110011111010101010101100001011100010101001111110001000100111101010100111001011110100001111010101011110111110001011010000101010001000110011111100110010111101011101001101010111101001000001101000001100010001101000000001010000000101010000010001010100000010100001110010001101000011110111110100110011111101010011011100100111100101111100010001100000011010011110011111111010000110111010011110010101110010100110110101010001001110010001011101011101111101100111011100110001000001110100000000010110001010110111110100111100100101011111111011011011111110110110001010011110100111101001111010010010001000011000001111110101001100110000110100110011110001100101011100000000001101110000100001101101110000111000011011011101110010101111000100111000011011101001001011110101111011100101101110101101001111011001010110111001100110100011110000101110010101011100011001111010111111001011011001011011001010011001011101001011001001001111000100101000011001100000100010001110010010011110001010101111011011001010011000101101000011010100010011011100100001101001100100000110010101011000010001011010101100010111101100001010000010100001110010110000101100110100010110111110111101110111001010001101010001001111001110100101100101001101001001001001111001011011011101101011111001110110001001010111011001101111010101111111110000101111010110111010011010100101100111111011111101100010101111011100101001001111111111010110011111111111111111111111111111111111111101010011001110011001101001110111001010110101010001111001110110111001011011001111010011000101011111001011011110010110111100101100101111111111111111111111111111111111111100101100101101010011011110011101000011001100111101110010101001001011011110111011010101001011010100101011011010111011011110 :"
x9"
bx 8"
bx 7"
bx 6"
bx 5"
x4"
bx 3"
bx 2"
bx 1"
bx 0"
bx /"
x."
bx +"
bx *"
b1111 )"
b0 ("
b1111111111011101 '"
b0 &"
b10101010 %"
x$"
x#"
bx ""
bx !"
bx ~
bx }
x|
bx {
bx z
bx y
bx x
bx w
xv
bx s
bx r
b1111 q
b0 p
b1111111111011101 o
b0 n
b10101010 m
xl
xk
bx j
bx i
bx h
bx g
xf
bx e
bx d
bx c
bx b
bx a
x`
bx ]
bx \
b1111 [
b0 Z
b1111111111011101 Y
b0 X
b10101010 W
xV
xU
bx T
bx S
bx R
bx Q
xP
bx O
bx N
bx M
bx L
bx K
xJ
bx G
bx F
b1111 E
b0 D
b1111111111011101 C
b0 B
b10101010 A
x@
x?
bx >
bx =
bx <
bx ;
bx :
bx 9
bx 8
bx 7
b101000011000100111110111110001110101110010000011 6
b111101011 5
b1111 4
03
b0 2
b1111111111011101 1
00
b101000011000100111110111110001110101110010000011 /
b0 .
b111101011 -
0,
b10101010 +
x*
bx )
x(
x'
x&
x%
bx $
bx #
bx "
x!
$end
#10000
1,
#20000
0,
10
#30000
0;"
0$"
0l
0V
0@
0&
0*
0%
0!
0'
0(
b10110100000110 ="
b10110100000111 )
b10110100000111 8
b10110100000111 <"
b0 /"
b0 3"
b0 7"
b0 6"
b0 w
b0 {
b0 !"
b0 ~
b0 a
b0 e
b0 i
b0 h
b0 K
b0 O
b0 "
b0 S
b0 #
b0 R
b0 9
b0 :
b0 =
1,
#40000
0,
00
#50000
1,
#60000
0,
#70000
1,
#80000
0,
13
#90000
b110010000011 >
0?
0J
b1 F
b11 M
b1 G
b11 L
0`
b1 \
b11 c
b1 ]
b11 b
0v
b1 r
b11 y
b0 s
b100 x
b0 $
b0 7
0."
b1 *"
b11 1"
b0 +"
b100 0"
b1 =
b101000011000100111110111110001110101110010000011 <
b111101011 ;
b0 T
0P
b10 N
1U
b1101 Q
b0 j
0f
b10 d
1k
b1101 g
b0 ""
0|
b10 z
1#"
b1111 }
b0 8"
04"
b10 2"
19"
b1111 5"
1,
#100000
0,
03
#110000
1;"
1!
b10 =
1,
#120000
0,
#130000
1@
b10110100000101 ="
b10110100000110 )
b10110100000110 8
b10110100000110 <"
1'
1,
#140000
0,
#150000
b10110100000100 ="
b10110100000101 )
b10110100000101 8
b10110100000101 <"
b1 K
b1 9
1,
#160000
0,
#170000
b10 9
b10 K
b10110100000011 ="
b10110100000100 )
b10110100000100 8
b10110100000100 <"
1,
#180000
0,
#190000
b10110100000010 ="
b10110100000011 )
b10110100000011 8
b10110100000011 <"
b11 K
b11 9
1,
#200000
0,
#210000
b100 9
b100 K
b10110100000001 ="
b10110100000010 )
b10110100000010 8
b10110100000010 <"
1,
#220000
0,
#230000
b10110100000000 ="
b10110100000001 )
b10110100000001 8
b10110100000001 <"
b101 K
b101 9
1,
#240000
0,
#250000
b110 9
b110 K
b10110011111111 ="
b10110100000000 )
b10110100000000 8
b10110100000000 <"
1,
#260000
0,
#270000
b10110011111110 ="
b10110011111111 )
b10110011111111 8
b10110011111111 <"
b111 K
b111 9
1,
#280000
0,
#290000
b1000 9
b1000 K
b10110011111101 ="
b10110011111110 )
b10110011111110 8
b10110011111110 <"
1,
#300000
0,
#310000
b10110011111100 ="
b10110011111101 )
b10110011111101 8
b10110011111101 <"
b1001 K
b1001 9
1,
#320000
0,
#330000
b1010 9
b1010 K
b10110011111011 ="
b10110011111100 )
b10110011111100 8
b10110011111100 <"
1,
#340000
0,
#350000
b10110011111010 ="
b10110011111011 )
b10110011111011 8
b10110011111011 <"
b1011 K
b1011 9
1,
#360000
0,
#370000
b1100 9
b1100 K
b10110011111001 ="
b10110011111010 )
b10110011111010 8
b10110011111010 <"
1,
#380000
0,
#390000
b10110011111000 ="
b10110011111001 )
b10110011111001 8
b10110011111001 <"
1(
b1101 K
b1101 9
1,
#400000
0,
#410000
b1110 9
b1110 K
b1 O
b10110011110111 ="
b10110011111000 )
b10110011111000 8
b10110011111000 <"
0(
1,
#420000
0,
#430000
b10110011110110 ="
b10110011110111 )
b10110011110111 8
b10110011110111 <"
b1111 K
b10 O
b1111 9
1,
#440000
0,
#450000
b10000 9
b100000000000000000 "
b100000000000000000 S
b10000 K
b100 O
b10110011110101 ="
b10110011110110 )
b10110011110110 8
b10110011110110 <"
1(
1,
#460000
0,
#470000
b10110011110100 ="
b10110011110101 )
b10110011110101 8
b10110011110101 <"
b10001 K
b1001 O
b10001 9
1,
#480000
0,
#490000
b10010 9
b10010 K
b11 O
b10110011110011 ="
b10110011110100 )
b10110011110100 8
b10110011110100 <"
0(
1,
#500000
0,
#510000
b10110011110010 ="
b10110011110011 )
b10110011110011 8
b10110011110011 <"
b1100100000000000000000 "
b1100100000000000000000 S
b10011 K
b110 O
b10011 9
1,
#520000
0,
#530000
b10100 9
b10100 K
b1100 O
b10110011110001 ="
b10110011110010 )
b10110011110010 8
b10110011110010 <"
1,
#540000
0,
#550000
b10110011110000 ="
b10110011110001 )
b10110011110001 8
b10110011110001 <"
b10101 K
b1000 O
b10101 9
1,
#560000
0,
#570000
b10110 9
b10110 K
b0 O
b10110011101111 ="
b10110011110000 )
b10110011110000 8
b10110011110000 <"
1,
#580000
0,
#590000
b10110011101110 ="
b10110011101111 )
b10110011101111 8
b10110011101111 <"
b10111 K
b10111 9
1,
#600000
0,
#610000
b11000 9
b11000 K
b10110011101101 ="
b10110011101110 )
b10110011101110 8
b10110011101110 <"
1,
#620000
0,
#630000
b10110011101100 ="
b10110011101101 )
b10110011101101 8
b10110011101101 <"
b11001 K
b11001 9
1,
#640000
0,
#650000
b11010 9
b11010 K
b10110011101011 ="
b10110011101100 )
b10110011101100 8
b10110011101100 <"
1,
#660000
0,
#670000
b10110011101010 ="
b10110011101011 )
b10110011101011 8
b10110011101011 <"
1(
b11011 K
b11011 9
1,
#680000
0,
#690000
b11100 9
b11100 K
b1 O
b10110011101001 ="
b10110011101010 )
b10110011101010 8
b10110011101010 <"
1,
#700000
0,
#710000
b10110011101000 ="
b10110011101001 )
b10110011101001 8
b10110011101001 <"
0(
b11101 K
b11 O
b11101 9
1,
#720000
0,
#730000
b11110 9
b11110 K
b110 O
b10110011100111 ="
b10110011101000 )
b10110011101000 8
b10110011101000 <"
1,
#740000
0,
#750000
b10110011100110 ="
b10110011100111 )
b10110011100111 8
b10110011100111 <"
1(
b110000000000000001100100000000000000000 "
b110000000000000001100100000000000000000 S
b11111 K
b1100 O
b11111 9
1,
#760000
0,
#770000
b100000 9
b100000 K
b1001 O
b10110011100101 ="
b10110011100110 )
b10110011100110 8
b10110011100110 <"
0(
1,
#780000
0,
#790000
b10110011100100 ="
b10110011100101 )
b10110011100101 8
b10110011100101 <"
b100001 K
b10 O
b100001 9
1,
#800000
0,
#810000
b100010 9
b100110000000000000001100100000000000000000 "
b100110000000000000001100100000000000000000 S
b100010 K
b100 O
b10110011100011 ="
b10110011100100 )
b10110011100100 8
b10110011100100 <"
1(
1,
#820000
0,
#830000
b10110011100010 ="
b10110011100011 )
b10110011100011 8
b10110011100011 <"
0(
b100011 K
b1001 O
b100011 9
1,
#840000
0,
#850000
b100100 9
b100100 K
b10 O
b10110011100001 ="
b10110011100010 )
b10110011100010 8
b10110011100010 <"
1(
1,
#860000
0,
#870000
b10110011100000 ="
b10110011100001 )
b10110011100001 8
b10110011100001 <"
0(
b1000100110000000000000001100100000000000000000 "
b1000100110000000000000001100100000000000000000 S
b100101 K
b101 O
b100101 9
1,
#880000
0,
#890000
b100110 9
b100110 K
b1010 O
b10110011011111 ="
b10110011100000 )
b10110011100000 8
b10110011100000 <"
1,
#900000
0,
#910000
b10110011011110 ="
b10110011011111 )
b10110011011111 8
b10110011011111 <"
b100111 K
b100 O
b100111 9
1,
#920000
0,
#930000
b101000 9
b100001000100110000000000000001100100000000000000000 "
b100001000100110000000000000001100100000000000000000 S
b101000 K
b1000 O
b10110011011101 ="
b10110011011110 )
b10110011011110 8
b10110011011110 <"
1,
#940000
0,
#950000
b10110011011100 ="
b10110011011101 )
b10110011011101 8
b10110011011101 <"
b101001 K
b0 O
b101001 9
1,
#960000
0,
#970000
b101010 9
b101010 K
b10110011011011 ="
b10110011011100 )
b10110011011100 8
b10110011011100 <"
1,
#980000
0,
#990000
b10110011011010 ="
b10110011011011 )
b10110011011011 8
b10110011011011 <"
b101011 K
b101011 9
1,
#1000000
0,
#1010000
b101100 9
b101100 K
b10110011011001 ="
b10110011011010 )
b10110011011010 8
b10110011011010 <"
1(
1,
#1020000
0,
#1030000
b10110011011000 ="
b10110011011001 )
b10110011011001 8
b10110011011001 <"
0(
b101101 K
b1 O
b101101 9
1,
#1040000
0,
#1050000
b101110 9
b100000100001000100110000000000000001100100000000000000000 "
b100000100001000100110000000000000001100100000000000000000 S
b101110 K
b10 O
b10110011010111 ="
b10110011011000 )
b10110011011000 8
b10110011011000 <"
1,
#1060000
0,
#1070000
b10110011010110 ="
b10110011010111 )
b10110011010111 8
b10110011010111 <"
1(
b101111 K
b100 O
b101111 9
1,
#1080000
0,
#1090000
b110000 9
b110000 K
b1001 O
b10110011010101 ="
b10110011010110 )
b10110011010110 8
b10110011010110 <"
0(
1,
#1100000
0,
#1110000
b10110011010100 ="
b10110011010101 )
b10110011010101 8
b10110011010101 <"
b1000100000100001000100110000000000000001100100000000000000000 "
b1000100000100001000100110000000000000001100100000000000000000 S
b110001 K
b10 O
b110001 9
1,
#1120000
0,
#1130000
b110010 9
b110010 K
b100 O
b10110011010011 ="
b10110011010100 )
b10110011010100 8
b10110011010100 <"
1,
#1140000
0,
#1150000
b10110011010010 ="
b10110011010011 )
b10110011010011 8
b10110011010011 <"
b110011 K
b1000 O
b110011 9
1,
#1160000
0,
#1170000
b110100 9
b110100 K
b0 O
b10110011010001 ="
b10110011010010 )
b10110011010010 8
b10110011010010 <"
1,
#1180000
0,
#1190000
b10110011010000 ="
b10110011010001 )
b10110011010001 8
b10110011010001 <"
b110101 K
b110101 9
1,
#1200000
0,
#1210000
b110110 9
b110110 K
b10110011001111 ="
b10110011010000 )
b10110011010000 8
b10110011010000 <"
1,
#1220000
0,
#1230000
b10110011001110 ="
b10110011001111 )
b10110011001111 8
b10110011001111 <"
b110111 K
b110111 9
1,
#1240000
0,
#1250000
b111000 9
b111000 K
b10110011001101 ="
b10110011001110 )
b10110011001110 8
b10110011001110 <"
1,
#1260000
0,
#1270000
b10110011001100 ="
b10110011001101 )
b10110011001101 8
b10110011001101 <"
b111001 K
b111001 9
1,
#1280000
0,
#1290000
b111010 9
b111010 K
b10110011001011 ="
b10110011001100 )
b10110011001100 8
b10110011001100 <"
1,
#1300000
0,
#1310000
b10110011001010 ="
b10110011001011 )
b10110011001011 8
b10110011001011 <"
b111011 K
b111011 9
1,
#1320000
0,
#1330000
b111100 9
b111100 K
b10110011001001 ="
b10110011001010 )
b10110011001010 8
b10110011001010 <"
1,
#1340000
0,
#1350000
b10110011001000 ="
b10110011001001 )
b10110011001001 8
b10110011001001 <"
b111101 K
b111101 9
1,
#1360000
0,
#1370000
b111110 9
b111110 K
b10110011000111 ="
b10110011001000 )
b10110011001000 8
b10110011001000 <"
1,
#1380000
0,
#1390000
b10110011000110 ="
b10110011000111 )
b10110011000111 8
b10110011000111 <"
b111111 K
b111111 9
1,
#1400000
0,
#1410000
b1000000 9
b1000000 K
b10110011000101 ="
b10110011000110 )
b10110011000110 8
b10110011000110 <"
1,
#1420000
0,
#1430000
b10110011000100 ="
b10110011000101 )
b10110011000101 8
b10110011000101 <"
b1000001 K
b1000001 9
1,
#1440000
0,
#1450000
b1000010 9
b1000010 K
b10110011000011 ="
b10110011000100 )
b10110011000100 8
b10110011000100 <"
1,
#1460000
0,
#1470000
b10110011000010 ="
b10110011000011 )
b10110011000011 8
b10110011000011 <"
b1000011 K
b1000011 9
1,
#1480000
0,
#1490000
b1000100 9
b1000100 K
b10110011000001 ="
b10110011000010 )
b10110011000010 8
b10110011000010 <"
1(
1,
#1500000
0,
#1510000
b10110011000000 ="
b10110011000001 )
b10110011000001 8
b10110011000001 <"
0(
b1000101 K
b1 O
b1000101 9
1,
#1520000
0,
#1530000
b1000110 9
b10000000000000000000000000001000100000100001000100110000000000000001100100000000000000000 "
b10000000000000000000000000001000100000100001000100110000000000000001100100000000000000000 S
b1000110 K
b10 O
b10110010111111 ="
b10110011000000 )
b10110011000000 8
b10110011000000 <"
1,
#1540000
0,
#1550000
b10110010111110 ="
b10110010111111 )
b10110010111111 8
b10110010111111 <"
b1000111 K
b100 O
b1000111 9
1,
#1560000
0,
#1570000
b1001000 9
b1001000 K
b1000 O
b10110010111101 ="
b10110010111110 )
b10110010111110 8
b10110010111110 <"
1,
#1580000
0,
#1590000
b10110010111100 ="
b10110010111101 )
b10110010111101 8
b10110010111101 <"
1(
b1001001 K
b0 O
b1001001 9
1,
#1600000
0,
#1610000
b1001010 9
b1001010 K
b1 O
b10110010111011 ="
b10110010111100 )
b10110010111100 8
b10110010111100 <"
0(
1,
#1620000
0,
#1630000
b10110010111010 ="
b10110010111011 )
b10110010111011 8
b10110010111011 <"
b1001011 K
b10 O
b1001011 9
1,
#1640000
0,
#1650000
b1001100 9
b10000000010000000000000000000000000001000100000100001000100110000000000000001100100000000000000000 "
b10000000010000000000000000000000000001000100000100001000100110000000000000001100100000000000000000 S
b1001100 K
b100 O
b10110010111001 ="
b10110010111010 )
b10110010111010 8
b10110010111010 <"
1(
1,
#1660000
0,
#1670000
b10110010111000 ="
b10110010111001 )
b10110010111001 8
b10110010111001 <"
0(
b1001101 K
b1001 O
b1001101 9
1,
#1680000
0,
#1690000
b1001110 9
b1001110 K
b10 O
b10110010110111 ="
b10110010111000 )
b10110010111000 8
b10110010111000 <"
1,
#1700000
0,
#1710000
b10110010110110 ="
b10110010110111 )
b10110010110111 8
b10110010110111 <"
1(
b100010000000010000000000000000000000000001000100000100001000100110000000000000001100100000000000000000 "
b100010000000010000000000000000000000000001000100000100001000100110000000000000001100100000000000000000 S
b1001111 K
b100 O
b1001111 9
1,
#1720000
0,
#1730000
b1010000 9
b1010000 K
b1001 O
b10110010110101 ="
b10110010110110 )
b10110010110110 8
b10110010110110 <"
0(
1,
#1740000
0,
#1750000
b10110010110100 ="
b10110010110101 )
b10110010110101 8
b10110010110101 <"
1(
b1010001 K
b10 O
b1010001 9
1,
#1760000
0,
#1770000
b1010010 9
b1000100010000000010000000000000000000000000001000100000100001000100110000000000000001100100000000000000000 "
b1000100010000000010000000000000000000000000001000100000100001000100110000000000000001100100000000000000000 S
b1010010 K
b101 O
b10110010110011 ="
b10110010110100 )
b10110010110100 8
b10110010110100 <"
0(
1,
#1780000
0,
#1790000
b10110010110010 ="
b10110010110011 )
b10110010110011 8
b10110010110011 <"
b1010011 K
b1010 O
b1010011 9
1,
#1800000
0,
#1810000
b1010100 9
b1010100 K
b100 O
b10110010110001 ="
b10110010110010 )
b10110010110010 8
b10110010110010 <"
1,
#1820000
0,
#1830000
b10110010110000 ="
b10110010110001 )
b10110010110001 8
b10110010110001 <"
b100001000100010000000010000000000000000000000000001000100000100001000100110000000000000001100100000000000000000 "
b100001000100010000000010000000000000000000000000001000100000100001000100110000000000000001100100000000000000000 S
b1010101 K
b1000 O
b1010101 9
1,
#1840000
0,
#1850000
b1010110 9
b1010110 K
b0 O
b10110010101111 ="
b10110010110000 )
b10110010110000 8
b10110010110000 <"
1,
#1860000
0,
#1870000
b10110010101110 ="
b10110010101111 )
b10110010101111 8
b10110010101111 <"
b1010111 K
b1010111 9
1,
#1880000
0,
