Sam/test_builds/parser_v2/sim/hybrid_synthesis_tb.vcd
$date
	Sun Dec 11 04:54:46 2022
$end
$version
	Icarus Verilog
$end
$timescale
	1ps
$end
$scope module hybrid_synthesis_tb $end
$var wire 32 ! x_out [31:0] $end
$var wire 1 " dout_valid $end
$var reg 18432 # CODE [18431:0] $end
$var reg 2 $ block_type_in [1:0] $end
$var reg 1 % clk $end
$var reg 1 & din_valid $end
$var reg 1 ' mixed_block_flag_in $end
$var reg 1 ( new_frame_start $end
$var reg 1 ) rst $end
$var reg 1 * window_switching_flag_in $end
$var reg 32 + x_in [31:0] $end
$scope module UUT $end
$var wire 2 , block_type_in [1:0] $end
$var wire 1 % clk $end
$var wire 1 & din_valid $end
$var wire 1 ' mixed_block_flag_in $end
$var wire 1 ( new_frame_start $end
$var wire 1 ) rst $end
$var wire 1 * window_switching_flag_in $end
$var wire 32 - x_in [31:0] $end
$var wire 1152 . conv_win [1151:0] $end
$var reg 1 / READOUT_STATE $end
$var reg 1 0 STATE $end
$var reg 2 1 bt [1:0] $end
$var reg 12 2 buffer_shift [11:0] $end
$var reg 5 3 delayed_sample_counter [4:0] $end
$var reg 2 4 din_valid_pipe [1:0] $end
$var reg 1 " dout_valid $end
$var reg 1 5 gr $end
$var reg 5 6 idx [4:0] $end
$var reg 1 7 mux $end
$var reg 2 8 mux_pipe [1:0] $end
$var reg 1152 9 out_buffer_1 [1151:0] $end
$var reg 1152 : out_buffer_2 [1151:0] $end
$var reg 5 ; readout_counter [4:0] $end
$var reg 5 < sb [4:0] $end
$var reg 576 = store [575:0] $end
$var reg 32 > x_out [31:0] $end
$scope module LongWin $end
$var wire 2 ? bt [1:0] $end
$var wire 1 % clk $end
$var wire 5 @ idx [4:0] $end
$var wire 1 ) rst $end
$var wire 32 A x_in [31:0] $end
$var wire 1152 B imdct_tab [1151:0] $end
$var wire 1152 C cosine_tab [1151:0] $end
$var wire 32 D TAG_X_IN [31:0] $end
$var wire 32 E TAG_COS [31:0] $end
$var reg 1152 F OUT [1151:0] $end
$var reg 64 G x_in_pipe [63:0] $end
$scope module COS36_tab $end
$var wire 5 H addra [4:0] $end
$var wire 1 % clka $end
$var wire 1152 I dina [1151:0] $end
$var wire 1 J ena $end
$var wire 1 K regcea $end
$var wire 1 ) rsta $end
$var wire 1 L wea $end
$var wire 1152 M douta [1151:0] $end
$var parameter 152 N INIT_FILE $end
$var parameter 32 O RAM_DEPTH $end
$var parameter 128 P RAM_PERFORMANCE $end
$var parameter 32 Q RAM_WIDTH $end
$var reg 1152 R ram_data [1151:0] $end
$scope function clogb2 $end
$var integer 32 S depth [31:0] $end
$upscope $end
$scope begin output_register $end
$var reg 1152 T douta_reg [1151:0] $end
$upscope $end
$scope begin use_init_file $end
$upscope $end
$upscope $end
$scope module IMDCTWIN $end
$var wire 2 U addra [1:0] $end
$var wire 1 % clka $end
$var wire 1152 V dina [1151:0] $end
$var wire 1 W ena $end
$var wire 1 X regcea $end
$var wire 1 ) rsta $end
$var wire 1 Y wea $end
$var wire 1152 Z douta [1151:0] $end
$var parameter 168 [ INIT_FILE $end
$var parameter 32 \ RAM_DEPTH $end
$var parameter 128 ] RAM_PERFORMANCE $end
$var parameter 32 ^ RAM_WIDTH $end
$var reg 1152 _ ram_data [1151:0] $end
$scope function clogb2 $end
$var integer 32 ` depth [31:0] $end
$upscope $end
$scope begin output_register $end
$var reg 1152 a douta_reg [1151:0] $end
$upscope $end
$scope begin use_init_file $end
$upscope $end
$upscope $end
$scope begin $ivl_for_loop5 $end
$var integer 32 b i [31:0] $end
$upscope $end
$upscope $end
$scope begin $ivl_for_loop1 $end
$var integer 32 c i [31:0] $end
$upscope $end
$scope begin $ivl_for_loop2 $end
$var integer 32 d i [31:0] $end
$upscope $end
$scope begin $ivl_for_loop3 $end
$var integer 32 e i [31:0] $end
$upscope $end
$scope begin $ivl_for_loop4 $end
$var integer 32 f i [31:0] $end
$upscope $end
$upscope $end
$scope begin $ivl_for_loop0 $end
$var integer 32 g i [31:0] $end
$upscope $end
$upscope $end
$enddefinitions $end
$comment Show the parameter values. $end
$dumpall
b10010000000 ^
b1001000010010010100011101001000010111110101000001000101010100100100011001001111010100100100110101000001010011100100001101000101 ]
b100 \
b11001000110000101110100011000010010111101101001011011010110010001100011011101000101011101101001011011100101111101110100011000010110001000101110011011010110010101101101 [
b10010000000 Q
b1001000010010010100011101001000010111110101000001000101010100100100011001001111010100100100110101000001010011100100001101000101 P
b10010 O
b1100100011000010111010001100001001011110110001101101111011100110100111000110011001101100101111101110100011000010110001000101110011011010110010101101101 N
$end
#0
$dumpvars
b0 g
b0 f
b0 e
b0 d
b0 c
b100100 b
b0 a
bx `
b0 _
b0 Z
0Y
1X
1W
b0 V
b1 U
b0 T
bx S
b0 R
b0 M
0L
1K
1J
b0 I
bx H
bx G
bx F
b0 E
bx D
b0 C
b0 B
b0 A
bx @
b1 ?
bx >
bx =
bx <
bx ;
bx :
bx 9
bx 8
x7
bx 6
x5
bx 4
bx 3
b0xxxxx00000 2
b1 1
x0
x/
bx .
b0 -
b1 ,
b0 +
1*
0)
0(
0'
0&
0%
b1 $
b1100001111001110011010000000000001110010000010001111100000000000000000000000000000000111111111111000110111110111000011111111111011100000101001100101111111111110011111010001001110100111111111100001001010011001011001111111111000010010100110010110011111111110000100101001100101100111111111100001001010011001011001111111111001111101100000000101011111111110111000100100110001001111111111110011111000110110010001111111111110010010110000011001011111111111110110111011101110011111111111111110001100110100111000000000000000001101111001000001000000000000000100111101110101101000000000000111100100010001010100000000000001111001111001011100100000000000001110010010100000111000000000000011010010111011011100000000000000110111110101100011000000000000001101010011110011111000000000000111011000011010100000000000000001110011011101110100000000000000011100100000100011111000000000000111001000001000111110000000000001110010011101001100000000000000011100111010010010001000000000000111011010011100011000000000000010000100000010101100100000000000010100000001111010010000000000000110100001010110001000000000000000110100011101110000100000000000000100111101110101101000000000000111100100010001010100000000000011000001111111111011000000000000101010111100001011110000000000001011100001001110100010000000000010111000001001001101100000000000011011010100010010001000000000000111000001100111100000000000000001110001100111001100000000000000011100100000100011111000000000000010110101000001001110000000000000101100110101010010011111111111111111100110000110000111111111111111111000100101011011111111111111111011101110000101100000000000000000000000000000000111111111111110001100110100111001111111111111101101011100011111000000000000000100111101110101101000000000000111100100010001010100000000000000111101010000000101000000000000001110010010100000111000000000000000000000000000000001111111111111010010111100101011011111111111110100101100100010000111111111111000110111111010000001111111111110001101110011000110011111111111100011011111011100001111111111111000110111110111000011111111111110001110011000110100011111111111100011111001100010000111111111111001001010111011011111111111111111011101101110111001111111111111111010000011111010101111111111111111100011000010110000000000000000001101111001000001000000000000000100111101110101101000000000000111100100010001010100000000000001111001111001011100100000000000011110100111100100001000000000000111100001011101011000000000000001110101110011011100100000000000011101101001110001100000000000000111001110100100100010000000000001110010011101001100000000000000001011010100000100111000000000000010110101000001001110000000000000101101010000010010000000000000001011010100000000010000000000000010110100110111100000000000000000101000110001011010000000000000001001000100010001101000000000000001110011001011001000000000000000010010100011100001000000000000000011111000010110110111111111111100000111101001001101111111111111000010101111111011011111111111110001101101011111001111111111111100101101000100100101111111111111001110101010110000111111111111111111100010010101101111111111111111111101011011100011111111111111111111110101010010100000000000000000000000000000000000000000000000000000000000000000000000000000000000000000000000011111111111111111110101101110001000000000000010101101011100111010000000000000100010010001000110100000000000000010001110000101001000000000000010111011101110000000000000000000001000001011100110111111111111111111010000101011110111111111110001110101101101010101111111111100011101100011100011011111111111001000100101001000100111111111110011011100111010011111111111111110001010001100100011111111111111110100001110110111101111111111111101001010111111111100000000000000000000000000000000000000000000001011010100000100111000000000000111001000001000111110000000000001110010011101001100000000000000011100111010010010001000000000000111011010011100011000000000000001111100010011110000000000000000010000010011111010000000000000000100111010110110000100000000000000110101110010110100000000000000000100111101110101101000000000000111100100010001010100000000000001100100100011001010100000000000010111100001101111110000000000000110011111100110011000000000000001100110101111010011100000000000011011010100010010001000000000000111000001100111100000000000000001110001100111001100000000000000011100100000100011111000000000000111001000001000111110000000000001110010001100111010000000000000011100101010101010000000000000000111001111001011000100000000000001110101110011011100100000000000001101001011101101110000000000000011100100101000001110000000000000010101010110010010000000000000000101110100100010001000000000000010011011001110010000000000000000100111111001110011000000000000000111001100101100100000000000000010010001000100011010000000000000100010010001000110100000000000001010001000101110011000000000000010101110100001100010000000000000101100110101010010000000000000001011010100000100111000000000000010110101000001001110000000000000000000000000000000000000000000000000000000000000000000000000000000000000000000000000000000000000000000000000000000000000000000000000000000000000000111111111111101010100000110010111111111111111011000000110001101000000000000000101110100100010001000000000000010011011001110010000000000000000010101010110010010000000000000000011100010111010001000000000000000000000000000000000000000000000000000000000000000000000000000000000000000000000000000000000000000000000000000000000000000000000000000000000000000000000000000000000000000000000000000000000000000000000000000000000000000000000000000000000000000000000000000000000000000000000000000000000000000000111011010100110000000000000000100010001111010100000000000000010000011101110000000000000000000111000101110100010000000000000010101010110010010011111111111111100000111101001010000000000000011111000010110110100000000000000100111111001110011000000000000001010101111100110101000000000000010110001111111111100000000000000101101000011010101000000000000001011010011011110000000000000000000000000000000000000000000000000000000000000000000000000000000000000000000000000000111111111111101001010111110110011111111111111010010111010011011111111111111110100110110010001110111111111111101010010100011000111111111111111010111001110100110011111111111110110111011101110011111111111111110001100110100111001111111111111101101011100011111011111111111111100000111101001010000000000000011111000010110110100000000000000111101010000000101000000000000001110010010100000111000000000000011010010111011011100000000000000110001010101001111100000000000001011110001001000011000000000000010110111100100100100000000000000101101011011000000000000000000001011010100000100111000000000000000000000000000000000000000000000000000000000000000011111111111111111110101101110001111111111111111111000100101011011111111111111111011101110000101111111111111111101111100010010000111111111111111000111010001011110000000000000010010100011100001011111111111111010001011011101111111111111111101100100110001110001111111111111000010101111111011011111111111110101010000011001011111111111111101001110000000000101111111111111010010111100101011011111111111110100101100100010000111111111111101001010111111111100000000000000000000000000000000000000000000000000000000000000000000000000000000000000000000000000000000000000000000001010101101100000000000001011011110010010010000000000000010111100010010000110000000000000110001010101001111100000000000001101001011101101110000000000000000111000101110100010000000000000010101010110010010000000000000000101110100100010001000000000000010011011001110010000000000000000100111111001110011000000000000001010101111100110101000000000000010010001000100011010000000000000101000110001011010000000000000001010110101110011101000000000000010110010011011100100000000000000101101010000010010000000000000001011010100000100111000000000000010110101000001001110000000000000101101000101100100100000000000001011001001101110010000000000000010101101011100111010000000000000101000110001011010000000000000001001000100010001101000000000000001110011001011001000000000000000010010100011100001000000000000000011111000010110110111111111111100000111101001001101111111111111000010101111111011011111111111110001101101011111001111111111111100101101000100100101111111111111001110101010110000111111111111110100001110110111101111111111111101001000011011011101111111111111010010100101000000011111111111110100101011111011001111111111111101001010111110110011111111111111010010111010011011111111111111110100110110010001110111111111111101010010100011000111111111111111010111001110100110011111111111110110111011101110011111111111111110001100110100111001111111111111101101011100011111011111111111111100000111101001010000000000000011111000010110110100000000000000111101010000000101000000000000001110010010100000111000000000000011010010111011011100000000000000110001010101001111100000000000001011110001001000011000000000000010110111100100100100000000000000101101011011000000000000000000000000000000000000000000000000000000000000000000000001111111111111111111110101010010111111111111111111110101101110001111111111111111111000100101011010000000000000000000000000000000000000000000000000000000000000000000000000000000000000000000000000000000000000000000000000000000000000000000000000000000000000000000000000000000000000000000000000000000000000000000000000000000000000000000000000000000000000000000000000000000000000000000000000000000000000000000000000000000011111111111110100101100100010000111111111111101001010111111111101111111111111010010101111101110011111111111110100101011111011001111111111111101001010111110110011111111111111010010101111101110011111111111110100101011111111110111111111111101001011001000100001111111111111010010111100101011000000000000000000000000000000000000000000000000000000000000000000000000000000010101010110010010000000000000000101110100100010001000000000000010011011001110010000000000000000100111111001110011000000000000000000000000000000000000000000000000000000000000000000000000000000000100010001111010100000000000000000011101101010011000000000000000000010100100011110000000000000000000001010101101100000000000000000000000000000000000000000000000000000000000000000000000000000000000000000000000000000000000000000000000000000000000000000000000000000000000000000000000000000000000000000000000000000000000000000000000000000000000000000000000000000000000000001111111111111101010101001101110011111111111111010001011011101111111111111111101100100110001110001111111111111011000000110001101000000000000000000000000000000000000000000000000000000000000000000000000000000000000000000000000000000000000000000000000000000000000000000000000000000000000000000000000000000000000000000000000000000000000000000000000000000000000000000000010110101000001001110000000000000101101011011000000000000000000001011011110010010010000000000000010111100010010000110000000000000000000000000000000000000000000000000000000000000000000000000000000000000000000000000000000000000000000000000000000000000000000000000000000000000000000000000000000000000000000000000000000000000000000000000000000000000000000000000000000000000000000000000000000000000000000000000000000000000000000000000000000000000000000001010110101110011101000000000000010110010011011100100000000000000101101000101100100100000000000001011010100000100111000000000000010110101000001001110000000000000101101000101100100100000000000001011001001101110010000000000000010101101011100111010000000000000101000110001011010000000000000001001000100010001101000000000000001110011001011001000000000000000010010100011100001000000000000000011111000010110110111111111111100000111101001001101111111111111000010101111111011011111111111110001101101011111001111111111111100101101000100100101111111111111001110101010110000111111111111110100001110110111101111111111111101001000011011011101111111111111010010100101000000000000000000000000000000000000000000000000000000000000000000000000000000000000000000000000000000000000000000000000000000000000000000000000000000000000000000000000000000000000000000000000000000000000000000000000000000000000000000000000000000000000000000000000000000000000000000000000000000000000000000000000000000000000000000000000000000000000000000000000000000000000000000000000000000000000000000000000000000000000000000000000000000000000000000000000000000000000000000000000000000000000000000000000000000000000000000000000000000000000000000000000000000000000000000000000000000000000000000000000000000000000000000000000000000000000000000000000000000000000000000000000000000000000000000000000000000000000000000000000000000000000000000000000000000000000000000000000000000000000000000000000000000000000000000000000000000000000000000000000000000000000000000000000000000000000000000000000000000000000000000000000000000000000000000000000000000000000000000000000000000000000000000000000000000000000000000000000000000000000000000000000000000000000000000000000000000000000000000000000000000000000000000000000000000000000000000000000000000000000000000000000000000000000000000000000000000000000000000000000000000000000000000000000000000000000000000000000000000000000000000000000000000000000000000000000000000000000000000000000000000000000000000000000000000000000000000000010000011101110000000000000000000111000101110100010000000000000010101010110010010000000000000000101110100100010001000000000000010011011001110010000000000000000100111111001110011000000000000001010101111100110101000000000000010110001111111111100000000000000000000000000000000000000000000000000000000000000000000000000000000000000000000000000000000000000000000000000000000000000000000000000000000000000000000000000000000000000000000000000000000000000000000000000000000000000000000000000000000000000000000000000000000000000000000000000000000000000000000000000000000000000000000000000000000000000000000000000000000000000000000000000000000000000000000000000000000000000000000000000000000000000000000000000000000000000000000000000000000000000000000000000000000000000000000000000000000000000000000000000000000000000000000000000000000000000000000000000000000000000000000000000000000000000000000000000000000000000000000000000000000000000000000000000000000000000000000000000000000000000000000000000000000000000000000000000000000000000000000000000000000000000000000000000000000000000000000000000000000000000000000000000000000000000000000000000000000000000000000000000000000000000000000000000000000000000000000000000000000000000000000000000000000000000000000000000000000000000000000000000000000000000000000000000000000000000000000000000000000000000000000000000000000000000000000000000000000000000000000000000000000000000000000000000000000000000000000000000000000000000000000000000000000000000000000000000000000000000000000000000000000000000000000000000000000000000000000000000000000000000000000000000000000000000000000000000000000000000000000000000000000000000000000000000000000000000000000000000000000000000000000000000000000000000000000000000000000000000000000000000000000000000000000000000000000000000000000000000000000000000000000000000000000000000000000000000000000000000000000000000000000000000000000000000000000000000000000000000000000000000000000000000000000000000000000000000000000000000000000000000000000000000000000000000000000000000000000000000000000000000000000000000000000000000000000000000000000000000000000000000000000000000000000000000000000000000000000000000000000000000000000000000000000000000000000000000000000000000000000000000000000000000000000000000000000000000000000000000000000000000000000000000000000000000000000000000000000000000000000000000000000000000000000000000000000000000000000000000000000000000000000000000000000000000000000000000000000000000000000000000000000000000000000000000000000000000000000000000000000000000000000000000000000000000000000000000000000000000000000000000000000000000000000000000000000000000000000000000000000000000000000000000000000000000000000000000000000000000000000000000000000000000000000000000000000000000000000000000000000000000000000000000000000000000000000000000000000000000000000000000000000000000000000000000000000000000000000000000000000000000000000000000000000000000000000000000000000000000000000000000000000000000000000000000000000000000000000000000000000000000000000000000000000000000000000000000000000000000000000000000000000000000000000000000000000000000000000000000000000000000000000000000000000000000000000000000000000000000000000000000000000000000000000000000000000000000000000000000000000000000000000000000000000000000000000000000000000000000000000000000000000000000000000000000000000000000000000000000000000000000000000000000000000000000000000000000000000000000000000000000000000000000000000000000000000000000000000000000000000000000000000000000000000000000000000000000000000000000000000000000000000000000000000000000000000000000000000000000000000000000000000000000000000000000000000000000000000000000000000000000000000000000000000000000000000000000000000000000000000000000000000000000000000000000000000000000000000000000000000000000000000000000000000000000000000000000000000000000000000000000000000000000000000000000000000000000000000000000000000000000000000000000000000000000000000000000000000000000000000000000000000000000000000000000000000000000000000000000000000000000000000000000000000000000000000000000000000000000000000000000000000000000000000000000000000000000000000000000000000000000000000000000000000000000000000000000000000000000000000000000000000000000000000000000000000000000000000000000000000000000000000000000000000000000000000000000000000000000000000000000000000000000000000000000000000000000000000000000000000000000000000000000000000000000000000000000000000000000000000000000000000000000000000000000000000000000000000000000000000000000000000000000000000000000000000000000000000000000000000000000000000000000000000000000000000000000000000000000000000000000000000000000000000000000000000000000000000000000000000000000000000000000000000000000000000000000000000000000000000000000000000000000000000000000000000000000000000000000000000000000000000000000000000000000000000000000000000000000000000000000000000000000000000000000000000000000000000000000000000000000000000000000000000000000000000000000000000000000000000000000000000000000000000000000000000000000000000000000000000000000000000000000000000000000000000000000000000000000000000000000000000000000000000000000000000000000000000000000000000000000000000000000000000000000000000000000000000000000000000000000000000000000000000000000000000000000000000000000000000000000000 #
x"
bx !
$end
#10000
b100100 b
bx R
b10000101101010001010100000000001100001111101111000101010000000100110111101011111001010000000001100101100011001001101000000000011101100100000110101111000000000111111011100111101010101000000010000000000000000000000000000000100000000000000000000000000000001000000000000000000000000000000010000000000000000000000000000000100000000000000000000000000000001000000000000000000000000000000001111111111000001101000000000000011111101110011110101010100000000111110011110111010001001000000001111010000100110110010110000000011101100100000110101111000000000111000110001001100100100000000001101011111101000100000000000000011001011000110010011010000000000101111001011111000110101000000001010110011110011011110110000000010011011110101111100101000000000100010011000110001111000000000000111011000110101001010000000000001100001111101111000101010000000010011001111101100001110000000000011011101101000100101100100000000100001011010100010101000000000000010110010101010100011111000 _
bx00000000000000000000000000000000 G
bx0 4
1%
#20000
0%
1)
#30000
b0 !
b0 >
b0 2
b0 .
b0 F
b100100 b
b0 D
b0 3
0/
0"
00
07
05
b0 ;
b0 6
b0 @
b0 H
b0 <
b0 =
b0 :
b0 9
b0 G
b100100 c
1%
#40000
0%
0)
#50000
bx E
bx .
bx F
b100100 b
bx C
bx M
bx T
b110100001101000001110010110000001100110100111001101100110000000011001010000001011110000000000000110001110011101100110111000000001100010011011111001010001000000011000010111101100100110101000000110000011000010001011101110000001100000010001100001010101100000011000000000011111001100000000000110000000000111110011000000000001100000010001100001010101100000011000001100001000101110111000000110000101111011001001101010000001100010011011111001010001000000011000111001110110011011100000000110010100000010111100000000000001100110100111001101100110000000011010000110100000111001011000000110101001100001100100001010000001101100100001010000011011000000011011101100111001110001000000000111000100111001010110110000000001110011110000010000111010110000011101100110000010011110010000000111100100010010111011010011100001111011110100101011101011000000011111101001101010101011100001000000000101100101010101000111110000000100001011010100010101000000000001101110110100010010110010000000100110011111011000011100000000001100001111101111000101010000000011101100011010100101000000000001000100110001100011110000000000010011011110101111100101000000000101011001111001101111011000000 R
b10000101101010001010100000000001100001111101111000101010000000100110111101011111001010000000001100101100011001001101000000000011101100100000110101111000000000111111011100111101010101000000010000000000000000000000000000000100000000000000000000000000000001000000000000000000000000000000010000000000000000000000000000000100000000000000000000000000000001000000000000000000000000000000001111111111000001101000000000000011111101110011110101010100000000111110011110111010001001000000001111010000100110110010110000000011101100100000110101111000000000111000110001001100100100000000001101011111101000100000000000000011001011000110010011010000000000101111001011111000110101000000001010110011110011011110110000000010011011110101111100101000000000100010011000110001111000000000000111011000110101001010000000000001100001111101111000101010000000010011001111101100001110000000000011011101101000100101100100000000100001011010100010101000000000000010110010101010100011111000 B
b10000101101010001010100000000001100001111101111000101010000000100110111101011111001010000000001100101100011001001101000000000011101100100000110101111000000000111111011100111101010101000000010000000000000000000000000000000100000000000000000000000000000001000000000000000000000000000000010000000000000000000000000000000100000000000000000000000000000001000000000000000000000000000000001111111111000001101000000000000011111101110011110101010100000000111110011110111010001001000000001111010000100110110010110000000011101100100000110101111000000000111000110001001100100100000000001101011111101000100000000000000011001011000110010011010000000000101111001011111000110101000000001010110011110011011110110000000010011011110101111100101000000000100010011000110001111000000000000111011000110101001010000000000001100001111101111000101010000000010011001111101100001110000000000011011101101000100101100100000000100001011010100010101000000000000010110010101010100011111000 Z
b10000101101010001010100000000001100001111101111000101010000000100110111101011111001010000000001100101100011001001101000000000011101100100000110101111000000000111111011100111101010101000000010000000000000000000000000000000100000000000000000000000000000001000000000000000000000000000000010000000000000000000000000000000100000000000000000000000000000001000000000000000000000000000000001111111111000001101000000000000011111101110011110101010100000000111110011110111010001001000000001111010000100110110010110000000011101100100000110101111000000000111000110001001100100100000000001101011111101000100000000000000011001011000110010011010000000000101111001011111000110101000000001010110011110011011110110000000010011011110101111100101000000000100010011000110001111000000000000111011000110101001010000000000001100001111101111000101010000000010011001111101100001110000000000011011101101000100101100100000000100001011010100010101000000000000010110010101010100011111000 a
b0 4
bx0 8
1%
#60000
0%
b110000111100111001101 +
b110000111100111001101 -
b110000111100111001101 A
1&
#70000
b101011001111001101111011000000 E
b0 .
b0 F
b100100 b
b1 6
b1 @
b1 H
b1 4
b0 8
b110000111100111001101 G
b110100001101000001110010110000001100110100111001101100110000000011001010000001011110000000000000110001110011101100110111000000001100010011011111001010001000000011000010111101100100110101000000110000011000010001011101110000001100000010001100001010101100000011000000000011111001100000000000110000000000111110011000000000001100000010001100001010101100000011000001100001000101110111000000110000101111011001001101010000001100010011011111001010001000000011000111001110110011011100000000110010100000010111100000000000001100110100111001101100110000000011010000110100000111001011000000110101001100001100100001010000001101100100001010000011011000000011011101100111001110001000000000111000100111001010110110000000001110011110000010000111010110000011101100110000010011110010000000111100100010010111011010011100001111011110100101011101011000000011111101001101010101011100001000000000101100101010101000111110000000100001011010100010101000000000001101110110100010010110010000000100110011111011000011100000000001100001111101111000101010000000011101100011010100101000000000001000100110001100011110000000000010011011110101111100101000000000101011001111001101111011000000 C
b110100001101000001110010110000001100110100111001101100110000000011001010000001011110000000000000110001110011101100110111000000001100010011011111001010001000000011000010111101100100110101000000110000011000010001011101110000001100000010001100001010101100000011000000000011111001100000000000110000000000111110011000000000001100000010001100001010101100000011000001100001000101110111000000110000101111011001001101010000001100010011011111001010001000000011000111001110110011011100000000110010100000010111100000000000001100110100111001101100110000000011010000110100000111001011000000110101001100001100100001010000001101100100001010000011011000000011011101100111001110001000000000111000100111001010110110000000001110011110000010000111010110000011101100110000010011110010000000111100100010010111011010011100001111011110100101011101011000000011111101001101010101011100001000000000101100101010101000111110000000100001011010100010101000000000001101110110100010010110010000000100110011111011000011100000000001100001111101111000101010000000011101100011010100101000000000001000100110001100011110000000000010011011110101111100101000000000101011001111001101111011000000 M
b110100001101000001110010110000001100110100111001101100110000000011001010000001011110000000000000110001110011101100110111000000001100010011011111001010001000000011000010111101100100110101000000110000011000010001011101110000001100000010001100001010101100000011000000000011111001100000000000110000000000111110011000000000001100000010001100001010101100000011000001100001000101110111000000110000101111011001001101010000001100010011011111001010001000000011000111001110110011011100000000110010100000010111100000000000001100110100111001101100110000000011010000110100000111001011000000110101001100001100100001010000001101100100001010000011011000000011011101100111001110001000000000111000100111001010110110000000001110011110000010000111010110000011101100110000010011110010000000111100100010010111011010011100001111011110100101011101011000000011111101001101010101011100001000000000101100101010101000111110000000100001011010100010101000000000001101110110100010010110010000000100110011111011000011100000000001100001111101111000101010000000011101100011010100101000000000001000100110001100011110000000000010011011110101111100101000000000101011001111001101111011000000 T
1%
#80000
0%
b11100100000100011111 +
b11100100000100011111 -
b11100100000100011111 A
b1 g
#90000
b110000111100111001101 D
b111111111111110011100001100010001111111111110110101101101011000111111111111100010001110101000000111111111110110010011001101111001111111111101001100101001010110111111111111010000100111100001110111111111110100010101000001100111111111111101001011000110010011111111111111010100100101000101010111111111110101101011011011110101111111111101100100101010000000111111111111011011111010001011101111111111110111101111010111010011111111111110001001110100100000011111111111100110010100100110000111111111111010100111000101011101111111111110111010110001011001111111111111110010111100010111001111111111111101110001000001110001111111111111101011101110010011111111111111111110011011001111110000000000000000010111000101001010000000000000001111100011101111100000000000000101101100010101010000000000000001101100110000000100000000000000011100101011001101000000000000000110110011000000010000000000000001011011000101010100000000000000001111100011110000000000000000000001011100010100101 .
b111111111111110011100001100010001111111111110110101101101011000111111111111100010001110101000000111111111110110010011001101111001111111111101001100101001010110111111111111010000100111100001110111111111110100010101000001100111111111111101001011000110010011111111111111010100100101000101010111111111110101101011011011110101111111111101100100101010000000111111111111011011111010001011101111111111110111101111010111010011111111111110001001110100100000011111111111100110010100100110000111111111111010100111000101011101111111111110111010110001011001111111111111110010111100010111001111111111111101110001000001110001111111111111101011101110010011111111111111111110011011001111110000000000000000010111000101001010000000000000001111100011101111100000000000000101101100010101010000000000000001101100110000000100000000000000011100101011001101000000000000000110110011000000010000000000000001011011000101010100000000000000001111100011110000000000000000000001011100010100101 F
b100100 b
b1001101111010111110010100000000001100001111101111000101010000000001000010110101000101010000000111101111010010101110101100000001110011110000010000111010110000011011001000010100000110110000000110011010011100110110011000000001100010011011111001010001000000011000000100011000010101011000000110000001000110000101010110000001100010011011111001010001000000011001101001110011011001100000000110110010000101000001101100000001110011110000010000111010110000011110111101001010111010110000000000010000101101010001010100000000001100001111101111000101010000000100110111101011111001010000000001100101100011001001101000000000011101100100000110101111000000000111111011100111101010101000000001111110111001111010101010000000011101100100000110101111000000000110010110001100100110100000000001001101111010111110010100000000001100001111101111000101010000000001000010110101000101010000000111101111010010101110101100000001110011110000010000111010110000011011001000010100000110110000000110011010011100110110011000000001100010011011111001010001000000011000000100011000010101011000000110000001000110000101010110000001100010011011111001010001000000011001101001110011011001100000000 R
b11000011110011100110100000000000011100100000100011111 G
b10 6
b10 @
b10 H
b11 4
1%
#100000
0%
b0 +
b0 -
b0 A
b10 g
